Jul 19 16:10:47.742 HYPERVISOR: Release 0.2.16-amd64/Linux (tag 2015060118)
Jul 19 16:10:47.742 HYPERVISOR: Started on IP = 127.0.0.1, TCP port = 41475.
Jul 19 16:10:47.752 HYPERVISOR: exec_cmd: hypervisor version 
Jul 19 16:10:47.753 HYPERVISOR: exec_cmd: hypervisor working_dir /media/actionmystique/SAMSUNG-850-Ext4/Labs/GNS3/CCNP/TBSHOOT/Exam-Topology/Jean-Christophe_Manciot/1+/v1-solutions-linux/project-files/dynamips 
Jul 19 16:10:47.753 GENERAL: working_dir=/media/actionmystique/SAMSUNG-850-Ext4/Labs/GNS3/CCNP/TBSHOOT/Exam-Topology/Jean-Christophe_Manciot/1+/v1-solutions-linux/project-files/dynamips
Jul 19 16:10:47.755 HYPERVISOR: exec_cmd: vm create R2 6 c7200 
Jul 19 16:10:47.755 VM: VM R2 created.
Jul 19 16:10:47.756 HYPERVISOR: exec_cmd: vm set_con_tcp_port R2 2001 
Jul 19 16:10:47.757 HYPERVISOR: exec_cmd: c7200 get_mac_addr R2 
Jul 19 16:10:47.759 HYPERVISOR: exec_cmd: vm get_status R2 
Jul 19 16:10:47.760 HYPERVISOR: exec_cmd: vm slot_add_binding R2 0 0 C7200-IO-FE 
Jul 19 16:10:47.761 HYPERVISOR: exec_cmd: vm get_status R2 
Jul 19 16:10:47.763 HYPERVISOR: exec_cmd: vm slot_remove_binding R2 0 0 
Jul 19 16:10:47.765 HYPERVISOR: exec_cmd: vm get_status R2 
Jul 19 16:10:47.766 HYPERVISOR: exec_cmd: vm slot_add_binding R2 0 0 C7200-IO-GE-E 
Jul 19 16:10:47.774 HYPERVISOR: exec_cmd: c7200 set_mac_addr R2 ca06.2e53.0000 
Jul 19 16:10:47.787 HYPERVISOR: exec_cmd: vm set_disk0 R2 1 
Jul 19 16:10:47.799 HYPERVISOR: exec_cmd: vm get_status R2 
Jul 19 16:10:47.809 HYPERVISOR: exec_cmd: vm slot_add_binding R2 6 0 PA-POS-OC3 
Jul 19 16:10:47.815 HYPERVISOR: exec_cmd: vm set_ram R2 512 
Jul 19 16:10:47.817 HYPERVISOR: exec_cmd: vm get_status R2 
Jul 19 16:10:47.819 HYPERVISOR: exec_cmd: vm slot_add_binding R2 3 0 PA-GE 
Jul 19 16:10:47.821 HYPERVISOR: exec_cmd: vm set_ios R2 /media/actionmystique/SAMSUNG-850-Ext4/Images/GNS3/IOS/c7200-adventerprisek9-mz.152-4.M2.image 
Jul 19 16:10:47.823 HYPERVISOR: exec_cmd: vm get_status R2 
Jul 19 16:10:47.824 HYPERVISOR: exec_cmd: vm slot_add_binding R2 4 0 PA-4T+ 
Jul 19 16:10:47.826 HYPERVISOR: exec_cmd: vm get_status R2 
Jul 19 16:10:47.830 HYPERVISOR: exec_cmd: vm set_idle_pc R2 0x6062f0e0 
Jul 19 16:10:47.834 HYPERVISOR: exec_cmd: vm get_status R2 
Jul 19 16:10:47.835 HYPERVISOR: exec_cmd: vm slot_add_binding R2 1 0 PA-GE 
Jul 19 16:10:47.845 HYPERVISOR: exec_cmd: vm get_status R2 
Jul 19 16:10:47.847 HYPERVISOR: exec_cmd: vm slot_add_binding R2 5 0 PA-POS-OC3 
Jul 19 16:10:47.855 HYPERVISOR: exec_cmd: vm get_status R2 
Jul 19 16:10:47.863 HYPERVISOR: exec_cmd: vm slot_add_binding R2 2 0 PA-GE 
Jul 19 16:10:47.866 HYPERVISOR: exec_cmd: vm set_nvram R2 256 
Jul 19 16:10:47.868 HYPERVISOR: exec_cmd: vm set_config R2 configs/i6_startup-config.cfg 
Jul 19 16:10:47.869 HYPERVISOR: exec_cmd: vm set_config R2 configs/i6_startup-config.cfg configs/i6_private-config.cfg 
Jul 19 16:10:48.763 HYPERVISOR: exec_cmd: nio create_udp udp-4789d404-3cf5-4fc5-a4c0-282a9a8d629c 15031 127.0.0.1 15033 
Jul 19 16:10:48.765 HYPERVISOR: exec_cmd: vm slot_add_nio_binding R2 4 0 udp-4789d404-3cf5-4fc5-a4c0-282a9a8d629c 
Jul 19 16:10:48.765 HYPERVISOR: exec_cmd: vm get_status R2 
Jul 19 16:11:05.911 HYPERVISOR: exec_cmd: vm get_status R2 
Jul 19 16:11:05.915 HYPERVISOR: exec_cmd: vm extract_config R2 
Jul 19 16:11:05.928 HYPERVISOR: exec_cmd: vm delete R2 
Jul 19 16:11:05.928 VM: VM R2 destroyed.
Jul 19 16:11:05.931 HYPERVISOR: exec_cmd: hypervisor stop 
Jul 19 16:11:06.266 HYPERVISOR: Stopped.
Jul 19 16:11:06.266 GENERAL: reset done.
