Nov 26 21:56:02.779 HYPERVISOR: Release 0.2.17-amd64/Linux (tag 2017072410)
Nov 26 21:56:02.779 HYPERVISOR: Started on IP = 127.0.0.1, TCP port = 57829.
Nov 26 21:56:02.803 HYPERVISOR: exec_cmd: hypervisor version 
Nov 26 21:56:02.804 HYPERVISOR: exec_cmd: hypervisor working_dir /media/actionmystique/SAMSUNG5-VMs/Labs/GNS3/git-Public-Labs-Collection/CCNP/TBSHOOT/Exam-Topology/Jean-Christophe_Manciot/1+/v1-solutions-linux/project-files/dynamips 
Nov 26 21:56:02.804 GENERAL: working_dir=/media/actionmystique/SAMSUNG5-VMs/Labs/GNS3/git-Public-Labs-Collection/CCNP/TBSHOOT/Exam-Topology/Jean-Christophe_Manciot/1+/v1-solutions-linux/project-files/dynamips
Nov 26 21:56:02.804 HYPERVISOR: exec_cmd: vm create POP 10 c3725 
Nov 26 21:56:02.804 VM: VM POP created.
Nov 26 21:56:02.804 HYPERVISOR: exec_cmd: vm set_con_tcp_port POP 2017 
Nov 26 21:56:02.805 HYPERVISOR: exec_cmd: c3725 get_mac_addr POP 
Nov 26 21:56:02.805 HYPERVISOR: exec_cmd: vm slot_add_binding POP 0 16 WIC-2T 
Nov 26 21:56:02.805 HYPERVISOR: exec_cmd: vm get_status POP 
Nov 26 21:56:02.806 HYPERVISOR: exec_cmd: vm set_idle_pc POP 0x6026b804 
Nov 26 21:56:02.806 HYPERVISOR: exec_cmd: vm set_nvram POP 256 
Nov 26 21:56:02.806 HYPERVISOR: exec_cmd: vm get_status POP 
Nov 26 21:56:02.807 HYPERVISOR: exec_cmd: vm slot_add_binding POP 1 0 NM-16ESW 
Nov 26 21:56:02.807 HYPERVISOR: exec_cmd: vm set_ios POP /media/actionmystique/SAMSUNG5-VMs/Images/GNS3/IOS/c3725-adventerprisek9-mz.124-15.T10.image 
Nov 26 21:56:02.808 HYPERVISOR: exec_cmd: vm set_disk0 POP 1 
Nov 26 21:56:02.808 HYPERVISOR: exec_cmd: c3725 set_mac_addr POP c20a.12bf.0000 
Nov 26 21:56:02.809 HYPERVISOR: exec_cmd: vm set_config POP configs/i10_startup-config.cfg 
Nov 26 21:56:02.809 HYPERVISOR: exec_cmd: vm set_config POP configs/i10_startup-config.cfg configs/i10_private-config.cfg 
Nov 26 21:56:03.924 HYPERVISOR: exec_cmd: nio create_udp udp-fe02f676-8eff-454f-af7c-8db0e63bd5d6 15054 127.0.0.1 15055 
Nov 26 21:56:03.925 HYPERVISOR: exec_cmd: vm slot_add_nio_binding POP 1 4 udp-fe02f676-8eff-454f-af7c-8db0e63bd5d6 
Nov 26 21:56:03.925 HYPERVISOR: exec_cmd: vm get_status POP 
Nov 26 21:56:03.953 HYPERVISOR: exec_cmd: nio create_udp udp-0b01a6a8-f411-44a3-b343-c877d44ff5c3 15058 127.0.0.1 15056 
Nov 26 21:56:03.953 HYPERVISOR: exec_cmd: vm slot_add_nio_binding POP 1 2 udp-0b01a6a8-f411-44a3-b343-c877d44ff5c3 
Nov 26 21:56:03.953 HYPERVISOR: exec_cmd: vm get_status POP 
Nov 26 21:56:03.973 HYPERVISOR: exec_cmd: nio create_udp udp-749d94b1-7a3d-4f78-9b22-0f381e2e6161 15059 127.0.0.1 15057 
Nov 26 21:56:03.973 HYPERVISOR: exec_cmd: vm slot_add_nio_binding POP 1 1 udp-749d94b1-7a3d-4f78-9b22-0f381e2e6161 
Nov 26 21:56:03.974 HYPERVISOR: exec_cmd: vm get_status POP 
Nov 26 21:56:03.988 HYPERVISOR: exec_cmd: nio create_udp udp-16d4b174-6adf-4ec5-b0b7-37a8cf4c9465 15060 127.0.0.1 15061 
Nov 26 21:56:03.989 HYPERVISOR: exec_cmd: vm slot_add_nio_binding POP 1 3 udp-16d4b174-6adf-4ec5-b0b7-37a8cf4c9465 
Nov 26 21:56:03.989 HYPERVISOR: exec_cmd: vm get_status POP 
