Nov 28 08:12:17.188 HYPERVISOR: Release 0.2.17-amd64/Linux (tag 2017072410)
Nov 28 08:12:17.188 HYPERVISOR: Started on IP = 127.0.0.1, TCP port = 36643.
Nov 28 08:12:17.210 HYPERVISOR: exec_cmd: hypervisor version 
Nov 28 08:12:17.210 HYPERVISOR: exec_cmd: hypervisor working_dir /media/actionmystique/SAMSUNG5-VMs/Labs/GNS3/TT 1-linux-/project-files/dynamips 
Nov 28 08:12:17.210 GENERAL: working_dir=/media/actionmystique/SAMSUNG5-VMs/Labs/GNS3/TT 1-linux-/project-files/dynamips
Nov 28 08:12:17.211 HYPERVISOR: exec_cmd: vm create ESW5 5 c3725 
Nov 28 08:12:17.211 VM: VM ESW5 created.
Nov 28 08:12:17.211 HYPERVISOR: exec_cmd: vm set_con_tcp_port ESW5 2010 
Nov 28 08:12:17.212 HYPERVISOR: exec_cmd: c3725 get_mac_addr ESW5 
Nov 28 08:12:17.214 HYPERVISOR: exec_cmd: vm set_disk0 ESW5 1 
Nov 28 08:12:17.215 HYPERVISOR: exec_cmd: vm get_status ESW5 
Nov 28 08:12:17.215 HYPERVISOR: exec_cmd: vm slot_add_binding ESW5 1 0 NM-16ESW 
Nov 28 08:12:17.216 HYPERVISOR: exec_cmd: vm set_ios ESW5 /media/actionmystique/SAMSUNG5-VMs/Images/GNS3/IOS/c3725-adventerprisek9-mz.124-15.T10.image 
Nov 28 08:12:17.216 HYPERVISOR: exec_cmd: c3725 set_mac_addr ESW5 c205.6a03.0000 
Nov 28 08:12:17.217 HYPERVISOR: exec_cmd: vm slot_add_binding ESW5 0 16 WIC-2T 
Nov 28 08:12:17.217 HYPERVISOR: exec_cmd: vm get_status ESW5 
Nov 28 08:12:17.218 HYPERVISOR: exec_cmd: vm set_idle_pc ESW5 0x614ac27c 
Nov 28 08:12:17.218 HYPERVISOR: exec_cmd: vm set_nvram ESW5 256 
Nov 28 08:12:17.218 HYPERVISOR: exec_cmd: vm set_config ESW5 configs/ios_base_startup-config.txt 
Nov 28 08:12:17.219 HYPERVISOR: exec_cmd: vm set_config ESW5 configs/ios_base_startup-config.txt configs/ios_base_private-config.txt 
Nov 28 08:12:17.567 HYPERVISOR: exec_cmd: nio create_udp udp-d6425bfd-3ea6-4877-b2bd-a2344f3b0dc6 15017 127.0.0.1 15016 
Nov 28 08:12:17.568 HYPERVISOR: exec_cmd: vm slot_add_nio_binding ESW5 1 0 udp-d6425bfd-3ea6-4877-b2bd-a2344f3b0dc6 
Nov 28 08:12:17.568 HYPERVISOR: exec_cmd: vm get_status ESW5 
Nov 28 08:12:17.575 HYPERVISOR: exec_cmd: nio create_udp udp-f783831b-0c3f-4616-b891-fb2b5268fb20 15018 127.0.0.1 15019 
Nov 28 08:12:17.576 HYPERVISOR: exec_cmd: vm slot_add_nio_binding ESW5 1 1 udp-f783831b-0c3f-4616-b891-fb2b5268fb20 
Nov 28 08:12:17.576 HYPERVISOR: exec_cmd: vm get_status ESW5 
Nov 28 08:12:53.203 HYPERVISOR: exec_cmd: vm get_status ESW5 
Nov 28 08:12:53.206 HYPERVISOR: exec_cmd: vm extract_config ESW5 
Nov 28 08:12:53.207 HYPERVISOR: exec_cmd: vm delete ESW5 
Nov 28 08:12:53.207 VM: VM ESW5 destroyed.
Nov 28 08:12:53.209 HYPERVISOR: exec_cmd: hypervisor stop 
Nov 28 08:12:53.240 HYPERVISOR: Stopped.
Nov 28 08:12:53.240 GENERAL: reset done.
