Nov 27 15:45:57.914 HYPERVISOR: Release 0.2.17-amd64/Linux (tag 2017072410)
Nov 27 15:45:57.914 HYPERVISOR: Started on IP = 127.0.0.1, TCP port = 56989.
Nov 27 15:45:57.928 HYPERVISOR: exec_cmd: hypervisor version 
Nov 27 15:45:57.928 HYPERVISOR: exec_cmd: hypervisor working_dir /media/actionmystique/SAMSUNG5-VMs/Labs/GNS3/git-Public-Labs-Collection/CCNP/TBSHOOT/L2-Technologies/EtherChannel/L2/Jean-Christophe_Manciot/1+/TT 2-linux/project-files/dynamips 
Nov 27 15:45:57.928 GENERAL: working_dir=/media/actionmystique/SAMSUNG5-VMs/Labs/GNS3/git-Public-Labs-Collection/CCNP/TBSHOOT/L2-Technologies/EtherChannel/L2/Jean-Christophe_Manciot/1+/TT 2-linux/project-files/dynamips
Nov 27 15:45:57.929 HYPERVISOR: exec_cmd: vm create SW1 1 c3725 
Nov 27 15:45:57.929 VM: VM SW1 created.
Nov 27 15:45:57.929 HYPERVISOR: exec_cmd: vm set_con_tcp_port SW1 2001 
Nov 27 15:45:57.929 HYPERVISOR: exec_cmd: c3725 get_mac_addr SW1 
Nov 27 15:45:57.930 HYPERVISOR: exec_cmd: c3725 set_mac_addr SW1 aaaa.aaaa.aaaa 
Nov 27 15:45:57.930 HYPERVISOR: exec_cmd: vm get_status SW1 
Nov 27 15:45:57.930 HYPERVISOR: exec_cmd: vm set_idle_pc SW1 0x614ac2c4 
Nov 27 15:45:57.931 HYPERVISOR: exec_cmd: vm slot_add_binding SW1 0 16 WIC-2T 
Nov 27 15:45:57.931 HYPERVISOR: exec_cmd: vm set_ios SW1 /media/actionmystique/SAMSUNG5-VMs/Images/GNS3/IOS/c3725-adventerprisek9-mz.124-15.T10.image 
Nov 27 15:45:57.932 HYPERVISOR: exec_cmd: vm set_nvram SW1 256 
Nov 27 15:45:57.932 HYPERVISOR: exec_cmd: vm get_status SW1 
Nov 27 15:45:57.932 HYPERVISOR: exec_cmd: vm slot_add_binding SW1 1 0 NM-16ESW 
Nov 27 15:45:57.933 HYPERVISOR: exec_cmd: vm set_exec_area SW1 16 
Nov 27 15:45:57.933 HYPERVISOR: exec_cmd: vm set_disk0 SW1 1 
Nov 27 15:45:57.934 HYPERVISOR: exec_cmd: vm set_config SW1 configs/i1_startup-config.cfg 
Nov 27 15:45:57.934 HYPERVISOR: exec_cmd: vm set_config SW1 configs/i1_startup-config.cfg configs/i1_private-config.cfg 
Nov 27 15:45:57.958 HYPERVISOR: exec_cmd: nio create_null null-615ce2b1-6cd3-43e9-881a-8dd55d2f0fe6 
Nov 27 15:45:57.958 HYPERVISOR: exec_cmd: vm slot_add_nio_binding SW1 1 0 null-615ce2b1-6cd3-43e9-881a-8dd55d2f0fe6 
Nov 27 15:45:57.959 HYPERVISOR: exec_cmd: vm get_status SW1 
Nov 27 15:45:58.089 HYPERVISOR: exec_cmd: nio create_udp udp-41782c5c-d9d8-4ce3-b762-6442d5bb80d8 15005 127.0.0.1 15004 
Nov 27 15:45:58.089 HYPERVISOR: exec_cmd: vm slot_add_nio_binding SW1 1 6 udp-41782c5c-d9d8-4ce3-b762-6442d5bb80d8 
Nov 27 15:45:58.090 HYPERVISOR: exec_cmd: vm get_status SW1 
Nov 27 15:45:58.103 HYPERVISOR: exec_cmd: nio create_udp udp-30a68a4f-6b67-4761-abe5-fb92f51c0e71 15007 127.0.0.1 15006 
Nov 27 15:45:58.106 HYPERVISOR: exec_cmd: vm slot_add_nio_binding SW1 1 5 udp-30a68a4f-6b67-4761-abe5-fb92f51c0e71 
Nov 27 15:45:58.107 HYPERVISOR: exec_cmd: vm get_status SW1 
Nov 27 15:45:58.112 HYPERVISOR: exec_cmd: nio create_udp udp-5e4d0504-5ede-4c6a-a7e0-566c68a65944 15008 127.0.0.1 15009 
Nov 27 15:45:58.116 HYPERVISOR: exec_cmd: vm slot_add_nio_binding SW1 1 1 udp-5e4d0504-5ede-4c6a-a7e0-566c68a65944 
Nov 27 15:45:58.116 HYPERVISOR: exec_cmd: vm get_status SW1 
