Nov 28 08:28:34.692 HYPERVISOR: Release 0.2.17-amd64/Linux (tag 2017072410)
Nov 28 08:28:34.692 HYPERVISOR: Started on IP = 127.0.0.1, TCP port = 49845.
Nov 28 08:28:34.711 HYPERVISOR: exec_cmd: hypervisor version 
Nov 28 08:28:34.712 HYPERVISOR: exec_cmd: hypervisor working_dir /media/actionmystique/SAMSUNG5-VMs/Labs/GNS3/TT 2-solutions-linux-/project-files/dynamips 
Nov 28 08:28:34.712 GENERAL: working_dir=/media/actionmystique/SAMSUNG5-VMs/Labs/GNS3/TT 2-solutions-linux-/project-files/dynamips
Nov 28 08:28:34.713 HYPERVISOR: exec_cmd: vm create ESW1 1 c3725 
Nov 28 08:28:34.713 VM: VM ESW1 created.
Nov 28 08:28:34.713 HYPERVISOR: exec_cmd: vm set_con_tcp_port ESW1 2001 
Nov 28 08:28:34.714 HYPERVISOR: exec_cmd: vm set_aux_tcp_port ESW1 2501 
Nov 28 08:28:34.714 HYPERVISOR: exec_cmd: c3725 get_mac_addr ESW1 
Nov 28 08:28:34.715 HYPERVISOR: exec_cmd: vm set_disk0 ESW1 1 
Nov 28 08:28:34.716 HYPERVISOR: exec_cmd: vm get_status ESW1 
Nov 28 08:28:34.716 HYPERVISOR: exec_cmd: vm slot_add_binding ESW1 1 0 NM-16ESW 
Nov 28 08:28:34.716 HYPERVISOR: exec_cmd: vm set_ios ESW1 /media/actionmystique/SAMSUNG5-VMs/Images/GNS3/IOS/c3725-adventerprisek9-mz.124-15.T10.image 
Nov 28 08:28:34.717 HYPERVISOR: exec_cmd: c3725 set_mac_addr ESW1 c201.3297.0000 
Nov 28 08:28:34.717 HYPERVISOR: exec_cmd: vm slot_add_binding ESW1 0 16 WIC-2T 
Nov 28 08:28:34.718 HYPERVISOR: exec_cmd: vm get_status ESW1 
Nov 28 08:28:34.718 HYPERVISOR: exec_cmd: vm set_idle_pc ESW1 0x60c06d20 
Nov 28 08:28:34.718 HYPERVISOR: exec_cmd: vm set_nvram ESW1 256 
Nov 28 08:28:34.719 HYPERVISOR: exec_cmd: vm set_config ESW1 configs/i1_startup-config.cfg 
Nov 28 08:28:34.719 HYPERVISOR: exec_cmd: vm set_config ESW1 configs/i1_startup-config.cfg configs/i1_private-config.cfg 
Nov 28 08:28:34.837 HYPERVISOR: exec_cmd: nio create_udp udp-c97422c3-df56-4c37-8c9e-4a4ea947f9fb 15001 127.0.0.1 15000 
Nov 28 08:28:34.843 HYPERVISOR: exec_cmd: vm slot_add_nio_binding ESW1 1 1 udp-c97422c3-df56-4c37-8c9e-4a4ea947f9fb 
Nov 28 08:28:34.843 HYPERVISOR: exec_cmd: vm get_status ESW1 
Nov 28 08:28:34.849 HYPERVISOR: exec_cmd: nio create_udp udp-d12915c6-645a-434b-9083-0dae2ed009f6 15002 127.0.0.1 15003 
Nov 28 08:28:34.849 HYPERVISOR: exec_cmd: vm slot_add_nio_binding ESW1 1 2 udp-d12915c6-645a-434b-9083-0dae2ed009f6 
Nov 28 08:28:34.850 HYPERVISOR: exec_cmd: vm get_status ESW1 
Nov 28 08:29:06.914 HYPERVISOR: exec_cmd: vm get_status ESW1 
Nov 28 08:29:06.915 HYPERVISOR: exec_cmd: vm extract_config ESW1 
Nov 28 08:29:06.916 HYPERVISOR: exec_cmd: vm delete ESW1 
Nov 28 08:29:06.916 VM: VM ESW1 destroyed.
Nov 28 08:29:06.916 HYPERVISOR: exec_cmd: hypervisor stop 
Nov 28 08:29:07.246 HYPERVISOR: Stopped.
Nov 28 08:29:07.246 GENERAL: reset done.
