Nov 28 08:20:13.890 HYPERVISOR: Release 0.2.17-amd64/Linux (tag 2017072410)
Nov 28 08:20:13.890 HYPERVISOR: Started on IP = 127.0.0.1, TCP port = 43339.
Nov 28 08:20:13.903 HYPERVISOR: exec_cmd: hypervisor version 
Nov 28 08:20:13.903 HYPERVISOR: exec_cmd: hypervisor working_dir /media/actionmystique/SAMSUNG5-VMs/Labs/GNS3/TT 1-solutions-linux-/project-files/dynamips 
Nov 28 08:20:13.903 GENERAL: working_dir=/media/actionmystique/SAMSUNG5-VMs/Labs/GNS3/TT 1-solutions-linux-/project-files/dynamips
Nov 28 08:20:13.904 HYPERVISOR: exec_cmd: vm create ESW3 3 c3725 
Nov 28 08:20:13.904 VM: VM ESW3 created.
Nov 28 08:20:13.909 HYPERVISOR: exec_cmd: vm set_con_tcp_port ESW3 2003 
Nov 28 08:20:13.909 HYPERVISOR: exec_cmd: c3725 get_mac_addr ESW3 
Nov 28 08:20:13.910 HYPERVISOR: exec_cmd: vm set_disk0 ESW3 1 
Nov 28 08:20:13.910 HYPERVISOR: exec_cmd: vm get_status ESW3 
Nov 28 08:20:13.910 HYPERVISOR: exec_cmd: vm slot_add_binding ESW3 1 0 NM-16ESW 
Nov 28 08:20:13.911 HYPERVISOR: exec_cmd: vm set_ios ESW3 /media/actionmystique/SAMSUNG5-VMs/Images/GNS3/IOS/c3725-adventerprisek9-mz.124-15.T10.image 
Nov 28 08:20:13.911 HYPERVISOR: exec_cmd: c3725 set_mac_addr ESW3 c203.165d.0000 
Nov 28 08:20:13.912 HYPERVISOR: exec_cmd: vm slot_add_binding ESW3 0 16 WIC-2T 
Nov 28 08:20:13.912 HYPERVISOR: exec_cmd: vm get_status ESW3 
Nov 28 08:20:13.912 HYPERVISOR: exec_cmd: vm set_idle_pc ESW3 0x6026b804 
Nov 28 08:20:13.913 HYPERVISOR: exec_cmd: vm set_nvram ESW3 256 
Nov 28 08:20:13.913 HYPERVISOR: exec_cmd: vm set_config ESW3 configs/i3_startup-config.cfg 
Nov 28 08:20:13.914 HYPERVISOR: exec_cmd: vm set_config ESW3 configs/i3_startup-config.cfg configs/i3_private-config.cfg 
Nov 28 08:20:14.037 HYPERVISOR: exec_cmd: nio create_tap tap-308c15d0-f791-40e4-a492-19f4e2d3a3ca tap6 
Nov 28 08:20:14.041 HYPERVISOR: exec_cmd: vm slot_add_nio_binding ESW3 1 0 tap-308c15d0-f791-40e4-a492-19f4e2d3a3ca 
Nov 28 08:20:14.042 HYPERVISOR: exec_cmd: vm get_status ESW3 
Nov 28 08:20:14.095 HYPERVISOR: exec_cmd: nio create_udp udp-ecd2cbf9-3df5-47da-9427-47eaba88d41b 15005 127.0.0.1 15007 
Nov 28 08:20:14.098 HYPERVISOR: exec_cmd: vm slot_add_nio_binding ESW3 1 1 udp-ecd2cbf9-3df5-47da-9427-47eaba88d41b 
Nov 28 08:20:14.098 HYPERVISOR: exec_cmd: vm get_status ESW3 
Nov 28 08:20:32.780 HYPERVISOR: exec_cmd: vm get_status ESW3 
Nov 28 08:20:32.781 HYPERVISOR: exec_cmd: vm extract_config ESW3 
Nov 28 08:20:32.782 HYPERVISOR: exec_cmd: vm delete ESW3 
Nov 28 08:20:32.782 VM: VM ESW3 destroyed.
Nov 28 08:20:32.783 HYPERVISOR: exec_cmd: hypervisor stop 
Nov 28 08:20:32.922 HYPERVISOR: Stopped.
Nov 28 08:20:32.922 GENERAL: reset done.
