Dec 04 11:07:28.272 HYPERVISOR: Release 0.2.17-amd64/Linux (tag 2017072410)
Dec 04 11:07:28.272 HYPERVISOR: Started on IP = 127.0.0.1, TCP port = 35611.
Dec 04 11:07:28.281 HYPERVISOR: exec_cmd: hypervisor version 
Dec 04 11:07:28.281 HYPERVISOR: exec_cmd: hypervisor working_dir /media/actionmystique/SAMSUNG5-VMs/Labs/GNS3/git-Public-Labs-Collection/CCNP/TBSHOOT/L3-Technologies/IPv6/Routing-Protocols/OSPFv3/Jean-Christophe_Manciot/1+/TT 2-linux/project-files/dynamips 
Dec 04 11:07:28.281 GENERAL: working_dir=/media/actionmystique/SAMSUNG5-VMs/Labs/GNS3/git-Public-Labs-Collection/CCNP/TBSHOOT/L3-Technologies/IPv6/Routing-Protocols/OSPFv3/Jean-Christophe_Manciot/1+/TT 2-linux/project-files/dynamips
Dec 04 11:07:28.282 HYPERVISOR: exec_cmd: vm create ESW1 1 c3725 
Dec 04 11:07:28.282 VM: VM ESW1 created.
Dec 04 11:07:28.282 HYPERVISOR: exec_cmd: vm set_con_tcp_port ESW1 2004 
Dec 04 11:07:28.283 HYPERVISOR: exec_cmd: c3725 get_mac_addr ESW1 
Dec 04 11:07:28.283 HYPERVISOR: exec_cmd: vm set_nvram ESW1 256 
Dec 04 11:07:28.284 HYPERVISOR: exec_cmd: vm get_status ESW1 
Dec 04 11:07:28.284 HYPERVISOR: exec_cmd: vm slot_add_binding ESW1 1 0 NM-16ESW 
Dec 04 11:07:28.285 HYPERVISOR: exec_cmd: vm set_ios ESW1 /media/actionmystique/SAMSUNG5-VMs/Images/GNS3/IOS/c3725-adventerprisek9-mz.124-15.T10.image 
Dec 04 11:07:28.285 HYPERVISOR: exec_cmd: vm set_disk0 ESW1 1 
Dec 04 11:07:28.286 HYPERVISOR: exec_cmd: c3725 set_mac_addr ESW1 c201.1b91.0000 
Dec 04 11:07:28.288 HYPERVISOR: exec_cmd: vm slot_add_binding ESW1 0 16 WIC-2T 
Dec 04 11:07:28.289 HYPERVISOR: exec_cmd: vm get_status ESW1 
Dec 04 11:07:28.292 HYPERVISOR: exec_cmd: vm set_idle_pc ESW1 0x614ac27c 
Dec 04 11:07:28.296 HYPERVISOR: exec_cmd: vm set_config ESW1 configs/ios_base_startup-config.txt 
Dec 04 11:07:28.299 HYPERVISOR: exec_cmd: vm set_config ESW1 configs/ios_base_startup-config.txt configs/ios_base_private-config.txt 
Dec 04 11:07:28.609 HYPERVISOR: exec_cmd: nio create_udp udp-8ab2f4ba-6803-4432-b817-7007467f759b 15006 127.0.0.1 15004 
Dec 04 11:07:28.611 HYPERVISOR: exec_cmd: vm slot_add_nio_binding ESW1 1 0 udp-8ab2f4ba-6803-4432-b817-7007467f759b 
Dec 04 11:07:28.612 HYPERVISOR: exec_cmd: vm get_status ESW1 
Dec 04 11:07:28.643 HYPERVISOR: exec_cmd: nio create_udp udp-959e64cc-2d81-446a-ac0f-a43bc695c852 15007 127.0.0.1 15008 
Dec 04 11:07:28.644 HYPERVISOR: exec_cmd: vm slot_add_nio_binding ESW1 1 1 udp-959e64cc-2d81-446a-ac0f-a43bc695c852 
Dec 04 11:07:28.644 HYPERVISOR: exec_cmd: vm get_status ESW1 
