Dec 04 11:07:28.376 HYPERVISOR: Release 0.2.17-amd64/Linux (tag 2017072410)
Dec 04 11:07:28.376 HYPERVISOR: Started on IP = 127.0.0.1, TCP port = 42065.
Dec 04 11:07:28.387 HYPERVISOR: exec_cmd: hypervisor version 
Dec 04 11:07:28.388 HYPERVISOR: exec_cmd: hypervisor working_dir /media/actionmystique/SAMSUNG5-VMs/Labs/GNS3/git-Public-Labs-Collection/CCNP/TBSHOOT/L3-Technologies/IPv6/Routing-Protocols/OSPFv3/Jean-Christophe_Manciot/1+/TT 2-linux/project-files/dynamips 
Dec 04 11:07:28.388 GENERAL: working_dir=/media/actionmystique/SAMSUNG5-VMs/Labs/GNS3/git-Public-Labs-Collection/CCNP/TBSHOOT/L3-Technologies/IPv6/Routing-Protocols/OSPFv3/Jean-Christophe_Manciot/1+/TT 2-linux/project-files/dynamips
Dec 04 11:07:28.390 HYPERVISOR: exec_cmd: vm create ESW5 5 c3725 
Dec 04 11:07:28.390 VM: VM ESW5 created.
Dec 04 11:07:28.391 HYPERVISOR: exec_cmd: vm set_con_tcp_port ESW5 2010 
Dec 04 11:07:28.392 HYPERVISOR: exec_cmd: c3725 get_mac_addr ESW5 
Dec 04 11:07:28.392 HYPERVISOR: exec_cmd: vm set_nvram ESW5 256 
Dec 04 11:07:28.393 HYPERVISOR: exec_cmd: vm get_status ESW5 
Dec 04 11:07:28.393 HYPERVISOR: exec_cmd: vm slot_add_binding ESW5 1 0 NM-16ESW 
Dec 04 11:07:28.394 HYPERVISOR: exec_cmd: vm set_ios ESW5 /media/actionmystique/SAMSUNG5-VMs/Images/GNS3/IOS/c3725-adventerprisek9-mz.124-15.T10.image 
Dec 04 11:07:28.395 HYPERVISOR: exec_cmd: vm set_disk0 ESW5 1 
Dec 04 11:07:28.396 HYPERVISOR: exec_cmd: c3725 set_mac_addr ESW5 c205.6a03.0000 
Dec 04 11:07:28.396 HYPERVISOR: exec_cmd: vm slot_add_binding ESW5 0 16 WIC-2T 
Dec 04 11:07:28.397 HYPERVISOR: exec_cmd: vm get_status ESW5 
Dec 04 11:07:28.398 HYPERVISOR: exec_cmd: vm set_idle_pc ESW5 0x614ac27c 
Dec 04 11:07:28.402 HYPERVISOR: exec_cmd: vm set_config ESW5 configs/ios_base_startup-config.txt 
Dec 04 11:07:28.406 HYPERVISOR: exec_cmd: vm set_config ESW5 configs/ios_base_startup-config.txt configs/ios_base_private-config.txt 
Dec 04 11:07:28.714 HYPERVISOR: exec_cmd: nio create_udp udp-5189c252-5364-45d9-9ffc-71e36dfd040d 15014 127.0.0.1 15015 
Dec 04 11:07:28.715 HYPERVISOR: exec_cmd: vm slot_add_nio_binding ESW5 1 0 udp-5189c252-5364-45d9-9ffc-71e36dfd040d 
Dec 04 11:07:28.715 HYPERVISOR: exec_cmd: vm get_status ESW5 
Dec 04 11:07:28.735 HYPERVISOR: exec_cmd: nio create_udp udp-d2885afa-6d2d-41a2-8b29-ce159b930e7b 15016 127.0.0.1 15017 
Dec 04 11:07:28.736 HYPERVISOR: exec_cmd: vm slot_add_nio_binding ESW5 1 1 udp-d2885afa-6d2d-41a2-8b29-ce159b930e7b 
Dec 04 11:07:28.736 HYPERVISOR: exec_cmd: vm get_status ESW5 
