autostart = False
version = 0.8.3
[localhost:7200]
    workingdir = C:\Users\ActionMystique\Documents\Missions\GNS3\Temp
    udp = 10100
    [[3640]]
        image = C:\Users\ActionMystique\Documents\Missions\IOS\Binaries\c3640-jk9o3s-mz.124-16a.bin
        idlepc = 0x604d1c74
        sparsemem = True
        ghostios = True
        chassis = 3640
    [[ROUTER Borg]]
        model = 3640
        console = 2002
        aux = 2110
        cnfg = configs\Borg.cfg
        slot0 = NM-1FE-TX
        f0/0 = Vulcan f1/0
        slot1 = NM-1FE-TX
        f1/0 = Klingon f0/0
        x = -411.369011665
        y = 44.1091270347
        z = 1.0
    [[ROUTER Klingon]]
        model = 3640
        console = 2003
        aux = 2107
        cnfg = configs\Klingon.cfg
        slot0 = NM-1FE-TX
        f0/0 = Borg f1/0
        slot1 = NM-1FE-TX
        f1/0 = Romulan f1/0
        x = -231.961940777
        y = 42.5735931288
        z = 1.0
    [[ROUTER Vulcan]]
        model = 3640
        console = 2000
        aux = 2108
        cnfg = configs\Vulcan.cfg
        slot0 = NM-1FE-TX
        f0/0 = Romulan f0/0
        slot1 = NM-1FE-TX
        f1/0 = Borg f0/0
        x = -408.126370977
        y = -134.100505063
        z = 1.0
    [[ROUTER Romulan]]
        model = 3640
        console = 2001
        aux = 2109
        cnfg = configs\Romulan.cfg
        slot0 = NM-1FE-TX
        f0/0 = Vulcan f0/0
        slot1 = NM-1FE-TX
        f1/0 = Klingon f1/0
        x = -232.961940777
        y = -132.393398282
        z = 1.0
[GNS3-DATA]
    configs = configs
    m11 = 1.41421356237
    m22 = 1.41421356237
    [[NOTE 1]]
        text = "EIGRPv6"
        x = -320.319371877
        y = -209.282791951
        color = "#1a1a1a"
    [[NOTE 2]]
        text = "L0: 2001::4 /128"
        x = -166.87720036
        y = 54.4680374315
        color = "#0000ff"
    [[NOTE 3]]
        text = "L0: 2001::2 /128"
        x = -166.87720036
        y = -125.13708499
        color = "#0000ff"
    [[NOTE 4]]
        text = "L0: 2001::3 /128"
        x = -538.108260483
        y = 53.7609306503
        color = "#0000ff"
    [[NOTE 5]]
        text = "L0: 2001::1 /128"
        x = -533.865619796
        y = -125.844191771
        color = "#0000ff"
    [[SHAPE 1]]
        type = ellipse
        x = -591.848375853
        y = -214.2533547
        width = 596.09101654
        height = 381.13055506
        fill_color = "#ffff7f"
        border_style = 2
        z = -2.0
