Nov 28 08:26:06.619 HYPERVISOR: Release 0.2.17-amd64/Linux (tag 2017072410)
Nov 28 08:26:06.619 HYPERVISOR: Started on IP = 127.0.0.1, TCP port = 36111.
Nov 28 08:26:06.640 HYPERVISOR: exec_cmd: hypervisor version 
Nov 28 08:26:06.640 HYPERVISOR: exec_cmd: hypervisor working_dir /media/actionmystique/SAMSUNG5-VMs/Labs/GNS3/TT 1-solutions-linux-/project-files/dynamips 
Nov 28 08:26:06.640 GENERAL: working_dir=/media/actionmystique/SAMSUNG5-VMs/Labs/GNS3/TT 1-solutions-linux-/project-files/dynamips
Nov 28 08:26:06.641 HYPERVISOR: exec_cmd: vm create ESW3 3 c3725 
Nov 28 08:26:06.641 VM: VM ESW3 created.
Nov 28 08:26:06.642 HYPERVISOR: exec_cmd: vm set_con_tcp_port ESW3 2005 
Nov 28 08:26:06.642 HYPERVISOR: exec_cmd: c3725 get_mac_addr ESW3 
Nov 28 08:26:06.644 HYPERVISOR: exec_cmd: vm set_disk0 ESW3 1 
Nov 28 08:26:06.645 HYPERVISOR: exec_cmd: vm get_status ESW3 
Nov 28 08:26:06.645 HYPERVISOR: exec_cmd: vm slot_add_binding ESW3 1 0 NM-16ESW 
Nov 28 08:26:06.645 HYPERVISOR: exec_cmd: vm set_ios ESW3 /media/actionmystique/SAMSUNG5-VMs/Images/GNS3/IOS/c3725-adventerprisek9-mz.124-15.T10.image 
Nov 28 08:26:06.646 HYPERVISOR: exec_cmd: c3725 set_mac_addr ESW3 c203.4490.0000 
Nov 28 08:26:06.646 HYPERVISOR: exec_cmd: vm slot_add_binding ESW3 0 16 WIC-2T 
Nov 28 08:26:06.647 HYPERVISOR: exec_cmd: vm get_status ESW3 
Nov 28 08:26:06.647 HYPERVISOR: exec_cmd: vm set_idle_pc ESW3 0x60c06d20 
Nov 28 08:26:06.647 HYPERVISOR: exec_cmd: vm set_nvram ESW3 256 
Nov 28 08:26:06.648 HYPERVISOR: exec_cmd: vm set_config ESW3 configs/ios_base_startup-config.txt 
Nov 28 08:26:06.649 HYPERVISOR: exec_cmd: vm set_config ESW3 configs/ios_base_startup-config.txt configs/ios_base_private-config.txt 
Nov 28 08:26:06.892 HYPERVISOR: exec_cmd: nio create_udp udp-b01b2213-4555-4816-afd5-213fd7cdf0ca 15007 127.0.0.1 15008 
Nov 28 08:26:06.894 HYPERVISOR: exec_cmd: vm slot_add_nio_binding ESW3 1 0 udp-b01b2213-4555-4816-afd5-213fd7cdf0ca 
Nov 28 08:26:06.894 HYPERVISOR: exec_cmd: vm get_status ESW3 
Nov 28 08:26:06.900 HYPERVISOR: exec_cmd: nio create_udp udp-b49b6ed0-6c94-4c53-94ba-a05aa87b714d 15006 127.0.0.1 15009 
Nov 28 08:26:06.901 HYPERVISOR: exec_cmd: vm slot_add_nio_binding ESW3 1 1 udp-b49b6ed0-6c94-4c53-94ba-a05aa87b714d 
Nov 28 08:26:06.902 HYPERVISOR: exec_cmd: vm get_status ESW3 
Nov 28 08:26:06.945 HYPERVISOR: exec_cmd: nio create_udp udp-ba5832c2-06ce-410a-9ba7-014cf6187562 15010 127.0.0.1 15013 
Nov 28 08:26:06.945 HYPERVISOR: exec_cmd: vm slot_add_nio_binding ESW3 1 2 udp-ba5832c2-06ce-410a-9ba7-014cf6187562 
Nov 28 08:26:06.945 HYPERVISOR: exec_cmd: vm get_status ESW3 
Nov 28 08:26:31.611 HYPERVISOR: exec_cmd: vm get_status ESW3 
Nov 28 08:26:31.616 HYPERVISOR: exec_cmd: vm extract_config ESW3 
Nov 28 08:26:31.617 HYPERVISOR: exec_cmd: vm delete ESW3 
Nov 28 08:26:31.617 VM: VM ESW3 destroyed.
Nov 28 08:26:31.618 HYPERVISOR: exec_cmd: hypervisor stop 
Nov 28 08:26:31.665 HYPERVISOR: Stopped.
Nov 28 08:26:31.666 GENERAL: reset done.
