Nov 26 20:12:28.840 HYPERVISOR: Release 0.2.17-amd64/Linux (tag 2017072410)
Nov 26 20:12:28.840 HYPERVISOR: Started on IP = 127.0.0.1, TCP port = 37025.
Nov 26 20:12:28.870 HYPERVISOR: exec_cmd: hypervisor version 
Nov 26 20:12:28.872 HYPERVISOR: exec_cmd: hypervisor working_dir /media/actionmystique/SAMSUNG5-VMs/Labs/GNS3/OSPF-EIGRP/project-files/dynamips 
Nov 26 20:12:28.872 GENERAL: working_dir=/media/actionmystique/SAMSUNG5-VMs/Labs/GNS3/OSPF-EIGRP/project-files/dynamips
Nov 26 20:12:28.873 HYPERVISOR: exec_cmd: vm create C4 20 c7200 
Nov 26 20:12:28.873 VM: VM C4 created.
Nov 26 20:12:28.875 HYPERVISOR: exec_cmd: vm set_con_tcp_port C4 2026 
Nov 26 20:12:28.881 HYPERVISOR: exec_cmd: vm set_aux_tcp_port C4 2126 
Nov 26 20:12:28.893 HYPERVISOR: exec_cmd: c7200 get_mac_addr C4 
Nov 26 20:12:28.895 HYPERVISOR: exec_cmd: vm get_status C4 
Nov 26 20:12:28.901 HYPERVISOR: exec_cmd: vm slot_add_binding C4 0 0 C7200-IO-FE 
Nov 26 20:12:28.911 HYPERVISOR: exec_cmd: vm set_ios C4 /media/actionmystique/SAMSUNG5-VMs/Images/GNS3/IOS/c7200-adventerprisek9-mz.152-4.M2.image 
Nov 26 20:12:28.915 HYPERVISOR: exec_cmd: vm get_status C4 
Nov 26 20:12:28.918 HYPERVISOR: exec_cmd: vm slot_add_binding C4 1 0 PA-8T 
Nov 26 20:12:28.920 HYPERVISOR: exec_cmd: vm get_status C4 
Nov 26 20:12:28.921 HYPERVISOR: exec_cmd: vm set_idle_pc C4 0x60188e14 
Nov 26 20:12:28.926 HYPERVISOR: exec_cmd: vm get_status C4 
Nov 26 20:12:28.929 HYPERVISOR: exec_cmd: vm slot_remove_binding C4 0 0 
Nov 26 20:12:28.931 HYPERVISOR: exec_cmd: vm get_status C4 
Nov 26 20:12:28.933 HYPERVISOR: exec_cmd: vm slot_add_binding C4 0 0 C7200-IO-GE-E 
Nov 26 20:12:28.935 HYPERVISOR: exec_cmd: vm set_ram C4 512 
Nov 26 20:12:28.936 HYPERVISOR: exec_cmd: vm set_config C4 configs/i20_startup-config.cfg 
Nov 26 20:12:29.955 HYPERVISOR: exec_cmd: vm extract_config C4 
Nov 26 20:12:30.616 HYPERVISOR: exec_cmd: nio create_udp udp-cc51fc99-86db-4ac6-918f-633d28c6acc9 15061 127.0.0.1 15063 
Nov 26 20:12:30.616 HYPERVISOR: exec_cmd: vm slot_add_nio_binding C4 1 0 udp-cc51fc99-86db-4ac6-918f-633d28c6acc9 
Nov 26 20:12:30.617 HYPERVISOR: exec_cmd: vm get_status C4 
Nov 26 20:14:16.137 HYPERVISOR: exec_cmd: vm get_status C4 
Nov 26 20:14:16.152 HYPERVISOR: exec_cmd: vm extract_config C4 
Nov 26 20:14:16.166 HYPERVISOR: exec_cmd: vm delete C4 
Nov 26 20:14:16.166 VM: VM C4 destroyed.
Nov 26 20:14:16.179 HYPERVISOR: exec_cmd: hypervisor stop 
Nov 26 20:14:16.465 HYPERVISOR: Stopped.
Nov 26 20:14:16.465 GENERAL: reset done.
