Nov 26 20:12:28.892 HYPERVISOR: Release 0.2.17-amd64/Linux (tag 2017072410)
Nov 26 20:12:28.892 HYPERVISOR: Started on IP = 127.0.0.1, TCP port = 35317.
Nov 26 20:12:28.926 HYPERVISOR: exec_cmd: hypervisor version 
Nov 26 20:12:28.929 HYPERVISOR: exec_cmd: hypervisor working_dir /media/actionmystique/SAMSUNG5-VMs/Labs/GNS3/OSPF-EIGRP/project-files/dynamips 
Nov 26 20:12:28.929 GENERAL: working_dir=/media/actionmystique/SAMSUNG5-VMs/Labs/GNS3/OSPF-EIGRP/project-files/dynamips
Nov 26 20:12:28.931 HYPERVISOR: exec_cmd: vm create I12 22 c7200 
Nov 26 20:12:28.931 VM: VM I12 created.
Nov 26 20:12:28.933 HYPERVISOR: exec_cmd: vm set_con_tcp_port I12 2025 
Nov 26 20:12:28.934 HYPERVISOR: exec_cmd: vm set_aux_tcp_port I12 2125 
Nov 26 20:12:28.935 HYPERVISOR: exec_cmd: c7200 get_mac_addr I12 
Nov 26 20:12:28.937 HYPERVISOR: exec_cmd: vm get_status I12 
Nov 26 20:12:28.942 HYPERVISOR: exec_cmd: vm slot_add_binding I12 0 0 C7200-IO-FE 
Nov 26 20:12:28.943 HYPERVISOR: exec_cmd: vm set_ios I12 /media/actionmystique/SAMSUNG5-VMs/Images/GNS3/IOS/c7200-adventerprisek9-mz.152-4.M2.image 
Nov 26 20:12:28.947 HYPERVISOR: exec_cmd: vm get_status I12 
Nov 26 20:12:28.949 HYPERVISOR: exec_cmd: vm slot_add_binding I12 1 0 PA-8T 
Nov 26 20:12:28.950 HYPERVISOR: exec_cmd: vm get_status I12 
Nov 26 20:12:28.951 HYPERVISOR: exec_cmd: vm set_idle_pc I12 0x60188e14 
Nov 26 20:12:28.952 HYPERVISOR: exec_cmd: vm get_status I12 
Nov 26 20:12:28.953 HYPERVISOR: exec_cmd: vm slot_remove_binding I12 0 0 
Nov 26 20:12:28.954 HYPERVISOR: exec_cmd: vm get_status I12 
Nov 26 20:12:28.955 HYPERVISOR: exec_cmd: vm slot_add_binding I12 0 0 C7200-IO-GE-E 
Nov 26 20:12:28.960 HYPERVISOR: exec_cmd: vm set_ram I12 512 
Nov 26 20:12:28.963 HYPERVISOR: exec_cmd: vm set_config I12 configs/i22_startup-config.cfg 
Nov 26 20:12:29.954 HYPERVISOR: exec_cmd: vm extract_config I12 
Nov 26 20:12:30.705 HYPERVISOR: exec_cmd: nio create_udp udp-856c5608-b20c-47e2-b248-97bbc3b4023d 15072 127.0.0.1 15069 
Nov 26 20:12:30.706 HYPERVISOR: exec_cmd: vm slot_add_nio_binding I12 1 0 udp-856c5608-b20c-47e2-b248-97bbc3b4023d 
Nov 26 20:12:30.706 HYPERVISOR: exec_cmd: vm get_status I12 
Nov 26 20:12:30.713 HYPERVISOR: exec_cmd: nio create_udp udp-5e2efb0f-deb8-4bf9-8d5e-12654871c745 15071 127.0.0.1 15073 
Nov 26 20:12:30.713 HYPERVISOR: exec_cmd: vm slot_add_nio_binding I12 1 2 udp-5e2efb0f-deb8-4bf9-8d5e-12654871c745 
Nov 26 20:12:30.714 HYPERVISOR: exec_cmd: vm get_status I12 
Nov 26 20:12:30.757 HYPERVISOR: exec_cmd: nio create_udp udp-7f1c3f1b-fcb4-46f6-bd77-d60b5102f50f 15076 127.0.0.1 15077 
Nov 26 20:12:30.759 HYPERVISOR: exec_cmd: vm slot_add_nio_binding I12 1 1 udp-7f1c3f1b-fcb4-46f6-bd77-d60b5102f50f 
Nov 26 20:12:30.762 HYPERVISOR: exec_cmd: vm get_status I12 
Nov 26 20:14:16.142 HYPERVISOR: exec_cmd: vm get_status I12 
Nov 26 20:14:16.157 HYPERVISOR: exec_cmd: vm extract_config I12 
Nov 26 20:14:16.170 HYPERVISOR: exec_cmd: vm delete I12 
Nov 26 20:14:16.170 VM: VM I12 destroyed.
Nov 26 20:14:16.183 HYPERVISOR: exec_cmd: hypervisor stop 
Nov 26 20:14:16.515 HYPERVISOR: Stopped.
Nov 26 20:14:16.515 GENERAL: reset done.
