Nov 27 16:17:55.811 HYPERVISOR: Release 0.2.17-amd64/Linux (tag 2017072410)
Nov 27 16:17:55.811 HYPERVISOR: Started on IP = 127.0.0.1, TCP port = 54039.
Nov 27 16:17:55.823 HYPERVISOR: exec_cmd: hypervisor version 
Nov 27 16:17:55.824 HYPERVISOR: exec_cmd: hypervisor working_dir /media/actionmystique/SAMSUNG5-VMs/Labs/GNS3/git-Public-Labs-Collection/CCNP/TBSHOOT/L3-Technologies/IPv4/High-Availability/GLBP/Jean-Christophe_Manciot/1+/TT 1-linux/project-files/dynamips 
Nov 27 16:17:55.824 GENERAL: working_dir=/media/actionmystique/SAMSUNG5-VMs/Labs/GNS3/git-Public-Labs-Collection/CCNP/TBSHOOT/L3-Technologies/IPv4/High-Availability/GLBP/Jean-Christophe_Manciot/1+/TT 1-linux/project-files/dynamips
Nov 27 16:17:55.826 HYPERVISOR: exec_cmd: vm create SW3 3 c3725 
Nov 27 16:17:55.826 VM: VM SW3 created.
Nov 27 16:17:55.827 HYPERVISOR: exec_cmd: vm set_con_tcp_port SW3 2003 
Nov 27 16:17:55.828 HYPERVISOR: exec_cmd: c3725 get_mac_addr SW3 
Nov 27 16:17:55.829 HYPERVISOR: exec_cmd: vm set_nvram SW3 256 
Nov 27 16:17:55.829 HYPERVISOR: exec_cmd: vm get_status SW3 
Nov 27 16:17:55.830 HYPERVISOR: exec_cmd: vm set_idle_pc SW3 0x60c056e4 
Nov 27 16:17:55.831 HYPERVISOR: exec_cmd: c3725 set_mac_addr SW3 cccc.cccc.cccc 
Nov 27 16:17:55.832 HYPERVISOR: exec_cmd: vm set_exec_area SW3 16 
Nov 27 16:17:55.834 HYPERVISOR: exec_cmd: vm get_status SW3 
Nov 27 16:17:55.836 HYPERVISOR: exec_cmd: vm slot_add_binding SW3 1 0 NM-16ESW 
Nov 27 16:17:55.838 HYPERVISOR: exec_cmd: vm set_ios SW3 /media/actionmystique/SAMSUNG5-VMs/Images/GNS3/IOS/c3725-adventerprisek9-mz.124-15.T10.image 
Nov 27 16:17:55.839 HYPERVISOR: exec_cmd: vm slot_add_binding SW3 0 16 WIC-2T 
Nov 27 16:17:55.840 HYPERVISOR: exec_cmd: vm set_disk0 SW3 1 
Nov 27 16:17:55.843 HYPERVISOR: exec_cmd: vm set_config SW3 configs/i3_startup-config.cfg 
Nov 27 16:17:55.845 HYPERVISOR: exec_cmd: vm set_config SW3 configs/i3_startup-config.cfg configs/i3_private-config.cfg 
Nov 27 16:17:56.095 HYPERVISOR: exec_cmd: nio create_udp udp-d5839f7c-a5bd-428a-802f-add12bb041be 15006 127.0.0.1 15005 
Nov 27 16:17:56.096 HYPERVISOR: exec_cmd: vm slot_add_nio_binding SW3 1 2 udp-d5839f7c-a5bd-428a-802f-add12bb041be 
Nov 27 16:17:56.096 HYPERVISOR: exec_cmd: vm get_status SW3 
Nov 27 16:17:56.149 HYPERVISOR: exec_cmd: nio create_udp udp-d7485114-70c3-4718-9f0e-868ffc2d4222 15009 127.0.0.1 15008 
Nov 27 16:17:56.152 HYPERVISOR: exec_cmd: vm slot_add_nio_binding SW3 1 5 udp-d7485114-70c3-4718-9f0e-868ffc2d4222 
Nov 27 16:17:56.152 HYPERVISOR: exec_cmd: vm get_status SW3 
Nov 27 16:17:56.162 HYPERVISOR: exec_cmd: nio create_udp udp-29a6f65c-f0e6-4ae1-bd7d-55d2e7e3548a 15010 127.0.0.1 15011 
Nov 27 16:17:56.163 HYPERVISOR: exec_cmd: vm slot_add_nio_binding SW3 1 6 udp-29a6f65c-f0e6-4ae1-bd7d-55d2e7e3548a 
Nov 27 16:17:56.163 HYPERVISOR: exec_cmd: vm get_status SW3 
Nov 27 16:17:56.169 HYPERVISOR: exec_cmd: nio create_udp udp-35b73cec-43f3-44a4-808f-51ee42863852 15012 127.0.0.1 15014 
Nov 27 16:17:56.169 HYPERVISOR: exec_cmd: vm slot_add_nio_binding SW3 1 1 udp-35b73cec-43f3-44a4-808f-51ee42863852 
Nov 27 16:17:56.170 HYPERVISOR: exec_cmd: vm get_status SW3 
