Apr 24 19:11:39.067 HYPERVISOR: Release 0.2.14-amd64/Linux (tag 2014092320)
Apr 24 19:11:39.067 HYPERVISOR: Started on IP = 127.0.0.1, TCP port = 7200.
Apr 24 19:11:39.069 HYPERVISOR: exec_cmd: hypervisor version 
Apr 24 19:11:39.070 HYPERVISOR: exec_cmd: hypervisor uuid 
Apr 24 19:11:39.070 HYPERVISOR: exec_cmd: hypervisor working_dir /home/actionmystique/Google Drive/Missions/Certifications/Cisco/Labs/GNS3/CCNP/TBSHOOT/Infrastructure Services/DHCP - NAT/Jean-Christophe/1+/TT 2-linux/TT 2-linux-files/dynamips 
Apr 24 19:11:39.070 GENERAL: working_dir=/home/actionmystique/Google Drive/Missions/Certifications/Cisco/Labs/GNS3/CCNP/TBSHOOT/Infrastructure Services/DHCP - NAT/Jean-Christophe/1+/TT 2-linux/TT 2-linux-files/dynamips
Apr 24 19:11:39.070 HYPERVISOR: exec_cmd: vm create ESW1 1 c3725 
Apr 24 19:11:39.070 VM: VM ESW1 created.
Apr 24 19:11:39.070 HYPERVISOR: exec_cmd: vm set_con_tcp_port ESW1 2001 
Apr 24 19:11:39.070 HYPERVISOR: exec_cmd: vm set_aux_tcp_port ESW1 2501 
Apr 24 19:11:39.071 HYPERVISOR: exec_cmd: c3725 get_mac_addr ESW1 
Apr 24 19:11:39.071 HYPERVISOR: exec_cmd: vm set_ios ESW1 /media/actionmystique/SAMSUNG-Ext4/Images/GNS3/IOS/c3725-adventerprisek9-mz.124-15.T10.image 
Apr 24 19:11:39.071 HYPERVISOR: exec_cmd: vm set_sparse_mem ESW1 1 
Apr 24 19:11:39.071 HYPERVISOR: exec_cmd: vm set_ram_mmap ESW1 1 
Apr 24 19:11:39.071 HYPERVISOR: exec_cmd: c3725 set_mac_addr ESW1 c201.281a.0000 
Apr 24 19:11:39.071 HYPERVISOR: exec_cmd: vm create Ghost 0 c7200 
Apr 24 19:11:39.072 VM: VM Ghost created.
Apr 24 19:11:39.072 HYPERVISOR: exec_cmd: vm set_ios Ghost /media/actionmystique/SAMSUNG-Ext4/Images/GNS3/IOS/c3725-adventerprisek9-mz.124-15.T10.image 
Apr 24 19:11:39.072 HYPERVISOR: exec_cmd: vm set_ghost_status Ghost 1 
Apr 24 19:11:39.072 HYPERVISOR: exec_cmd: vm set_ghost_file Ghost c3725-adventerprisek9-mz.124-15.T10.image-128.ghost 
Apr 24 19:11:39.072 HYPERVISOR: exec_cmd: vm get_status Ghost 
Apr 24 19:11:39.072 HYPERVISOR: exec_cmd: vm start Ghost 
Apr 24 19:11:39.337 HYPERVISOR: exec_cmd: vm get_status Ghost 
Apr 24 19:11:39.337 HYPERVISOR: exec_cmd: vm stop Ghost 
Apr 24 19:11:39.523 VM: VM Ghost shutdown.
Apr 24 19:11:39.523 HYPERVISOR: exec_cmd: vm clean_delete Ghost 
Apr 24 19:11:39.523 VM: VM Ghost destroyed.
Apr 24 19:11:39.524 HYPERVISOR: exec_cmd: vm set_ghost_status ESW1 2 
Apr 24 19:11:39.524 HYPERVISOR: exec_cmd: vm set_ghost_file ESW1 c3725-adventerprisek9-mz.124-15.T10.image-128.ghost 
Apr 24 19:11:39.554 HYPERVISOR: exec_cmd: vm set_config ESW1 configs/i1_startup-config.cfg 
Apr 24 19:11:39.554 HYPERVISOR: exec_cmd: vm set_config ESW1 configs/i1_startup-config.cfg configs/i1_private-config.cfg 
Apr 24 19:11:39.554 HYPERVISOR: exec_cmd: vm set_nvram ESW1 256 
Apr 24 19:11:39.554 HYPERVISOR: exec_cmd: vm set_disk0 ESW1 1 
Apr 24 19:11:39.554 HYPERVISOR: exec_cmd: vm slot_add_binding ESW1 0 16 WIC-2T 
Apr 24 19:11:39.554 HYPERVISOR: exec_cmd: vm get_status ESW1 
Apr 24 19:11:39.554 HYPERVISOR: exec_cmd: vm set_idle_pc ESW1 0x614ac27c 
Apr 24 19:11:39.555 HYPERVISOR: exec_cmd: vm get_status ESW1 
Apr 24 19:11:39.555 HYPERVISOR: exec_cmd: vm slot_add_binding ESW1 1 0 NM-16ESW 
Apr 24 19:11:39.555 HYPERVISOR: exec_cmd: vm get_status ESW1 
Apr 24 19:11:39.568 HYPERVISOR: exec_cmd: nio create_udp_auto nio_udp_auto0 127.0.0.1 10001 20000 
Apr 24 19:11:39.570 HYPERVISOR: exec_cmd: nio create_udp_auto nio_udp_auto1 127.0.0.1 10001 20000 
Apr 24 19:11:39.571 HYPERVISOR: exec_cmd: nio create_udp_auto nio_udp_auto2 127.0.0.1 10001 20000 
Apr 24 19:11:39.591 HYPERVISOR: exec_cmd: nio connect_udp_auto nio_udp_auto0 127.0.0.1 20500 
Apr 24 19:11:39.591 HYPERVISOR: exec_cmd: vm slot_add_nio_binding ESW1 1 1 nio_udp_auto0 
Apr 24 19:11:39.591 HYPERVISOR: exec_cmd: vm get_status ESW1 
Apr 24 19:11:39.598 HYPERVISOR: exec_cmd: nio connect_udp_auto nio_udp_auto1 127.0.0.1 20501 
Apr 24 19:11:39.598 HYPERVISOR: exec_cmd: vm slot_add_nio_binding ESW1 1 2 nio_udp_auto1 
Apr 24 19:11:39.598 HYPERVISOR: exec_cmd: vm get_status ESW1 
Apr 24 19:11:39.604 HYPERVISOR: exec_cmd: nio connect_udp_auto nio_udp_auto2 127.0.0.1 40003 
Apr 24 19:11:39.604 HYPERVISOR: exec_cmd: vm slot_add_nio_binding ESW1 1 0 nio_udp_auto2 
Apr 24 19:11:39.604 HYPERVISOR: exec_cmd: vm get_status ESW1 
Apr 24 19:11:58.353 HYPERVISOR: exec_cmd: vm get_status ESW1 
Apr 24 19:11:58.354 HYPERVISOR: exec_cmd: vm start ESW1 
Apr 24 19:11:58.355 GHOST: loaded ghost image c3725-adventerprisek9-mz.124-15.T10.image-128.ghost (fd=15) at addr=0x7fb920000000 (size=0x10000000)
Apr 24 19:11:58.355 GHOST: loaded image c3725-adventerprisek9-mz.124-15.T10.image-128.ghost successfully.
Apr 24 19:17:28.207 HYPERVISOR: exec_cmd: vm extract_config ESW1 
Apr 24 19:19:31.484 HYPERVISOR: exec_cmd: vm extract_config ESW1 
Apr 24 19:19:33.342 HYPERVISOR: exec_cmd: vm get_status ESW1 
Apr 24 19:19:33.342 HYPERVISOR: exec_cmd: vm stop ESW1 
Apr 24 19:19:33.437 GHOST: unloaded ghost image c3725-adventerprisek9-mz.124-15.T10.image-128.ghost (fd=15) at addr=0x7fb920000000 (size=0x10000000)
Apr 24 19:19:33.448 VM: VM ESW1 shutdown.
Apr 24 19:19:35.663 HYPERVISOR: exec_cmd: vm extract_config ESW1 
Apr 24 19:19:35.671 HYPERVISOR: exec_cmd: hypervisor stop 
