Nov 26 22:11:28.948 HYPERVISOR: Release 0.2.17-amd64/Linux (tag 2017072410)
Nov 26 22:11:28.948 HYPERVISOR: Started on IP = 127.0.0.1, TCP port = 60827.
Nov 26 22:11:28.958 HYPERVISOR: exec_cmd: hypervisor version 
Nov 26 22:11:28.959 HYPERVISOR: exec_cmd: hypervisor working_dir /media/actionmystique/SAMSUNG5-VMs/Labs/GNS3/git-Public-Labs-Collection/CCNP/TBSHOOT/Infrastructure-Services/DHCP-NAT/Jean-Christophe_Manciot/1+/DHCPv4/TT 3-linux/project-files/dynamips 
Nov 26 22:11:28.959 GENERAL: working_dir=/media/actionmystique/SAMSUNG5-VMs/Labs/GNS3/git-Public-Labs-Collection/CCNP/TBSHOOT/Infrastructure-Services/DHCP-NAT/Jean-Christophe_Manciot/1+/DHCPv4/TT 3-linux/project-files/dynamips
Nov 26 22:11:28.959 HYPERVISOR: exec_cmd: vm create ESW2 2 c3725 
Nov 26 22:11:28.959 VM: VM ESW2 created.
Nov 26 22:11:28.959 HYPERVISOR: exec_cmd: vm set_con_tcp_port ESW2 2002 
Nov 26 22:11:28.960 HYPERVISOR: exec_cmd: vm set_aux_tcp_port ESW2 2502 
Nov 26 22:11:28.960 HYPERVISOR: exec_cmd: c3725 get_mac_addr ESW2 
Nov 26 22:11:28.960 HYPERVISOR: exec_cmd: vm slot_add_binding ESW2 0 16 WIC-2T 
Nov 26 22:11:28.961 HYPERVISOR: exec_cmd: vm get_status ESW2 
Nov 26 22:11:28.961 HYPERVISOR: exec_cmd: vm set_idle_pc ESW2 0x60c06d20 
Nov 26 22:11:28.961 HYPERVISOR: exec_cmd: vm set_nvram ESW2 256 
Nov 26 22:11:28.962 HYPERVISOR: exec_cmd: vm get_status ESW2 
Nov 26 22:11:28.962 HYPERVISOR: exec_cmd: vm slot_add_binding ESW2 1 0 NM-16ESW 
Nov 26 22:11:28.962 HYPERVISOR: exec_cmd: vm set_ios ESW2 /media/actionmystique/SAMSUNG5-VMs/Images/GNS3/IOS/c3725-adventerprisek9-mz.124-15.T10.image 
Nov 26 22:11:28.963 HYPERVISOR: exec_cmd: vm set_disk0 ESW2 1 
Nov 26 22:11:28.963 HYPERVISOR: exec_cmd: c3725 set_mac_addr ESW2 c202.28c2.0000 
Nov 26 22:11:28.963 HYPERVISOR: exec_cmd: vm set_config ESW2 configs/i2_startup-config.cfg 
Nov 26 22:11:28.964 HYPERVISOR: exec_cmd: vm set_config ESW2 configs/i2_startup-config.cfg configs/i2_private-config.cfg 
Nov 26 22:11:29.098 HYPERVISOR: exec_cmd: nio create_udp udp-4ab64410-3ebb-4f11-926c-86eaf1e55f9b 15006 127.0.0.1 15009 
Nov 26 22:11:29.098 HYPERVISOR: exec_cmd: vm slot_add_nio_binding ESW2 1 2 udp-4ab64410-3ebb-4f11-926c-86eaf1e55f9b 
Nov 26 22:11:29.098 HYPERVISOR: exec_cmd: vm get_status ESW2 
Nov 26 22:11:32.258 HYPERVISOR: exec_cmd: nio create_tap tap-dd790a39-0db4-4b04-9431-7d414edee1f9 tap0 
Nov 26 22:11:32.259 HYPERVISOR: exec_cmd: vm slot_add_nio_binding ESW2 1 0 tap-dd790a39-0db4-4b04-9431-7d414edee1f9 
Nov 26 22:11:32.259 HYPERVISOR: exec_cmd: vm get_status ESW2 
