autostart = False
version = 0.8.4-RC1
[127.0.0.1:7200]
    workingdir = working
    udp = 10000
    [[7200]]
        image = C:\Users\ActionMystique\Google Drive\Missions\Certifications\Cisco\IOS\Binaries\c7200-adventerprisek9-mz.124-24.T.image
        idlepc = 0x606dc520
        sparsemem = True
    [[3725]]
        image = C:\Users\ActionMystique\Google Drive\Missions\Certifications\Cisco\IOS\Binaries\c3725-adventerprisek9-mz.124-15.T5.image
        ram = 128
        idlepc = 0x602649b4
        sparsemem = True
    [[ROUTER Router]]
        console = 2004
        aux = 2504
        cnfg = configs\Router.cfg
        slot0 = C7200-IO-2FE
        f0/0 = NIO_udp:30000:127.0.0.1:20000
        f0/1 = Switch f1/1
        x = -74.0
        y = -178.0
        z = 1.0
    [[ROUTER Switch]]
        model = 3725
        console = 2005
        aux = 2505
        cnfg = configs\Switch.cfg
        slot1 = NM-16ESW
        f1/1 = Router f0/1
        f1/2 = NIO_udp:30001:127.0.0.1:20001
        f1/3 = NIO_udp:30002:127.0.0.1:20002
        f1/4 = NIO_udp:30003:127.0.0.1:20003
        symbol = EtherSwitch router
        x = -67.5
        y = -9.5
        z = 1.0
[GNS3-DATA]
    configs = configs
    workdir = working
    [[NOTE 1]]
        text = "VLAN 3"
        x = -73.0
        y = 256.0
    [[NOTE 2]]
        text = "10.10.10.0/24"
        x = -148.0
        y = -81.0
    [[NOTE 3]]
        text = "VLAN 2"
        x = -273.0
        y = 191.0
    [[NOTE 4]]
        text = "VLAN 4"
        x = 130.0
        y = 214.0
    [[NOTE 5]]
        text = "MLS"
        x = -74.0
        y = -254.0
        font = "MS Shell Dlg 2,20,-1,5,75,0,1,0,0,0"
    [[NOTE 6]]
        text = "192.168.2.0/24"
        x = 106.0
        y = 233.0
    [[NOTE 7]]
        text = "192.168.1.0/27"
        x = -302.0
        y = 209.0
    [[NOTE 8]]
        text = "192.168.1.32/27"
        x = -105.0
        y = 273.0
    [[NOTE 9]]
        text = ".254/24"
        x = -111.0
        y = -127.0
    [[NOTE 10]]
        text = "10.10.1.1/24"
        x = 135.0
        y = -129.0
    [[NOTE 11]]
        text = ".254/24"
        x = -10.0
        y = -149.0
    [[Cloud VPCS-3]]
        symbol = Host
        x = -80.5
        y = 184.5
        z = 1.0
        connections = Switch:f1/3:NIO_udp:30002:127.0.0.1:20002
    [[Cloud VPCS-2]]
        symbol = Host
        x = -278.5
        y = 113.5
        z = 1.0
        connections = Switch:f1/2:NIO_udp:30001:127.0.0.1:20001
    [[Cloud Server-VPCS-1]]
        symbol = Host
        x = 151.5
        y = -187.5
        z = 1.0
        connections = Router:f0/0:NIO_udp:30000:127.0.0.1:20000
    [[Cloud VPCS-4]]
        symbol = Host
        x = 121.5
        y = 136.5
        z = 1.0
        connections = Switch:f1/4:NIO_udp:30003:127.0.0.1:20003
    [[SHAPE 1]]
        type = ellipse
        x = 55.0
        y = 71.0
        width = 200.0
        height = 200.0
        border_style = 2
    [[SHAPE 2]]
        type = ellipse
        x = -148.0
        y = 108.0
        width = 200.0
        height = 200.0
        border_style = 2
    [[SHAPE 3]]
        type = ellipse
        x = -347.0
        y = 46.0
        width = 200.0
        height = 200.0
        border_style = 2
    [[PIXMAP 1]]
        path = working\MLS.JPG
        x = -828.5
        y = -241.0
