autostart = False
version = 0.8.2
[127.0.0.1:7200]
    workingdir = C:\Users\ActionMystique\Documents\Missions\GNS3\Temp
    udp = 10000
    [[3725]]
        image = C:\Users\ActionMystique\Documents\Missions\IOS\Binaries\c3725-adventerprisek9-mz.124-15.T5.image
        ram = 128
        idlepc = 0x6148b534
        sparsemem = True
        ghostios = True
    [[ROUTER R1]]
        model = 3725
        console = 2005
        aux = 2104
        cnfg = configs\R1.cfg
        wic0/0 = WIC-2T
        s0/0 = R2 s0/0
        x = -639.0
        y = -39.0
        z = 1.0
    [[ROUTER R2]]
        model = 3725
        console = 2006
        aux = 2105
        cnfg = configs\R2.cfg
        wic0/0 = WIC-2T
        s0/0 = R1 s0/0
        s0/1 = R3 s0/1
        x = -384.0
        y = -365.0
        z = 1.0
    [[ROUTER R3]]
        model = 3725
        console = 2007
        aux = 2106
        cnfg = configs\R3.cfg
        wic0/1 = WIC-2T
        s0/1 = R2 s0/1
        x = -117.0
        y = -33.0
        z = 1.0
[GNS3-DATA]
    configs = configs
    width = 5000
    height = 2500
    [[NOTE 1]]
        text = FEC0::13:0/112
        x = -413.0
        y = -32.5
    [[NOTE 2]]
        text = Tunnel
        x = -385.0
        y = -51.5
    [[NOTE 3]]
        text = Lo0: 10.1.2.1/24
        x = -395.0
        y = -421.5
    [[NOTE 4]]
        text = s0/0\n.2
        x = -430.0
        y = -342.5
    [[NOTE 5]]
        text = 172.16.23.0/24
        x = -204.0
        y = -201.5
    [[NOTE 6]]
        text = s0/0\nDCE\n.1
        x = -601.0
        y = -125.5
    [[NOTE 7]]
        text = s0/1\nDCE\n.2
        x = -293.0
        y = -347.5
    [[NOTE 8]]
        text = 172.16.12.0/24
        x = -606.0
        y = -214.5
    [[NOTE 9]]
        text = Lo0: 10.1.3.1/24\nFEC0::3:1/112
        x = -134.0
        y = 44.5
    [[NOTE 10]]
        text = s0/1\n.3
        x = -116.0
        y = -100.5
    [[NOTE 11]]
        text = Lo0: 10.1.1.1/24\nFEC0::1:1/112
        x = -676.0
        y = 28.5
    [[SHAPE 1]]
        type = rectangle
        x = -545.0
        y = -31.0
        width = 398.0
        height = 22.0
        z = -2.0
    [[SHAPE 2]]
        type = ellipse
        x = -99.0
        y = 7.0
        width = 27.0
        height = 21.0
        border_style = 2
        z = -2.0
    [[SHAPE 3]]
        type = ellipse
        x = -623.0
        y = 1.0
        width = 27.0
        height = 21.0
        border_style = 2
        z = -2.0
    [[SHAPE 4]]
        type = ellipse
        x = -337.0
        y = -379.0
        width = 27.0
        height = 21.0
        border_style = 2
        z = -2.0
