Nov 27 16:21:40.054 HYPERVISOR: Release 0.2.17-amd64/Linux (tag 2017072410)
Nov 27 16:21:40.054 HYPERVISOR: Started on IP = 127.0.0.1, TCP port = 42299.
Nov 27 16:21:40.073 HYPERVISOR: exec_cmd: hypervisor version 
Nov 27 16:21:40.076 HYPERVISOR: exec_cmd: hypervisor working_dir /media/actionmystique/SAMSUNG5-VMs/Labs/GNS3/git-Public-Labs-Collection/CCNP/TBSHOOT/L3-Technologies/IPv4/High-Availability/HSRP/Jean-Christophe_Manciot/1+/TT 2-solutions-linux/project-files/dynamips 
Nov 27 16:21:40.076 GENERAL: working_dir=/media/actionmystique/SAMSUNG5-VMs/Labs/GNS3/git-Public-Labs-Collection/CCNP/TBSHOOT/L3-Technologies/IPv4/High-Availability/HSRP/Jean-Christophe_Manciot/1+/TT 2-solutions-linux/project-files/dynamips
Nov 27 16:21:40.077 HYPERVISOR: exec_cmd: vm create Core 4 c3725 
Nov 27 16:21:40.077 VM: VM Core created.
Nov 27 16:21:40.077 HYPERVISOR: exec_cmd: vm set_con_tcp_port Core 2005 
Nov 27 16:21:40.077 HYPERVISOR: exec_cmd: c3725 get_mac_addr Core 
Nov 27 16:21:40.078 HYPERVISOR: exec_cmd: vm set_ram Core 256 
Nov 27 16:21:40.078 HYPERVISOR: exec_cmd: vm set_nvram Core 256 
Nov 27 16:21:40.079 HYPERVISOR: exec_cmd: vm get_status Core 
Nov 27 16:21:40.079 HYPERVISOR: exec_cmd: vm set_idle_pc Core 0x60c056e4 
Nov 27 16:21:40.079 HYPERVISOR: exec_cmd: c3725 set_mac_addr Core c204.0c3e.0000 
Nov 27 16:21:40.080 HYPERVISOR: exec_cmd: vm get_status Core 
Nov 27 16:21:40.080 HYPERVISOR: exec_cmd: vm slot_add_binding Core 1 0 NM-16ESW 
Nov 27 16:21:40.080 HYPERVISOR: exec_cmd: vm set_ios Core /media/actionmystique/SAMSUNG5-VMs/Images/GNS3/IOS/c3725-adventerprisek9-mz.124-15.T10.image 
Nov 27 16:21:40.081 HYPERVISOR: exec_cmd: vm slot_add_binding Core 0 16 WIC-2T 
Nov 27 16:21:40.081 HYPERVISOR: exec_cmd: vm set_disk0 Core 1 
Nov 27 16:21:40.082 HYPERVISOR: exec_cmd: vm set_config Core configs/i4_startup-config.cfg 
Nov 27 16:21:40.082 HYPERVISOR: exec_cmd: vm set_config Core configs/i4_startup-config.cfg configs/i4_private-config.cfg 
Nov 27 16:21:40.305 HYPERVISOR: exec_cmd: nio create_udp udp-b14e3a22-bdd8-4253-bb7d-1121c0262c05 15002 127.0.0.1 15004 
Nov 27 16:21:40.314 HYPERVISOR: exec_cmd: vm slot_add_nio_binding Core 1 1 udp-b14e3a22-bdd8-4253-bb7d-1121c0262c05 
Nov 27 16:21:40.318 HYPERVISOR: exec_cmd: vm get_status Core 
Nov 27 16:21:40.421 HYPERVISOR: exec_cmd: nio create_udp udp-d3bdb208-72a5-477b-936f-df5094b76304 15013 127.0.0.1 15010 
Nov 27 16:21:40.421 HYPERVISOR: exec_cmd: vm slot_add_nio_binding Core 1 0 udp-d3bdb208-72a5-477b-936f-df5094b76304 
Nov 27 16:21:40.422 HYPERVISOR: exec_cmd: vm get_status Core 
