Nov 27 16:21:47.801 HYPERVISOR: Release 0.2.17-amd64/Linux (tag 2017072410)
Nov 27 16:21:47.801 HYPERVISOR: Started on IP = 127.0.0.1, TCP port = 39239.
Nov 27 16:21:47.815 HYPERVISOR: exec_cmd: hypervisor version 
Nov 27 16:21:47.815 HYPERVISOR: exec_cmd: hypervisor working_dir /media/actionmystique/SAMSUNG5-VMs/Labs/GNS3/TT 2-solutions-linux-/project-files/dynamips 
Nov 27 16:21:47.815 GENERAL: working_dir=/media/actionmystique/SAMSUNG5-VMs/Labs/GNS3/TT 2-solutions-linux-/project-files/dynamips
Nov 27 16:21:47.816 HYPERVISOR: exec_cmd: vm create Core 4 c3725 
Nov 27 16:21:47.816 VM: VM Core created.
Nov 27 16:21:47.816 HYPERVISOR: exec_cmd: vm set_con_tcp_port Core 2005 
Nov 27 16:21:47.816 HYPERVISOR: exec_cmd: c3725 get_mac_addr Core 
Nov 27 16:21:47.817 HYPERVISOR: exec_cmd: vm set_ram Core 256 
Nov 27 16:21:47.817 HYPERVISOR: exec_cmd: vm set_nvram Core 256 
Nov 27 16:21:47.817 HYPERVISOR: exec_cmd: vm get_status Core 
Nov 27 16:21:47.818 HYPERVISOR: exec_cmd: vm set_idle_pc Core 0x60c056e4 
Nov 27 16:21:47.818 HYPERVISOR: exec_cmd: c3725 set_mac_addr Core c204.0c3e.0000 
Nov 27 16:21:47.818 HYPERVISOR: exec_cmd: vm get_status Core 
Nov 27 16:21:47.819 HYPERVISOR: exec_cmd: vm slot_add_binding Core 1 0 NM-16ESW 
Nov 27 16:21:47.819 HYPERVISOR: exec_cmd: vm set_disk0 Core 1 
Nov 27 16:21:47.819 HYPERVISOR: exec_cmd: vm set_ios Core /media/actionmystique/SAMSUNG5-VMs/Images/GNS3/IOS/c3725-adventerprisek9-mz.124-15.T10.image 
Nov 27 16:21:47.820 HYPERVISOR: exec_cmd: vm slot_add_binding Core 0 16 WIC-2T 
Nov 27 16:21:47.820 HYPERVISOR: exec_cmd: vm set_config Core configs/i4_startup-config.cfg 
Nov 27 16:21:47.821 HYPERVISOR: exec_cmd: vm set_config Core configs/i4_startup-config.cfg configs/i4_private-config.cfg 
Nov 27 16:21:48.089 HYPERVISOR: exec_cmd: nio create_udp udp-d8e6d1a4-a697-4299-9e62-a257811397ba 15004 127.0.0.1 15003 
Nov 27 16:21:48.097 HYPERVISOR: exec_cmd: vm slot_add_nio_binding Core 1 1 udp-d8e6d1a4-a697-4299-9e62-a257811397ba 
Nov 27 16:21:48.098 HYPERVISOR: exec_cmd: vm get_status Core 
Nov 27 16:21:48.207 HYPERVISOR: exec_cmd: nio create_udp udp-81bfc5d1-db0e-4023-8a8c-945a5abbe25f 15013 127.0.0.1 15010 
Nov 27 16:21:48.208 HYPERVISOR: exec_cmd: vm slot_add_nio_binding Core 1 0 udp-81bfc5d1-db0e-4023-8a8c-945a5abbe25f 
Nov 27 16:21:48.208 HYPERVISOR: exec_cmd: vm get_status Core 
Nov 27 16:22:03.942 HYPERVISOR: exec_cmd: vm get_status Core 
Nov 27 16:22:03.943 HYPERVISOR: exec_cmd: vm extract_config Core 
Nov 27 16:22:03.947 HYPERVISOR: exec_cmd: vm delete Core 
Nov 27 16:22:03.947 VM: VM Core destroyed.
Nov 27 16:22:03.948 HYPERVISOR: exec_cmd: hypervisor stop 
Nov 27 16:22:04.331 HYPERVISOR: Stopped.
Nov 27 16:22:04.331 GENERAL: reset done.
