autostart = False
version = 0.8.2
[127.0.0.1:7200]
    workingdir = C:\Users\ActionMystique\Documents\Missions\GNS3\Temp
    udp = 10000
    [[3725]]
        image = C:\Users\ActionMystique\Documents\Missions\IOS\Binaries\c3725-adventerprisek9-mz.124-15.T5.image
        ram = 128
        idlepc = 0x60bec828
        sparsemem = True
        ghostios = True
    [[ROUTER R4]]
        model = 3725
        console = 2015
        aux = 2112
        cnfg = configs\R4.cfg
        wic0/0 = WIC-2T
        s0/0 = R3 s0/2
        slot1 = NM-1FE-TX
        slot2 = NM-1FE-TX
        x = -275.0
        y = -396.0
        z = 1.0
    [[ROUTER R1]]
        model = 3725
        console = 2012
        aux = 2113
        cnfg = configs\R1.cfg
        wic0/0 = WIC-2T
        s0/1 = R3 s0/0
        slot1 = NM-1FE-TX
        slot2 = NM-1FE-TX
        x = -29.0
        y = -22.0
        z = 1.0
        hx = 22.5
        hy = 41.0
    [[ROUTER R2]]
        model = 3725
        console = 2013
        aux = 2114
        cnfg = configs\R2.cfg
        wic0/0 = WIC-2T
        s0/1 = R3 s0/1
        slot1 = NM-1FE-TX
        slot2 = NM-1FE-TX
        x = 226.0
        y = -396.0
        z = 1.0
    [[ROUTER R3]]
        model = 3725
        console = 2014
        aux = 2115
        cnfg = configs\R3.cfg
        wic0/0 = WIC-2T
        wic0/1 = WIC-2T
        s0/0 = R1 s0/1
        s0/1 = R2 s0/1
        s0/2 = R4 s0/0
        slot1 = NM-1FE-TX
        slot2 = NM-1FE-TX
        x = -27.0
        y = -217.0
        z = 1.0
[GNS3-DATA]
    configs = configs
    width = 5000
    height = 2500
    [[NOTE 1]]
        text = s0/0\nDCE\nDLCI 102/103
        x = -32.0
        y = -175.5
    [[NOTE 2]]
        text = s0/0\n.3
        x = -244.0
        y = -344.5
    [[NOTE 3]]
        text = s0/1\nDCE\n.2
        x = 224.0
        y = -345.5
    [[NOTE 4]]
        text = s0/2\nDCE\nDLCI 301
        x = -109.0
        y = -244.5
    [[NOTE 5]]
        text = West\nBranch
        x = -132.0
        y = -514.5
        font = "Sans Serif,12,-1,5,75,0,0,0,0,0"
    [[NOTE 6]]
        text = 172.16.124.0/29
        x = -51.0
        y = -303.5
    [[NOTE 7]]
        text = s0/1\n.1
        x = 16.0
        y = -77.5
    [[NOTE 8]]
        text = Lo1: 10.3.1.1/19\nLo33: 10.3.33.1/19\nLo65: 10.3.65.1/19\nLo97: 10.3.97.1/19\nLo129: 10.3.129.1/19\nLo161: 10.3.161.1/19
        x = -320.0
        y = -550.5
    [[NOTE 9]]
        text = s0/1\nDLCI 201\n
        x = 56.0
        y = -243.5
    [[NOTE 10]]
        text = East\nBranch
        x = 77.0
        y = -516.5
        font = "Sans Serif,12,-1,5,75,0,0,0,0,0"
    [[NOTE 11]]
        text = Headquarters
        x = -190.0
        y = -16.5
        font = "Sans Serif,12,-1,5,75,0,0,0,0,0"
    [[NOTE 12]]
        text = Lo1: 10.2.1.1/19\nLo33: 10.2.33.1/19\nLo65: 10.2.65.1/19\nLo97: 10.2.97.1/19\nLo129: 10.2.129.1/19\nLo161: 10.2.161.1/19
        x = 172.0
        y = -547.5
    [[NOTE 13]]
        text = Lo1: 10.1.1.1/19\nLo33: 10.1.33.1/19\nLo65: 10.1.65.1/19\nLo97: 10.1.97.1/19\nLo129: 10.1.129.1/19\nLo161: 10.1.161.1/19
        x = 96.0
        y = -54.5
    [[SHAPE 1]]
        type = ellipse
        x = 37.0
        y = -12.0
        width = 37.0
        height = 21.0
        border_style = 2
    [[SHAPE 2]]
        type = ellipse
        x = -149.0
        y = -308.0
        width = 326.0
        height = 200.0
        border_style = 2
        z = -2.0
    [[SHAPE 3]]
        type = ellipse
        x = -255.0
        y = -427.0
        width = 37.0
        height = 23.0
        rotate = 90
        border_style = 2
        z = -2.0
    [[SHAPE 4]]
        type = ellipse
        x = 293.0
        y = -427.0
        width = 37.0
        height = 23.0
        rotate = 90
        border_style = 2
        z = -2.0
