Nov 28 08:16:50.078 HYPERVISOR: Release 0.2.17-amd64/Linux (tag 2017072410)
Nov 28 08:16:50.078 HYPERVISOR: Started on IP = 127.0.0.1, TCP port = 60837.
Nov 28 08:16:50.095 HYPERVISOR: exec_cmd: hypervisor version 
Nov 28 08:16:50.096 HYPERVISOR: exec_cmd: hypervisor working_dir /media/actionmystique/SAMSUNG5-VMs/Labs/GNS3/git-Public-Labs-Collection/CCNP/TBSHOOT/L3-Technologies/IPv4/Routing/Routed Port/Jean-Christophe_Manciot/1+/TT 1-linux/project-files/dynamips 
Nov 28 08:16:50.096 GENERAL: working_dir=/media/actionmystique/SAMSUNG5-VMs/Labs/GNS3/git-Public-Labs-Collection/CCNP/TBSHOOT/L3-Technologies/IPv4/Routing/Routed Port/Jean-Christophe_Manciot/1+/TT 1-linux/project-files/dynamips
Nov 28 08:16:50.097 HYPERVISOR: exec_cmd: vm create ESW1 1 c3725 
Nov 28 08:16:50.097 VM: VM ESW1 created.
Nov 28 08:16:50.097 HYPERVISOR: exec_cmd: vm set_con_tcp_port ESW1 2001 
Nov 28 08:16:50.098 HYPERVISOR: exec_cmd: vm set_aux_tcp_port ESW1 2501 
Nov 28 08:16:50.098 HYPERVISOR: exec_cmd: c3725 get_mac_addr ESW1 
Nov 28 08:16:50.099 HYPERVISOR: exec_cmd: vm set_disk0 ESW1 1 
Nov 28 08:16:50.099 HYPERVISOR: exec_cmd: vm get_status ESW1 
Nov 28 08:16:50.100 HYPERVISOR: exec_cmd: vm slot_add_binding ESW1 1 0 NM-16ESW 
Nov 28 08:16:50.100 HYPERVISOR: exec_cmd: vm set_ios ESW1 /media/actionmystique/SAMSUNG5-VMs/Images/GNS3/IOS/c3725-adventerprisek9-mz.124-15.T10.image 
Nov 28 08:16:50.101 HYPERVISOR: exec_cmd: c3725 set_mac_addr ESW1 c201.3297.0000 
Nov 28 08:16:50.102 HYPERVISOR: exec_cmd: vm slot_add_binding ESW1 0 16 WIC-2T 
Nov 28 08:16:50.102 HYPERVISOR: exec_cmd: vm get_status ESW1 
Nov 28 08:16:50.103 HYPERVISOR: exec_cmd: vm set_idle_pc ESW1 0x614ac2c4 
Nov 28 08:16:50.103 HYPERVISOR: exec_cmd: vm set_nvram ESW1 256 
Nov 28 08:16:50.104 HYPERVISOR: exec_cmd: vm set_config ESW1 configs/i1_startup-config.cfg 
Nov 28 08:16:50.105 HYPERVISOR: exec_cmd: vm set_config ESW1 configs/i1_startup-config.cfg configs/i1_private-config.cfg 
Nov 28 08:16:50.242 HYPERVISOR: exec_cmd: nio create_udp udp-c68de582-ae5c-4421-a8eb-706efc618b8b 15002 127.0.0.1 15000 
Nov 28 08:16:50.244 HYPERVISOR: exec_cmd: vm slot_add_nio_binding ESW1 1 1 udp-c68de582-ae5c-4421-a8eb-706efc618b8b 
Nov 28 08:16:50.244 HYPERVISOR: exec_cmd: vm get_status ESW1 
Nov 28 08:16:50.273 HYPERVISOR: exec_cmd: nio create_udp udp-70ad1a95-2d56-43dc-9f56-5a068c47a4a4 15003 127.0.0.1 15004 
Nov 28 08:16:50.274 HYPERVISOR: exec_cmd: vm slot_add_nio_binding ESW1 1 2 udp-70ad1a95-2d56-43dc-9f56-5a068c47a4a4 
Nov 28 08:16:50.274 HYPERVISOR: exec_cmd: vm get_status ESW1 
Nov 28 08:16:50.283 HYPERVISOR: exec_cmd: nio create_udp udp-529a21de-f795-4f56-a7f9-8b53b55fabfe 15001 127.0.0.1 15005 
Nov 28 08:16:50.286 HYPERVISOR: exec_cmd: vm slot_add_nio_binding ESW1 1 0 udp-529a21de-f795-4f56-a7f9-8b53b55fabfe 
Nov 28 08:16:50.287 HYPERVISOR: exec_cmd: vm get_status ESW1 
Nov 28 08:18:23.513 HYPERVISOR: exec_cmd: vm extract_config ESW1 
