Nov 28 08:19:06.054 HYPERVISOR: Release 0.2.17-amd64/Linux (tag 2017072410)
Nov 28 08:19:06.054 HYPERVISOR: Started on IP = 127.0.0.1, TCP port = 49011.
Nov 28 08:19:06.084 HYPERVISOR: exec_cmd: hypervisor version 
Nov 28 08:19:06.084 HYPERVISOR: exec_cmd: hypervisor working_dir /media/actionmystique/SAMSUNG5-VMs/Labs/GNS3/TT 1-linux-/project-files/dynamips 
Nov 28 08:19:06.084 GENERAL: working_dir=/media/actionmystique/SAMSUNG5-VMs/Labs/GNS3/TT 1-linux-/project-files/dynamips
Nov 28 08:19:06.085 HYPERVISOR: exec_cmd: vm create ESW1 1 c3725 
Nov 28 08:19:06.085 VM: VM ESW1 created.
Nov 28 08:19:06.086 HYPERVISOR: exec_cmd: vm set_con_tcp_port ESW1 2001 
Nov 28 08:19:06.086 HYPERVISOR: exec_cmd: vm set_aux_tcp_port ESW1 2501 
Nov 28 08:19:06.087 HYPERVISOR: exec_cmd: c3725 get_mac_addr ESW1 
Nov 28 08:19:06.087 HYPERVISOR: exec_cmd: vm set_disk0 ESW1 1 
Nov 28 08:19:06.088 HYPERVISOR: exec_cmd: vm get_status ESW1 
Nov 28 08:19:06.088 HYPERVISOR: exec_cmd: vm slot_add_binding ESW1 1 0 NM-16ESW 
Nov 28 08:19:06.089 HYPERVISOR: exec_cmd: vm set_ios ESW1 /media/actionmystique/SAMSUNG5-VMs/Images/GNS3/IOS/c3725-adventerprisek9-mz.124-15.T10.image 
Nov 28 08:19:06.090 HYPERVISOR: exec_cmd: c3725 set_mac_addr ESW1 c201.3297.0000 
Nov 28 08:19:06.091 HYPERVISOR: exec_cmd: vm slot_add_binding ESW1 0 16 WIC-2T 
Nov 28 08:19:06.091 HYPERVISOR: exec_cmd: vm get_status ESW1 
Nov 28 08:19:06.092 HYPERVISOR: exec_cmd: vm set_idle_pc ESW1 0x614ac2c4 
Nov 28 08:19:06.093 HYPERVISOR: exec_cmd: vm set_nvram ESW1 256 
Nov 28 08:19:06.093 HYPERVISOR: exec_cmd: vm set_config ESW1 configs/i1_startup-config.cfg 
Nov 28 08:19:06.094 HYPERVISOR: exec_cmd: vm set_config ESW1 configs/i1_startup-config.cfg configs/i1_private-config.cfg 
Nov 28 08:19:06.224 HYPERVISOR: exec_cmd: nio create_udp udp-e0f6a157-0b4f-4d0e-9f76-cfdf794614b9 15001 127.0.0.1 15000 
Nov 28 08:19:06.229 HYPERVISOR: exec_cmd: vm slot_add_nio_binding ESW1 1 2 udp-e0f6a157-0b4f-4d0e-9f76-cfdf794614b9 
Nov 28 08:19:06.233 HYPERVISOR: exec_cmd: vm get_status ESW1 
Nov 28 08:19:06.263 HYPERVISOR: exec_cmd: nio create_udp udp-35e30f76-bad4-4878-9d56-977971ae27f0 15005 127.0.0.1 15004 
Nov 28 08:19:06.269 HYPERVISOR: exec_cmd: vm slot_add_nio_binding ESW1 1 1 udp-35e30f76-bad4-4878-9d56-977971ae27f0 
Nov 28 08:19:06.269 HYPERVISOR: exec_cmd: vm get_status ESW1 
Nov 28 08:19:06.288 HYPERVISOR: exec_cmd: nio create_udp udp-f8dc81ba-a292-40fa-94c0-4bb403c0b21d 15006 127.0.0.1 15007 
Nov 28 08:19:06.289 HYPERVISOR: exec_cmd: vm slot_add_nio_binding ESW1 1 0 udp-f8dc81ba-a292-40fa-94c0-4bb403c0b21d 
Nov 28 08:19:06.289 HYPERVISOR: exec_cmd: vm get_status ESW1 
Nov 28 08:19:22.623 HYPERVISOR: exec_cmd: vm get_status ESW1 
Nov 28 08:19:22.624 HYPERVISOR: exec_cmd: vm extract_config ESW1 
Nov 28 08:19:22.625 HYPERVISOR: exec_cmd: vm delete ESW1 
Nov 28 08:19:22.625 VM: VM ESW1 destroyed.
Nov 28 08:19:22.626 HYPERVISOR: exec_cmd: hypervisor stop 
Nov 28 08:19:23.100 HYPERVISOR: Stopped.
Nov 28 08:19:23.100 GENERAL: reset done.
