Nov 29 15:37:15.524 HYPERVISOR: Release 0.2.17-amd64/Linux (tag 2017072410)
Nov 29 15:37:15.524 HYPERVISOR: Started on IP = 127.0.0.1, TCP port = 37409.
Nov 29 15:37:15.531 HYPERVISOR: exec_cmd: hypervisor version 
Nov 29 15:37:15.532 HYPERVISOR: exec_cmd: hypervisor working_dir /media/actionmystique/SAMSUNG5-VMs/Labs/GNS3/git-Public-Labs-Collection/CCNP/TBSHOOT/L3-Technologies/IPv6/Addressing/Jean-Christophe_Manciot/1+/TT 1-linux/project-files/dynamips 
Nov 29 15:37:15.532 GENERAL: working_dir=/media/actionmystique/SAMSUNG5-VMs/Labs/GNS3/git-Public-Labs-Collection/CCNP/TBSHOOT/L3-Technologies/IPv6/Addressing/Jean-Christophe_Manciot/1+/TT 1-linux/project-files/dynamips
Nov 29 15:37:15.532 HYPERVISOR: exec_cmd: vm create ESW2 2 c3725 
Nov 29 15:37:15.532 VM: VM ESW2 created.
Nov 29 15:37:15.532 HYPERVISOR: exec_cmd: vm set_con_tcp_port ESW2 2002 
Nov 29 15:37:15.533 HYPERVISOR: exec_cmd: vm set_aux_tcp_port ESW2 2502 
Nov 29 15:37:15.533 HYPERVISOR: exec_cmd: c3725 get_mac_addr ESW2 
Nov 29 15:37:15.533 HYPERVISOR: exec_cmd: vm set_nvram ESW2 256 
Nov 29 15:37:15.534 HYPERVISOR: exec_cmd: vm slot_add_binding ESW2 0 16 WIC-2T 
Nov 29 15:37:15.534 HYPERVISOR: exec_cmd: c3725 set_mac_addr ESW2 c202.28c2.0000 
Nov 29 15:37:15.535 HYPERVISOR: exec_cmd: vm set_disk0 ESW2 1 
Nov 29 15:37:15.535 HYPERVISOR: exec_cmd: vm set_ios ESW2 /media/actionmystique/SAMSUNG5-VMs/Images/GNS3/IOS/c3725-adventerprisek9-mz.124-15.T10.image 
Nov 29 15:37:15.538 HYPERVISOR: exec_cmd: vm get_status ESW2 
Nov 29 15:37:15.539 HYPERVISOR: exec_cmd: vm set_idle_pc ESW2 0x6026b804 
Nov 29 15:37:15.541 HYPERVISOR: exec_cmd: vm get_status ESW2 
Nov 29 15:37:15.541 HYPERVISOR: exec_cmd: vm slot_add_binding ESW2 1 0 NM-16ESW 
Nov 29 15:37:15.541 HYPERVISOR: exec_cmd: vm set_config ESW2 configs/i2_startup-config.cfg 
Nov 29 15:37:15.542 HYPERVISOR: exec_cmd: vm set_config ESW2 configs/i2_startup-config.cfg configs/i2_private-config.cfg 
Nov 29 15:37:15.631 HYPERVISOR: exec_cmd: nio create_tap tap-f9a05d44-48b1-40d6-8491-104dbf463364 tap2 
Nov 29 15:37:15.632 HYPERVISOR: exec_cmd: vm slot_add_nio_binding ESW2 1 0 tap-f9a05d44-48b1-40d6-8491-104dbf463364 
Nov 29 15:37:15.633 HYPERVISOR: exec_cmd: vm get_status ESW2 
Nov 29 15:37:15.722 HYPERVISOR: exec_cmd: nio create_udp udp-4a4a54cf-1010-4c36-a9cf-d6b50644b42a 15009 127.0.0.1 15010 
Nov 29 15:37:15.722 HYPERVISOR: exec_cmd: vm slot_add_nio_binding ESW2 1 2 udp-4a4a54cf-1010-4c36-a9cf-d6b50644b42a 
Nov 29 15:37:15.722 HYPERVISOR: exec_cmd: vm get_status ESW2 
Nov 29 15:40:57.498 HYPERVISOR: exec_cmd: vm get_status ESW2 
Nov 29 15:40:57.500 HYPERVISOR: exec_cmd: vm extract_config ESW2 
Nov 29 15:40:57.504 HYPERVISOR: exec_cmd: vm delete ESW2 
Nov 29 15:40:57.504 VM: VM ESW2 destroyed.
Nov 29 15:40:57.505 HYPERVISOR: exec_cmd: hypervisor stop 
Nov 29 15:40:57.774 HYPERVISOR: Stopped.
Nov 29 15:40:57.774 GENERAL: reset done.
