Nov 28 08:34:30.832 HYPERVISOR: Release 0.2.17-amd64/Linux (tag 2017072410)
Nov 28 08:34:30.832 HYPERVISOR: Started on IP = 127.0.0.1, TCP port = 50859.
Nov 28 08:34:30.848 HYPERVISOR: exec_cmd: hypervisor version 
Nov 28 08:34:30.848 HYPERVISOR: exec_cmd: hypervisor working_dir /media/actionmystique/SAMSUNG5-VMs/Labs/GNS3/TT 1-linux-/project-files/dynamips 
Nov 28 08:34:30.848 GENERAL: working_dir=/media/actionmystique/SAMSUNG5-VMs/Labs/GNS3/TT 1-linux-/project-files/dynamips
Nov 28 08:34:30.851 HYPERVISOR: exec_cmd: vm create ESW3 3 c3725 
Nov 28 08:34:30.851 VM: VM ESW3 created.
Nov 28 08:34:30.852 HYPERVISOR: exec_cmd: vm set_con_tcp_port ESW3 2006 
Nov 28 08:34:30.853 HYPERVISOR: exec_cmd: c3725 get_mac_addr ESW3 
Nov 28 08:34:30.853 HYPERVISOR: exec_cmd: vm set_disk0 ESW3 1 
Nov 28 08:34:30.854 HYPERVISOR: exec_cmd: vm get_status ESW3 
Nov 28 08:34:30.855 HYPERVISOR: exec_cmd: vm slot_add_binding ESW3 1 0 NM-16ESW 
Nov 28 08:34:30.855 HYPERVISOR: exec_cmd: vm set_ios ESW3 /media/actionmystique/SAMSUNG5-VMs/Images/GNS3/IOS/c3725-adventerprisek9-mz.124-15.T10.image 
Nov 28 08:34:30.858 HYPERVISOR: exec_cmd: c3725 set_mac_addr ESW3 c203.1bfb.0000 
Nov 28 08:34:30.859 HYPERVISOR: exec_cmd: vm slot_add_binding ESW3 0 16 WIC-2T 
Nov 28 08:34:30.859 HYPERVISOR: exec_cmd: vm get_status ESW3 
Nov 28 08:34:30.860 HYPERVISOR: exec_cmd: vm set_idle_pc ESW3 0x614ac27c 
Nov 28 08:34:30.860 HYPERVISOR: exec_cmd: vm set_nvram ESW3 256 
Nov 28 08:34:30.861 HYPERVISOR: exec_cmd: vm set_config ESW3 configs/ios_base_startup-config.txt 
Nov 28 08:34:30.861 HYPERVISOR: exec_cmd: vm set_config ESW3 configs/ios_base_startup-config.txt configs/ios_base_private-config.txt 
Nov 28 08:34:31.000 HYPERVISOR: exec_cmd: nio create_tap tap-91c7a110-4a78-4d31-9f3a-3b2b9a0a3383 tap0 
Nov 28 08:34:31.002 HYPERVISOR: exec_cmd: vm slot_add_nio_binding ESW3 1 1 tap-91c7a110-4a78-4d31-9f3a-3b2b9a0a3383 
Nov 28 08:34:31.002 HYPERVISOR: exec_cmd: vm get_status ESW3 
Nov 28 08:34:31.108 HYPERVISOR: exec_cmd: nio create_udp udp-c47d4682-8781-4f57-b25d-6f9e8f469512 15011 127.0.0.1 15010 
Nov 28 08:34:31.109 HYPERVISOR: exec_cmd: vm slot_add_nio_binding ESW3 1 0 udp-c47d4682-8781-4f57-b25d-6f9e8f469512 
Nov 28 08:34:31.109 HYPERVISOR: exec_cmd: vm get_status ESW3 
Nov 28 08:34:51.844 HYPERVISOR: exec_cmd: vm get_status ESW3 
Nov 28 08:34:51.845 HYPERVISOR: exec_cmd: vm extract_config ESW3 
Nov 28 08:34:51.847 HYPERVISOR: exec_cmd: vm delete ESW3 
Nov 28 08:34:51.847 VM: VM ESW3 destroyed.
Nov 28 08:34:51.848 HYPERVISOR: exec_cmd: hypervisor stop 
Nov 28 08:34:51.870 HYPERVISOR: Stopped.
Nov 28 08:34:51.870 GENERAL: reset done.
