Nov 28 08:33:41.437 HYPERVISOR: Release 0.2.17-amd64/Linux (tag 2017072410)
Nov 28 08:33:41.437 HYPERVISOR: Started on IP = 127.0.0.1, TCP port = 35895.
Nov 28 08:33:41.445 HYPERVISOR: exec_cmd: hypervisor version 
Nov 28 08:33:41.446 HYPERVISOR: exec_cmd: hypervisor working_dir /media/actionmystique/SAMSUNG5-VMs/Labs/GNS3/git-Public-Labs-Collection/CCNP/TBSHOOT/L3-Technologies/IPv4/Routing-Protocols/EIGRP/Jean-Christophe_Manciot/1+/TT 1-linux/project-files/dynamips 
Nov 28 08:33:41.446 GENERAL: working_dir=/media/actionmystique/SAMSUNG5-VMs/Labs/GNS3/git-Public-Labs-Collection/CCNP/TBSHOOT/L3-Technologies/IPv4/Routing-Protocols/EIGRP/Jean-Christophe_Manciot/1+/TT 1-linux/project-files/dynamips
Nov 28 08:33:41.446 HYPERVISOR: exec_cmd: vm create ESW1 1 c3725 
Nov 28 08:33:41.446 VM: VM ESW1 created.
Nov 28 08:33:41.447 HYPERVISOR: exec_cmd: vm set_con_tcp_port ESW1 2004 
Nov 28 08:33:41.447 HYPERVISOR: exec_cmd: c3725 get_mac_addr ESW1 
Nov 28 08:33:41.448 HYPERVISOR: exec_cmd: vm set_disk0 ESW1 1 
Nov 28 08:33:41.448 HYPERVISOR: exec_cmd: vm get_status ESW1 
Nov 28 08:33:41.448 HYPERVISOR: exec_cmd: vm slot_add_binding ESW1 1 0 NM-16ESW 
Nov 28 08:33:41.449 HYPERVISOR: exec_cmd: vm set_ios ESW1 /media/actionmystique/SAMSUNG5-VMs/Images/GNS3/IOS/c3725-adventerprisek9-mz.124-15.T10.image 
Nov 28 08:33:41.450 HYPERVISOR: exec_cmd: c3725 set_mac_addr ESW1 c201.1b91.0000 
Nov 28 08:33:41.450 HYPERVISOR: exec_cmd: vm slot_add_binding ESW1 0 16 WIC-2T 
Nov 28 08:33:41.450 HYPERVISOR: exec_cmd: vm get_status ESW1 
Nov 28 08:33:41.451 HYPERVISOR: exec_cmd: vm set_idle_pc ESW1 0x614ac27c 
Nov 28 08:33:41.451 HYPERVISOR: exec_cmd: vm set_nvram ESW1 256 
Nov 28 08:33:41.453 HYPERVISOR: exec_cmd: vm set_config ESW1 configs/ios_base_startup-config.txt 
Nov 28 08:33:41.454 HYPERVISOR: exec_cmd: vm set_config ESW1 configs/ios_base_startup-config.txt configs/ios_base_private-config.txt 
Nov 28 08:33:41.559 HYPERVISOR: exec_cmd: nio create_udp udp-667e23ea-57f1-441b-8b5b-d656dda21f9e 15006 127.0.0.1 15005 
Nov 28 08:33:41.564 HYPERVISOR: exec_cmd: vm slot_add_nio_binding ESW1 1 1 udp-667e23ea-57f1-441b-8b5b-d656dda21f9e 
Nov 28 08:33:41.565 HYPERVISOR: exec_cmd: vm get_status ESW1 
Nov 28 08:33:41.593 HYPERVISOR: exec_cmd: nio create_udp udp-a358cb38-7761-4969-91b4-2e16f5cdd157 15009 127.0.0.1 15008 
Nov 28 08:33:41.596 HYPERVISOR: exec_cmd: vm slot_add_nio_binding ESW1 1 0 udp-a358cb38-7761-4969-91b4-2e16f5cdd157 
Nov 28 08:33:41.597 HYPERVISOR: exec_cmd: vm get_status ESW1 
