Nov 27 16:17:40.215 HYPERVISOR: Release 0.2.17-amd64/Linux (tag 2017072410)
Nov 27 16:17:40.215 HYPERVISOR: Started on IP = 127.0.0.1, TCP port = 32949.
Nov 27 16:17:40.301 HYPERVISOR: exec_cmd: hypervisor version 
Nov 27 16:17:40.303 HYPERVISOR: exec_cmd: hypervisor working_dir /media/actionmystique/SAMSUNG5-VMs/Labs/GNS3/TT 1-solutions-linux-/project-files/dynamips 
Nov 27 16:17:40.303 GENERAL: working_dir=/media/actionmystique/SAMSUNG5-VMs/Labs/GNS3/TT 1-solutions-linux-/project-files/dynamips
Nov 27 16:17:40.305 HYPERVISOR: exec_cmd: vm create ESW1 1 c3725 
Nov 27 16:17:40.305 VM: VM ESW1 created.
Nov 27 16:17:40.306 HYPERVISOR: exec_cmd: vm set_con_tcp_port ESW1 2004 
Nov 27 16:17:40.308 HYPERVISOR: exec_cmd: c3725 get_mac_addr ESW1 
Nov 27 16:17:40.310 HYPERVISOR: exec_cmd: vm set_nvram ESW1 256 
Nov 27 16:17:40.312 HYPERVISOR: exec_cmd: vm get_status ESW1 
Nov 27 16:17:40.313 HYPERVISOR: exec_cmd: vm set_idle_pc ESW1 0x60c06d20 
Nov 27 16:17:40.314 HYPERVISOR: exec_cmd: c3725 set_mac_addr ESW1 c201.1b91.0000 
Nov 27 16:17:40.315 HYPERVISOR: exec_cmd: vm get_status ESW1 
Nov 27 16:17:40.316 HYPERVISOR: exec_cmd: vm slot_add_binding ESW1 1 0 NM-16ESW 
Nov 27 16:17:40.317 HYPERVISOR: exec_cmd: vm set_disk0 ESW1 1 
Nov 27 16:17:40.318 HYPERVISOR: exec_cmd: vm set_ios ESW1 /media/actionmystique/SAMSUNG5-VMs/Images/GNS3/IOS/c3725-adventerprisek9-mz.124-15.T10.image 
Nov 27 16:17:40.329 HYPERVISOR: exec_cmd: vm slot_add_binding ESW1 0 16 WIC-2T 
Nov 27 16:17:40.331 HYPERVISOR: exec_cmd: vm set_config ESW1 configs/ios_base_startup-config.txt 
Nov 27 16:17:40.332 HYPERVISOR: exec_cmd: vm set_config ESW1 configs/ios_base_startup-config.txt configs/ios_base_private-config.txt 
Nov 27 16:17:40.649 HYPERVISOR: exec_cmd: nio create_udp udp-c0924c01-5360-496b-9dfe-79accd0b4e21 15006 127.0.0.1 15007 
Nov 27 16:17:40.649 HYPERVISOR: exec_cmd: vm slot_add_nio_binding ESW1 1 0 udp-c0924c01-5360-496b-9dfe-79accd0b4e21 
Nov 27 16:17:40.649 HYPERVISOR: exec_cmd: vm get_status ESW1 
Nov 27 16:17:40.675 HYPERVISOR: exec_cmd: nio create_udp udp-aef792bb-b4b7-4e81-80d5-1804f8c2fb65 15010 127.0.0.1 15008 
Nov 27 16:17:40.676 HYPERVISOR: exec_cmd: vm slot_add_nio_binding ESW1 1 1 udp-aef792bb-b4b7-4e81-80d5-1804f8c2fb65 
Nov 27 16:17:40.676 HYPERVISOR: exec_cmd: vm get_status ESW1 
Nov 27 16:17:54.795 HYPERVISOR: exec_cmd: vm get_status ESW1 
Nov 27 16:17:54.797 HYPERVISOR: exec_cmd: vm extract_config ESW1 
Nov 27 16:17:54.799 HYPERVISOR: exec_cmd: vm delete ESW1 
Nov 27 16:17:54.799 VM: VM ESW1 destroyed.
Nov 27 16:17:54.802 HYPERVISOR: exec_cmd: hypervisor stop 
Nov 27 16:17:55.298 HYPERVISOR: Stopped.
Nov 27 16:17:55.298 GENERAL: reset done.
