Nov 26 21:03:04.620 HYPERVISOR: Release 0.2.17-amd64/Linux (tag 2017072410)
Nov 26 21:03:04.620 HYPERVISOR: Started on IP = 127.0.0.1, TCP port = 40939.
Nov 26 21:03:04.640 HYPERVISOR: exec_cmd: hypervisor version 
Nov 26 21:03:04.642 HYPERVISOR: exec_cmd: hypervisor working_dir /media/actionmystique/SAMSUNG5-VMs/Labs/GNS3/PVST+ EIGRP DHCP/project-files/dynamips 
Nov 26 21:03:04.642 GENERAL: working_dir=/media/actionmystique/SAMSUNG5-VMs/Labs/GNS3/PVST+ EIGRP DHCP/project-files/dynamips
Nov 26 21:03:04.645 HYPERVISOR: exec_cmd: vm create SW6 6 c3725 
Nov 26 21:03:04.645 VM: VM SW6 created.
Nov 26 21:03:04.648 HYPERVISOR: exec_cmd: vm set_con_tcp_port SW6 2006 
Nov 26 21:03:04.656 HYPERVISOR: exec_cmd: vm set_aux_tcp_port SW6 2506 
Nov 26 21:03:04.674 HYPERVISOR: exec_cmd: c3725 get_mac_addr SW6 
Nov 26 21:03:04.686 HYPERVISOR: exec_cmd: vm set_ios SW6 /media/actionmystique/SAMSUNG5-VMs/Images/GNS3/IOS/c3725-adventerprisek9-mz.124-15.T5.image 
Nov 26 21:03:04.697 HYPERVISOR: exec_cmd: vm get_status SW6 
Nov 26 21:03:04.699 HYPERVISOR: exec_cmd: vm set_idle_pc SW6 0x62af9f1c 
Nov 26 21:03:04.702 HYPERVISOR: exec_cmd: vm get_status SW6 
Nov 26 21:03:04.704 HYPERVISOR: exec_cmd: vm slot_add_binding SW6 1 0 NM-16ESW 
Nov 26 21:03:04.707 HYPERVISOR: exec_cmd: vm set_config SW6 configs/i6_startup-config.cfg 
Nov 26 21:03:05.097 HYPERVISOR: exec_cmd: nio create_udp udp-d457496e-fe2f-4192-9b0a-579a148aa3f7 30004 127.0.0.1 20004 
Nov 26 21:03:05.097 HYPERVISOR: exec_cmd: vm slot_add_nio_binding SW6 1 4 udp-d457496e-fe2f-4192-9b0a-579a148aa3f7 
Nov 26 21:03:05.098 HYPERVISOR: exec_cmd: vm get_status SW6 
Nov 26 21:03:05.104 HYPERVISOR: exec_cmd: nio create_udp udp-db03a5d6-328c-4f66-8938-9c792b9c22ac 30005 127.0.0.1 20005 
Nov 26 21:03:05.107 HYPERVISOR: exec_cmd: vm slot_add_nio_binding SW6 1 5 udp-db03a5d6-328c-4f66-8938-9c792b9c22ac 
Nov 26 21:03:05.109 HYPERVISOR: exec_cmd: vm get_status SW6 
Nov 26 21:03:05.369 HYPERVISOR: exec_cmd: vm extract_config SW6 
Nov 26 21:03:05.469 HYPERVISOR: exec_cmd: nio create_udp udp-653de908-7b52-4580-9547-f908e7505490 15011 127.0.0.1 15010 
Nov 26 21:03:05.469 HYPERVISOR: exec_cmd: vm slot_add_nio_binding SW6 1 3 udp-653de908-7b52-4580-9547-f908e7505490 
Nov 26 21:03:05.470 HYPERVISOR: exec_cmd: vm get_status SW6 
Nov 26 21:03:05.496 HYPERVISOR: exec_cmd: nio create_udp udp-d589d3ba-bffc-42bb-9980-9b2c63bd31f9 15013 127.0.0.1 15012 
Nov 26 21:03:05.499 HYPERVISOR: exec_cmd: vm slot_add_nio_binding SW6 1 0 udp-d589d3ba-bffc-42bb-9980-9b2c63bd31f9 
Nov 26 21:03:05.500 HYPERVISOR: exec_cmd: vm get_status SW6 
Nov 26 21:03:42.415 HYPERVISOR: exec_cmd: vm get_status SW6 
Nov 26 21:03:42.418 HYPERVISOR: exec_cmd: vm extract_config SW6 
Nov 26 21:03:42.466 HYPERVISOR: exec_cmd: vm delete SW6 
Nov 26 21:03:42.466 VM: VM SW6 destroyed.
Nov 26 21:03:42.470 HYPERVISOR: exec_cmd: hypervisor stop 
Nov 26 21:03:42.674 HYPERVISOR: Stopped.
Nov 26 21:03:42.674 GENERAL: reset done.
