Nov 26 21:03:04.587 HYPERVISOR: Release 0.2.17-amd64/Linux (tag 2017072410)
Nov 26 21:03:04.587 HYPERVISOR: Started on IP = 127.0.0.1, TCP port = 41767.
Nov 26 21:03:04.598 HYPERVISOR: exec_cmd: hypervisor version 
Nov 26 21:03:04.599 HYPERVISOR: exec_cmd: hypervisor working_dir /media/actionmystique/SAMSUNG5-VMs/Labs/GNS3/PVST+ EIGRP DHCP/project-files/dynamips 
Nov 26 21:03:04.599 GENERAL: working_dir=/media/actionmystique/SAMSUNG5-VMs/Labs/GNS3/PVST+ EIGRP DHCP/project-files/dynamips
Nov 26 21:03:04.601 HYPERVISOR: exec_cmd: vm create SW1 1 c3725 
Nov 26 21:03:04.601 VM: VM SW1 created.
Nov 26 21:03:04.602 HYPERVISOR: exec_cmd: vm set_con_tcp_port SW1 2001 
Nov 26 21:03:04.603 HYPERVISOR: exec_cmd: vm set_aux_tcp_port SW1 2501 
Nov 26 21:03:04.603 HYPERVISOR: exec_cmd: c3725 get_mac_addr SW1 
Nov 26 21:03:04.604 HYPERVISOR: exec_cmd: vm set_ios SW1 /media/actionmystique/SAMSUNG5-VMs/Images/GNS3/IOS/c3725-adventerprisek9-mz.124-15.T5.image 
Nov 26 21:03:04.605 HYPERVISOR: exec_cmd: vm get_status SW1 
Nov 26 21:03:04.605 HYPERVISOR: exec_cmd: vm set_idle_pc SW1 0x62af9f1c 
Nov 26 21:03:04.605 HYPERVISOR: exec_cmd: vm get_status SW1 
Nov 26 21:03:04.606 HYPERVISOR: exec_cmd: vm slot_add_binding SW1 1 0 NM-16ESW 
Nov 26 21:03:04.606 HYPERVISOR: exec_cmd: vm set_config SW1 configs/i1_startup-config.cfg 
Nov 26 21:03:05.273 HYPERVISOR: exec_cmd: nio create_udp udp-24761576-b426-4501-aa6c-ecec63cc1f8b 15000 127.0.0.1 15001 
Nov 26 21:03:05.273 HYPERVISOR: exec_cmd: vm slot_add_nio_binding SW1 1 1 udp-24761576-b426-4501-aa6c-ecec63cc1f8b 
Nov 26 21:03:05.274 HYPERVISOR: exec_cmd: vm get_status SW1 
Nov 26 21:03:05.371 HYPERVISOR: exec_cmd: vm extract_config SW1 
Nov 26 21:03:05.383 HYPERVISOR: exec_cmd: nio create_udp udp-37a828b4-e3a4-42c6-b62d-4912235d7d17 15003 127.0.0.1 15002 
Nov 26 21:03:05.387 HYPERVISOR: exec_cmd: vm slot_add_nio_binding SW1 1 2 udp-37a828b4-e3a4-42c6-b62d-4912235d7d17 
Nov 26 21:03:05.388 HYPERVISOR: exec_cmd: vm get_status SW1 
Nov 26 21:03:05.506 HYPERVISOR: exec_cmd: nio create_udp udp-9254d18f-686f-4303-952f-86d2c669a255 15014 127.0.0.1 15015 
Nov 26 21:03:05.510 HYPERVISOR: exec_cmd: vm slot_add_nio_binding SW1 1 0 udp-9254d18f-686f-4303-952f-86d2c669a255 
Nov 26 21:03:05.511 HYPERVISOR: exec_cmd: vm get_status SW1 
Nov 26 21:03:05.548 HYPERVISOR: exec_cmd: nio create_udp udp-87521773-b0c4-40aa-9fad-dbf65ca1fefa 15019 127.0.0.1 15018 
Nov 26 21:03:05.551 HYPERVISOR: exec_cmd: vm slot_add_nio_binding SW1 1 3 udp-87521773-b0c4-40aa-9fad-dbf65ca1fefa 
Nov 26 21:03:05.552 HYPERVISOR: exec_cmd: vm get_status SW1 
Nov 26 21:03:42.414 HYPERVISOR: exec_cmd: vm get_status SW1 
Nov 26 21:03:42.418 HYPERVISOR: exec_cmd: vm extract_config SW1 
Nov 26 21:03:42.467 HYPERVISOR: exec_cmd: vm delete SW1 
Nov 26 21:03:42.468 VM: VM SW1 destroyed.
Nov 26 21:03:42.471 HYPERVISOR: exec_cmd: hypervisor stop 
Nov 26 21:03:42.633 HYPERVISOR: Stopped.
Nov 26 21:03:42.633 GENERAL: reset done.
