autostart = False
version = 0.8.4-RC3
[127.0.0.1:7200]
    workingdir = working
    udp = 11000
    [[3725]]
        image = C:\Users\ActionMystique\Google Drive\Missions\Certifications\Cisco\IOS\Binaries\c3725-adventerprisek9-mz.124-15.T5.image
        ram = 128
        idlepc = 0x602649b4
        idlemax = 500
        sparsemem = True
        ghostios = True
    [[ROUTER DLS2]]
        model = 3725
        console = 2002
        aux = 2502
        cnfg = configs\DLS2.cfg
        slot1 = NM-16ESW
        f1/7 = ALS2 f1/7
        f1/8 = ALS2 f1/8
        f1/9 = ALS1 f1/9
        f1/10 = ALS1 f1/10
        f1/11 = DLS1 f1/11
        f1/12 = DLS1 f1/12
        symbol = EtherSwitch router
        x = 47.9611580968
        y = -238.5
        z = 1.0
    [[ROUTER DLS1]]
        model = 3725
        console = 2001
        aux = 2501
        cnfg = configs\DLS1.cfg
        slot1 = NM-16ESW
        f1/7 = ALS1 f1/7
        f1/8 = ALS1 f1/8
        f1/9 = ALS2 f1/9
        f1/10 = ALS2 f1/10
        f1/11 = DLS2 f1/11
        f1/12 = DLS2 f1/12
        symbol = EtherSwitch router
        x = -255.5
        y = -238.5
        z = 1.0
    [[ROUTER ALS1]]
        model = 3725
        console = 2004
        aux = 2504
        cnfg = configs\ALS1.cfg
        slot1 = NM-16ESW
        f1/7 = DLS1 f1/7
        f1/8 = DLS1 f1/8
        f1/9 = DLS2 f1/9
        f1/10 = DLS2 f1/10
        f1/11 = ALS2 f1/11
        f1/12 = ALS2 f1/12
        symbol = EtherSwitch router
        x = -255.89129586
        y = -66.5
        z = 1.0
        hx = 6.13558864609
        hy = 47.173714519
[127.0.0.1:7201]
    workingdir = working
    udp = 11100
    [[3725]]
        image = C:\Users\ActionMystique\Google Drive\Missions\Certifications\Cisco\IOS\Binaries\c3725-adventerprisek9-mz.124-15.T5.image
        ram = 128
        idlepc = 0x602649b4
        idlemax = 500
        sparsemem = True
        ghostios = True
    [[ROUTER ALS2]]
        model = 3725
        console = 2007
        aux = 2507
        cnfg = configs\ALS2.cfg
        slot1 = NM-16ESW
        f1/7 = DLS2 f1/7
        f1/8 = DLS2 f1/8
        f1/9 = DLS1 f1/9
        f1/10 = DLS1 f1/10
        f1/11 = ALS1 f1/11
        f1/12 = ALS1 f1/12
        symbol = EtherSwitch router
        x = 47.7176034883
        y = -66.8014752414
        z = 1.0
        hx = 5.0
        hy = 45.0960307126
[GNS3-DATA]
    configs = configs
    workdir = working
    m11 = 1.0842268703
    m22 = 1.0842268703
    [[NOTE 1]]
        text = "802.1Q"
        x = 75.6524200465
        y = -137.652127233
        color = "#0055ff"
    [[NOTE 2]]
        text = "1: Configure VTP mode to transparent on all switches.\n2: Configure DLS1 to be primary root on VLAN 1 and secondary root on VLAN 100.\n3: Configure DLS2 to be primary root on VLAN 100 and secondary root on VLAN 1.\n4: Configure ALS1 to be primary root on VLAN 110 and secondary root on VLAN 120.\n5: Configure ALS2 to be primary root on VLAN 120 and secondary root on VLAN 110."
        x = -630.069526215
        y = -414.411811794
    [[NOTE 3]]
        text = "3-3 PVST+"
        x = -132.359361201
        y = -494.841444289
        font = "MS Shell Dlg 2,20,-1,5,75,0,1,0,0,0"
        color = "#0055ff"
    [[NOTE 4]]
        text = "802.1Q"
        x = -108.261221791
        y = -115.913056209
        color = "#0055ff"
    [[NOTE 5]]
        text = "802.1Q"
        x = -106.956869721
        y = -37.651736814
        color = "#0055ff"
    [[NOTE 6]]
        text = "802.1Q"
        x = -108.261221791
        y = -239.826307628
        color = "#0055ff"
    [[NOTE 7]]
        text = "802.1Q"
        x = -288.261807418
        y = -142.434816558
        color = "#0055ff"
