Nov 28 08:53:57.937 HYPERVISOR: Release 0.2.17-amd64/Linux (tag 2017072410)
Nov 28 08:53:57.937 HYPERVISOR: Started on IP = 127.0.0.1, TCP port = 43815.
Nov 28 08:53:57.974 HYPERVISOR: exec_cmd: hypervisor version 
Nov 28 08:53:57.975 HYPERVISOR: exec_cmd: hypervisor working_dir /media/actionmystique/SAMSUNG5-VMs/Labs/GNS3/TT 2-solutions-linux-/project-files/dynamips 
Nov 28 08:53:57.975 GENERAL: working_dir=/media/actionmystique/SAMSUNG5-VMs/Labs/GNS3/TT 2-solutions-linux-/project-files/dynamips
Nov 28 08:53:57.975 HYPERVISOR: exec_cmd: vm create ESW1 1 c3725 
Nov 28 08:53:57.975 VM: VM ESW1 created.
Nov 28 08:53:57.976 HYPERVISOR: exec_cmd: vm set_con_tcp_port ESW1 2004 
Nov 28 08:53:57.976 HYPERVISOR: exec_cmd: c3725 get_mac_addr ESW1 
Nov 28 08:53:57.976 HYPERVISOR: exec_cmd: vm set_disk0 ESW1 1 
Nov 28 08:53:57.977 HYPERVISOR: exec_cmd: vm get_status ESW1 
Nov 28 08:53:57.977 HYPERVISOR: exec_cmd: vm slot_add_binding ESW1 1 0 NM-16ESW 
Nov 28 08:53:57.977 HYPERVISOR: exec_cmd: vm set_ios ESW1 /media/actionmystique/SAMSUNG5-VMs/Images/GNS3/IOS/c3725-adventerprisek9-mz.124-15.T10.image 
Nov 28 08:53:57.978 HYPERVISOR: exec_cmd: c3725 set_mac_addr ESW1 c201.1b91.0000 
Nov 28 08:53:57.978 HYPERVISOR: exec_cmd: vm slot_add_binding ESW1 0 16 WIC-2T 
Nov 28 08:53:57.979 HYPERVISOR: exec_cmd: vm get_status ESW1 
Nov 28 08:53:57.979 HYPERVISOR: exec_cmd: vm set_idle_pc ESW1 0x0 
Nov 28 08:53:57.979 HYPERVISOR: exec_cmd: vm set_nvram ESW1 256 
Nov 28 08:53:57.980 HYPERVISOR: exec_cmd: vm set_config ESW1 configs/ios_base_startup-config.txt 
Nov 28 08:53:57.980 HYPERVISOR: exec_cmd: vm set_config ESW1 configs/ios_base_startup-config.txt configs/ios_base_private-config.txt 
Nov 28 08:53:58.280 HYPERVISOR: exec_cmd: nio create_udp udp-4eb5bf6f-dea8-4b90-9fd3-fb302f101eff 15007 127.0.0.1 15006 
Nov 28 08:53:58.286 HYPERVISOR: exec_cmd: vm slot_add_nio_binding ESW1 1 0 udp-4eb5bf6f-dea8-4b90-9fd3-fb302f101eff 
Nov 28 08:53:58.291 HYPERVISOR: exec_cmd: vm get_status ESW1 
Nov 28 08:53:58.297 HYPERVISOR: exec_cmd: nio create_udp udp-904fe630-e228-462b-a06b-8c5d81ef7152 15009 127.0.0.1 15008 
Nov 28 08:53:58.298 HYPERVISOR: exec_cmd: vm slot_add_nio_binding ESW1 1 1 udp-904fe630-e228-462b-a06b-8c5d81ef7152 
Nov 28 08:53:58.299 HYPERVISOR: exec_cmd: vm get_status ESW1 
Nov 28 08:54:16.539 HYPERVISOR: exec_cmd: vm get_status ESW1 
Nov 28 08:54:16.541 HYPERVISOR: exec_cmd: vm extract_config ESW1 
Nov 28 08:54:16.543 HYPERVISOR: exec_cmd: vm delete ESW1 
Nov 28 08:54:16.543 VM: VM ESW1 destroyed.
Nov 28 08:54:16.545 HYPERVISOR: exec_cmd: hypervisor stop 
Nov 28 08:54:16.992 HYPERVISOR: Stopped.
Nov 28 08:54:16.992 GENERAL: reset done.
