Nov 29 15:29:14.996 HYPERVISOR: Release 0.2.17-amd64/Linux (tag 2017072410)
Nov 29 15:29:14.996 HYPERVISOR: Started on IP = 127.0.0.1, TCP port = 47191.
Nov 29 15:29:15.009 HYPERVISOR: exec_cmd: hypervisor version 
Nov 29 15:29:15.009 HYPERVISOR: exec_cmd: hypervisor working_dir /media/actionmystique/SAMSUNG5-VMs/Labs/GNS3/TT 4-linux-/project-files/dynamips 
Nov 29 15:29:15.009 GENERAL: working_dir=/media/actionmystique/SAMSUNG5-VMs/Labs/GNS3/TT 4-linux-/project-files/dynamips
Nov 29 15:29:15.010 HYPERVISOR: exec_cmd: vm create ESW3 3 c3725 
Nov 29 15:29:15.010 VM: VM ESW3 created.
Nov 29 15:29:15.010 HYPERVISOR: exec_cmd: vm set_con_tcp_port ESW3 2006 
Nov 29 15:29:15.010 HYPERVISOR: exec_cmd: c3725 get_mac_addr ESW3 
Nov 29 15:29:15.011 HYPERVISOR: exec_cmd: vm set_nvram ESW3 256 
Nov 29 15:29:15.011 HYPERVISOR: exec_cmd: vm slot_add_binding ESW3 0 16 WIC-2T 
Nov 29 15:29:15.011 HYPERVISOR: exec_cmd: c3725 set_mac_addr ESW3 c203.1bfb.0000 
Nov 29 15:29:15.012 HYPERVISOR: exec_cmd: vm set_disk0 ESW3 1 
Nov 29 15:29:15.012 HYPERVISOR: exec_cmd: vm set_ios ESW3 /media/actionmystique/SAMSUNG5-VMs/Images/GNS3/IOS/c3725-adventerprisek9-mz.124-15.T10.image 
Nov 29 15:29:15.012 HYPERVISOR: exec_cmd: vm get_status ESW3 
Nov 29 15:29:15.013 HYPERVISOR: exec_cmd: vm set_idle_pc ESW3 0x6026b804 
Nov 29 15:29:15.013 HYPERVISOR: exec_cmd: vm get_status ESW3 
Nov 29 15:29:15.014 HYPERVISOR: exec_cmd: vm slot_add_binding ESW3 1 0 NM-16ESW 
Nov 29 15:29:15.014 HYPERVISOR: exec_cmd: vm set_config ESW3 configs/ios_base_startup-config.txt 
Nov 29 15:29:15.014 HYPERVISOR: exec_cmd: vm set_config ESW3 configs/ios_base_startup-config.txt configs/ios_base_private-config.txt 
Nov 29 15:29:15.233 HYPERVISOR: exec_cmd: nio create_tap tap-dd97aa0e-8863-4a95-aee1-e3c4065653b2 tap0 
Nov 29 15:29:15.235 HYPERVISOR: exec_cmd: vm slot_add_nio_binding ESW3 1 1 tap-dd97aa0e-8863-4a95-aee1-e3c4065653b2 
Nov 29 15:29:15.236 HYPERVISOR: exec_cmd: vm get_status ESW3 
Nov 29 15:29:15.618 HYPERVISOR: exec_cmd: nio create_udp udp-c5628a7f-5ac7-4684-ab2d-4cedf45f83c3 15001 127.0.0.1 15000 
Nov 29 15:29:15.619 HYPERVISOR: exec_cmd: vm slot_add_nio_binding ESW3 1 0 udp-c5628a7f-5ac7-4684-ab2d-4cedf45f83c3 
Nov 29 15:29:15.620 HYPERVISOR: exec_cmd: vm get_status ESW3 
Nov 29 15:29:34.463 HYPERVISOR: exec_cmd: vm get_status ESW3 
Nov 29 15:29:34.467 HYPERVISOR: exec_cmd: vm extract_config ESW3 
Nov 29 15:29:34.470 HYPERVISOR: exec_cmd: vm delete ESW3 
Nov 29 15:29:34.470 VM: VM ESW3 destroyed.
Nov 29 15:29:34.475 HYPERVISOR: exec_cmd: hypervisor stop 
Nov 29 15:29:34.529 HYPERVISOR: Stopped.
Nov 29 15:29:34.529 GENERAL: reset done.
