Nov 26 20:03:39.299 HYPERVISOR: Release 0.2.17-amd64/Linux (tag 2017072410)
Nov 26 20:03:39.299 HYPERVISOR: Started on IP = 127.0.0.1, TCP port = 43561.
Nov 26 20:03:39.341 HYPERVISOR: exec_cmd: hypervisor version 
Nov 26 20:03:39.345 HYPERVISOR: exec_cmd: hypervisor working_dir /media/actionmystique/SAMSUNG5-VMs/Labs/GNS3/git-Public-Labs-Collection/CCDP/ARCH/BGP/Jean-Christophe_Manciot/1+/Route Reflectors-linux-/project-files/dynamips 
Nov 26 20:03:39.345 GENERAL: working_dir=/media/actionmystique/SAMSUNG5-VMs/Labs/GNS3/git-Public-Labs-Collection/CCDP/ARCH/BGP/Jean-Christophe_Manciot/1+/Route Reflectors-linux-/project-files/dynamips
Nov 26 20:03:39.356 HYPERVISOR: exec_cmd: vm create Client_Munich 7 c7200 
Nov 26 20:03:39.356 VM: VM Client_Munich created.
Nov 26 20:03:39.368 HYPERVISOR: exec_cmd: vm set_con_tcp_port Client_Munich 2108 
Nov 26 20:03:39.371 HYPERVISOR: exec_cmd: vm set_aux_tcp_port Client_Munich 2508 
Nov 26 20:03:39.373 HYPERVISOR: exec_cmd: c7200 get_mac_addr Client_Munich 
Nov 26 20:03:39.391 HYPERVISOR: exec_cmd: vm get_status Client_Munich 
Nov 26 20:03:39.395 HYPERVISOR: exec_cmd: vm slot_add_binding Client_Munich 0 0 C7200-IO-FE 
Nov 26 20:03:39.405 HYPERVISOR: exec_cmd: vm get_status Client_Munich 
Nov 26 20:03:39.408 HYPERVISOR: exec_cmd: vm set_idle_pc Client_Munich 0x6062d534 
Nov 26 20:03:39.409 HYPERVISOR: exec_cmd: vm set_ram Client_Munich 512 
Nov 26 20:03:39.410 HYPERVISOR: exec_cmd: vm set_ios Client_Munich /media/actionmystique/SAMSUNG5-VMs/Images/GNS3/IOS/c7200-adventerprisek9-mz.152-4.M2.image 
Nov 26 20:03:39.410 HYPERVISOR: exec_cmd: vm get_status Client_Munich 
Nov 26 20:03:39.411 HYPERVISOR: exec_cmd: vm slot_remove_binding Client_Munich 0 0 
Nov 26 20:03:39.411 HYPERVISOR: exec_cmd: vm get_status Client_Munich 
Nov 26 20:03:39.411 HYPERVISOR: exec_cmd: vm slot_add_binding Client_Munich 0 0 C7200-IO-GE-E 
Nov 26 20:03:39.412 HYPERVISOR: exec_cmd: c7200 set_mac_addr Client_Munich ca07.0955.0000 
Nov 26 20:03:39.414 HYPERVISOR: exec_cmd: vm set_config Client_Munich configs/i7_startup-config.cfg 
Nov 26 20:03:39.907 HYPERVISOR: exec_cmd: nio create_udp udp-4d2594a1-7ea1-42a1-a565-ea7ba9821447 15016 127.0.0.1 15017 
Nov 26 20:03:39.910 HYPERVISOR: exec_cmd: vm slot_add_nio_binding Client_Munich 0 0 udp-4d2594a1-7ea1-42a1-a565-ea7ba9821447 
Nov 26 20:03:39.911 HYPERVISOR: exec_cmd: vm get_status Client_Munich 
