Nov 26 21:57:52.211 HYPERVISOR: Release 0.2.17-amd64/Linux (tag 2017072410)
Nov 26 21:57:52.211 HYPERVISOR: Started on IP = 127.0.0.1, TCP port = 46371.
Nov 26 21:57:52.225 HYPERVISOR: exec_cmd: hypervisor version 
Nov 26 21:57:52.226 HYPERVISOR: exec_cmd: hypervisor working_dir /media/actionmystique/SAMSUNG5-VMs/Labs/GNS3/v2-solutions-linux-/project-files/dynamips 
Nov 26 21:57:52.226 GENERAL: working_dir=/media/actionmystique/SAMSUNG5-VMs/Labs/GNS3/v2-solutions-linux-/project-files/dynamips
Nov 26 21:57:52.226 HYPERVISOR: exec_cmd: vm create R1 5 c7200 
Nov 26 21:57:52.226 VM: VM R1 created.
Nov 26 21:57:52.227 HYPERVISOR: exec_cmd: vm set_con_tcp_port R1 2012 
Nov 26 21:57:52.227 HYPERVISOR: exec_cmd: c7200 get_mac_addr R1 
Nov 26 21:57:52.227 HYPERVISOR: exec_cmd: vm get_status R1 
Nov 26 21:57:52.228 HYPERVISOR: exec_cmd: vm slot_add_binding R1 0 0 C7200-IO-FE 
Nov 26 21:57:52.228 HYPERVISOR: exec_cmd: vm get_status R1 
Nov 26 21:57:52.229 HYPERVISOR: exec_cmd: vm set_idle_pc R1 0x6062f0e0 
Nov 26 21:57:52.229 HYPERVISOR: exec_cmd: vm get_status R1 
Nov 26 21:57:52.230 HYPERVISOR: exec_cmd: vm slot_add_binding R1 1 0 PA-GE 
Nov 26 21:57:52.239 HYPERVISOR: exec_cmd: vm set_nvram R1 256 
Nov 26 21:57:52.250 HYPERVISOR: exec_cmd: vm get_status R1 
Nov 26 21:57:52.260 HYPERVISOR: exec_cmd: vm slot_add_binding R1 3 0 PA-GE 
Nov 26 21:57:52.262 HYPERVISOR: exec_cmd: vm get_status R1 
Nov 26 21:57:52.264 HYPERVISOR: exec_cmd: vm slot_remove_binding R1 0 0 
Nov 26 21:57:52.265 HYPERVISOR: exec_cmd: vm get_status R1 
Nov 26 21:57:52.274 HYPERVISOR: exec_cmd: vm slot_add_binding R1 0 0 C7200-IO-GE-E 
Nov 26 21:57:52.276 HYPERVISOR: exec_cmd: vm get_status R1 
Nov 26 21:57:52.279 HYPERVISOR: exec_cmd: vm slot_add_binding R1 4 0 PA-4T+ 
Nov 26 21:57:52.281 HYPERVISOR: exec_cmd: vm get_status R1 
Nov 26 21:57:52.283 HYPERVISOR: exec_cmd: vm slot_add_binding R1 2 0 PA-GE 
Nov 26 21:57:52.284 HYPERVISOR: exec_cmd: vm set_ram R1 512 
Nov 26 21:57:52.286 HYPERVISOR: exec_cmd: vm get_status R1 
Nov 26 21:57:52.287 HYPERVISOR: exec_cmd: vm slot_add_binding R1 6 0 PA-POS-OC3 
Nov 26 21:57:52.288 HYPERVISOR: exec_cmd: c7200 set_mac_addr R1 ca05.2e32.0000 
Nov 26 21:57:52.290 HYPERVISOR: exec_cmd: vm set_disk0 R1 1 
Nov 26 21:57:52.291 HYPERVISOR: exec_cmd: vm set_ios R1 /media/actionmystique/SAMSUNG5-VMs/Images/GNS3/IOS/c7200-adventerprisek9-mz.152-4.M2.image 
Nov 26 21:57:52.293 HYPERVISOR: exec_cmd: vm get_status R1 
Nov 26 21:57:52.294 HYPERVISOR: exec_cmd: vm slot_add_binding R1 5 0 PA-POS-OC3 
Nov 26 21:57:52.296 HYPERVISOR: exec_cmd: vm set_config R1 configs/i5_startup-config.cfg 
Nov 26 21:57:52.297 HYPERVISOR: exec_cmd: vm set_config R1 configs/i5_startup-config.cfg configs/i5_private-config.cfg 
Nov 26 21:57:53.319 HYPERVISOR: exec_cmd: nio create_udp udp-b56998b2-7a1e-4e03-915e-c953cba5ccf8 15027 127.0.0.1 15026 
Nov 26 21:57:53.319 HYPERVISOR: exec_cmd: vm slot_add_nio_binding R1 4 0 udp-b56998b2-7a1e-4e03-915e-c953cba5ccf8 
Nov 26 21:57:53.320 HYPERVISOR: exec_cmd: vm get_status R1 
Nov 26 21:57:53.383 HYPERVISOR: exec_cmd: nio create_udp udp-e95bbea2-7a7d-4bbf-955e-1071ac71e98f 15033 127.0.0.1 15032 
Nov 26 21:57:53.383 HYPERVISOR: exec_cmd: vm slot_add_nio_binding R1 3 0 udp-e95bbea2-7a7d-4bbf-955e-1071ac71e98f 
Nov 26 21:57:53.384 HYPERVISOR: exec_cmd: vm get_status R1 
Nov 26 21:57:53.500 HYPERVISOR: exec_cmd: nio create_udp udp-1e070b00-86f2-416b-9d34-e898d8e58d54 15042 127.0.0.1 15043 
Nov 26 21:57:53.501 HYPERVISOR: exec_cmd: vm slot_add_nio_binding R1 2 0 udp-1e070b00-86f2-416b-9d34-e898d8e58d54 
Nov 26 21:57:53.501 HYPERVISOR: exec_cmd: vm get_status R1 
Nov 26 21:57:53.581 HYPERVISOR: exec_cmd: nio create_udp udp-6d63a20d-ce45-4c45-ba2c-55792c9da553 15051 127.0.0.1 15050 
Nov 26 21:57:53.581 HYPERVISOR: exec_cmd: vm slot_add_nio_binding R1 1 0 udp-6d63a20d-ce45-4c45-ba2c-55792c9da553 
Nov 26 21:57:53.582 HYPERVISOR: exec_cmd: vm get_status R1 
Nov 26 21:58:35.480 HYPERVISOR: exec_cmd: vm get_status R1 
Nov 26 21:58:35.482 HYPERVISOR: exec_cmd: vm extract_config R1 
Nov 26 21:58:35.486 HYPERVISOR: exec_cmd: vm delete R1 
Nov 26 21:58:35.486 VM: VM R1 destroyed.
Nov 26 21:58:35.489 HYPERVISOR: exec_cmd: hypervisor stop 
Nov 26 21:58:35.772 HYPERVISOR: Stopped.
Nov 26 21:58:35.772 GENERAL: reset done.
