Nov 28 08:53:22.708 HYPERVISOR: Release 0.2.17-amd64/Linux (tag 2017072410)
Nov 28 08:53:22.708 HYPERVISOR: Started on IP = 127.0.0.1, TCP port = 59761.
Nov 28 08:53:22.730 HYPERVISOR: exec_cmd: hypervisor version 
Nov 28 08:53:22.731 HYPERVISOR: exec_cmd: hypervisor working_dir /media/actionmystique/SAMSUNG5-VMs/Labs/GNS3/git-Public-Labs-Collection/CCNP/TBSHOOT/L3-Technologies/IPv4/Routing-Protocols/OSPFv2/Jean-Christophe_Manciot/1+/TT 2-linux/project-files/dynamips 
Nov 28 08:53:22.731 GENERAL: working_dir=/media/actionmystique/SAMSUNG5-VMs/Labs/GNS3/git-Public-Labs-Collection/CCNP/TBSHOOT/L3-Technologies/IPv4/Routing-Protocols/OSPFv2/Jean-Christophe_Manciot/1+/TT 2-linux/project-files/dynamips
Nov 28 08:53:22.732 HYPERVISOR: exec_cmd: vm create ESW1 1 c3725 
Nov 28 08:53:22.732 VM: VM ESW1 created.
Nov 28 08:53:22.738 HYPERVISOR: exec_cmd: vm set_con_tcp_port ESW1 2004 
Nov 28 08:53:22.744 HYPERVISOR: exec_cmd: c3725 get_mac_addr ESW1 
Nov 28 08:53:22.745 HYPERVISOR: exec_cmd: vm set_disk0 ESW1 1 
Nov 28 08:53:22.746 HYPERVISOR: exec_cmd: vm get_status ESW1 
Nov 28 08:53:22.747 HYPERVISOR: exec_cmd: vm slot_add_binding ESW1 1 0 NM-16ESW 
Nov 28 08:53:22.747 HYPERVISOR: exec_cmd: vm set_ios ESW1 /media/actionmystique/SAMSUNG5-VMs/Images/GNS3/IOS/c3725-adventerprisek9-mz.124-15.T10.image 
Nov 28 08:53:22.748 HYPERVISOR: exec_cmd: c3725 set_mac_addr ESW1 c201.1b91.0000 
Nov 28 08:53:22.748 HYPERVISOR: exec_cmd: vm slot_add_binding ESW1 0 16 WIC-2T 
Nov 28 08:53:22.762 HYPERVISOR: exec_cmd: vm get_status ESW1 
Nov 28 08:53:22.763 HYPERVISOR: exec_cmd: vm set_idle_pc ESW1 0x6026b804 
Nov 28 08:53:22.764 HYPERVISOR: exec_cmd: vm set_nvram ESW1 256 
Nov 28 08:53:22.764 HYPERVISOR: exec_cmd: vm set_config ESW1 configs/ios_base_startup-config.txt 
Nov 28 08:53:22.764 HYPERVISOR: exec_cmd: vm set_config ESW1 configs/ios_base_startup-config.txt configs/ios_base_private-config.txt 
Nov 28 08:53:22.967 HYPERVISOR: exec_cmd: nio create_udp udp-d484b171-237a-4bd0-947b-5476583a6da4 15014 127.0.0.1 15015 
Nov 28 08:53:22.968 HYPERVISOR: exec_cmd: vm slot_add_nio_binding ESW1 1 0 udp-d484b171-237a-4bd0-947b-5476583a6da4 
Nov 28 08:53:22.968 HYPERVISOR: exec_cmd: vm get_status ESW1 
Nov 28 08:53:23.002 HYPERVISOR: exec_cmd: nio create_udp udp-2b230456-4311-4c78-8641-a27e54219a9c 15017 127.0.0.1 15016 
Nov 28 08:53:23.002 HYPERVISOR: exec_cmd: vm slot_add_nio_binding ESW1 1 1 udp-2b230456-4311-4c78-8641-a27e54219a9c 
Nov 28 08:53:23.002 HYPERVISOR: exec_cmd: vm get_status ESW1 
