Dec 04 11:12:01.462 HYPERVISOR: Release 0.2.17-amd64/Linux (tag 2017072410)
Dec 04 11:12:01.462 HYPERVISOR: Started on IP = 127.0.0.1, TCP port = 54673.
Dec 04 11:12:01.466 HYPERVISOR: exec_cmd: hypervisor version 
Dec 04 11:12:01.467 HYPERVISOR: exec_cmd: hypervisor working_dir /media/actionmystique/SAMSUNG5-VMs/Labs/GNS3/git-Public-Labs-Collection/CCNP/TBSHOOT/L3-Technologies/IPv6/Routing-Protocols/RIPng/Jean-Christophe_Manciot/1+/TT 3-linux/project-files/dynamips 
Dec 04 11:12:01.467 GENERAL: working_dir=/media/actionmystique/SAMSUNG5-VMs/Labs/GNS3/git-Public-Labs-Collection/CCNP/TBSHOOT/L3-Technologies/IPv6/Routing-Protocols/RIPng/Jean-Christophe_Manciot/1+/TT 3-linux/project-files/dynamips
Dec 04 11:12:01.467 HYPERVISOR: exec_cmd: vm create ESW1 1 c3725 
Dec 04 11:12:01.467 VM: VM ESW1 created.
Dec 04 11:12:01.468 HYPERVISOR: exec_cmd: vm set_con_tcp_port ESW1 2004 
Dec 04 11:12:01.469 HYPERVISOR: exec_cmd: c3725 get_mac_addr ESW1 
Dec 04 11:12:01.469 HYPERVISOR: exec_cmd: vm set_nvram ESW1 256 
Dec 04 11:12:01.470 HYPERVISOR: exec_cmd: vm get_status ESW1 
Dec 04 11:12:01.471 HYPERVISOR: exec_cmd: vm slot_add_binding ESW1 1 0 NM-16ESW 
Dec 04 11:12:01.471 HYPERVISOR: exec_cmd: vm set_ios ESW1 /media/actionmystique/SAMSUNG5-VMs/Images/GNS3/IOS/c3725-adventerprisek9-mz.124-15.T10.image 
Dec 04 11:12:01.472 HYPERVISOR: exec_cmd: vm set_disk0 ESW1 1 
Dec 04 11:12:01.473 HYPERVISOR: exec_cmd: c3725 set_mac_addr ESW1 c201.1b91.0000 
Dec 04 11:12:01.474 HYPERVISOR: exec_cmd: vm slot_add_binding ESW1 0 16 WIC-2T 
Dec 04 11:12:01.474 HYPERVISOR: exec_cmd: vm get_status ESW1 
Dec 04 11:12:01.475 HYPERVISOR: exec_cmd: vm set_idle_pc ESW1 0x614ac27c 
Dec 04 11:12:01.476 HYPERVISOR: exec_cmd: vm set_config ESW1 configs/ios_base_startup-config.txt 
Dec 04 11:12:01.477 HYPERVISOR: exec_cmd: vm set_config ESW1 configs/ios_base_startup-config.txt configs/ios_base_private-config.txt 
Dec 04 11:12:01.609 HYPERVISOR: exec_cmd: nio create_udp udp-d251bf50-7688-4142-a1d8-cf346492eaa4 15004 127.0.0.1 15005 
Dec 04 11:12:01.610 HYPERVISOR: exec_cmd: vm slot_add_nio_binding ESW1 1 0 udp-d251bf50-7688-4142-a1d8-cf346492eaa4 
Dec 04 11:12:01.610 HYPERVISOR: exec_cmd: vm get_status ESW1 
Dec 04 11:12:01.619 HYPERVISOR: exec_cmd: nio create_udp udp-8fda370d-e019-434d-8c3b-d57e68bb594e 15007 127.0.0.1 15008 
Dec 04 11:12:01.627 HYPERVISOR: exec_cmd: vm slot_add_nio_binding ESW1 1 1 udp-8fda370d-e019-434d-8c3b-d57e68bb594e 
Dec 04 11:12:01.635 HYPERVISOR: exec_cmd: vm get_status ESW1 
