Nov 27 16:22:27.465 HYPERVISOR: Release 0.2.17-amd64/Linux (tag 2017072410)
Nov 27 16:22:27.465 HYPERVISOR: Started on IP = 127.0.0.1, TCP port = 36241.
Nov 27 16:22:27.472 HYPERVISOR: exec_cmd: hypervisor version 
Nov 27 16:22:27.473 HYPERVISOR: exec_cmd: hypervisor working_dir /media/actionmystique/SAMSUNG5-VMs/Labs/GNS3/git-Public-Labs-Collection/CCNP/TBSHOOT/L3-Technologies/IPv4/High-Availability/HSRP/Jean-Christophe_Manciot/1+/TT 3-solutions-linux/project-files/dynamips 
Nov 27 16:22:27.473 GENERAL: working_dir=/media/actionmystique/SAMSUNG5-VMs/Labs/GNS3/git-Public-Labs-Collection/CCNP/TBSHOOT/L3-Technologies/IPv4/High-Availability/HSRP/Jean-Christophe_Manciot/1+/TT 3-solutions-linux/project-files/dynamips
Nov 27 16:22:27.474 HYPERVISOR: exec_cmd: vm create SW2 2 c3725 
Nov 27 16:22:27.474 VM: VM SW2 created.
Nov 27 16:22:27.475 HYPERVISOR: exec_cmd: vm set_con_tcp_port SW2 2002 
Nov 27 16:22:27.476 HYPERVISOR: exec_cmd: c3725 get_mac_addr SW2 
Nov 27 16:22:27.476 HYPERVISOR: exec_cmd: vm set_nvram SW2 256 
Nov 27 16:22:27.477 HYPERVISOR: exec_cmd: vm get_status SW2 
Nov 27 16:22:27.478 HYPERVISOR: exec_cmd: vm set_idle_pc SW2 0x622a6154 
Nov 27 16:22:27.479 HYPERVISOR: exec_cmd: c3725 set_mac_addr SW2 eeee.eeee.eeee 
Nov 27 16:22:27.480 HYPERVISOR: exec_cmd: vm set_exec_area SW2 16 
Nov 27 16:22:27.481 HYPERVISOR: exec_cmd: vm get_status SW2 
Nov 27 16:22:27.482 HYPERVISOR: exec_cmd: vm slot_add_binding SW2 1 0 NM-16ESW 
Nov 27 16:22:27.484 HYPERVISOR: exec_cmd: vm set_ios SW2 /media/actionmystique/SAMSUNG5-VMs/Images/GNS3/IOS/c3725-adventerprisek9-mz.124-15.T10.image 
Nov 27 16:22:27.486 HYPERVISOR: exec_cmd: vm slot_add_binding SW2 0 16 WIC-2T 
Nov 27 16:22:27.487 HYPERVISOR: exec_cmd: vm set_disk0 SW2 1 
Nov 27 16:22:27.489 HYPERVISOR: exec_cmd: vm set_config SW2 configs/i2_startup-config.cfg 
Nov 27 16:22:27.490 HYPERVISOR: exec_cmd: vm set_config SW2 configs/i2_startup-config.cfg configs/i2_private-config.cfg 
Nov 27 16:22:27.714 HYPERVISOR: exec_cmd: nio create_udp udp-e35fbd56-5bd5-494f-b94d-8158714c9311 15002 127.0.0.1 15001 
Nov 27 16:22:27.719 HYPERVISOR: exec_cmd: vm slot_add_nio_binding SW2 1 2 udp-e35fbd56-5bd5-494f-b94d-8158714c9311 
Nov 27 16:22:27.720 HYPERVISOR: exec_cmd: vm get_status SW2 
Nov 27 16:22:27.726 HYPERVISOR: exec_cmd: nio create_udp udp-15650493-3913-465d-ba82-87f7dc6750f7 15004 127.0.0.1 15000 
Nov 27 16:22:27.731 HYPERVISOR: exec_cmd: vm slot_add_nio_binding SW2 1 0 udp-15650493-3913-465d-ba82-87f7dc6750f7 
Nov 27 16:22:27.732 HYPERVISOR: exec_cmd: vm get_status SW2 
Nov 27 16:22:27.740 HYPERVISOR: exec_cmd: nio create_udp udp-dd60b5c5-2034-43e4-a22e-c657d1f2c3a6 15005 127.0.0.1 15006 
Nov 27 16:22:27.741 HYPERVISOR: exec_cmd: vm slot_add_nio_binding SW2 1 1 udp-dd60b5c5-2034-43e4-a22e-c657d1f2c3a6 
Nov 27 16:22:27.742 HYPERVISOR: exec_cmd: vm get_status SW2 
