Nov 26 20:54:31.009 HYPERVISOR: Release 0.2.17-amd64/Linux (tag 2017072410)
Nov 26 20:54:31.009 HYPERVISOR: Started on IP = 127.0.0.1, TCP port = 38335.
Nov 26 20:54:31.023 HYPERVISOR: exec_cmd: hypervisor version 
Nov 26 20:54:31.023 HYPERVISOR: exec_cmd: hypervisor working_dir /media/actionmystique/SAMSUNG5-VMs/Labs/GNS3/git-Public-Labs-Collection/CCNP/ROUTE/Trunks/project-files/dynamips 
Nov 26 20:54:31.023 GENERAL: working_dir=/media/actionmystique/SAMSUNG5-VMs/Labs/GNS3/git-Public-Labs-Collection/CCNP/ROUTE/Trunks/project-files/dynamips
Nov 26 20:54:31.024 HYPERVISOR: exec_cmd: vm create ESW1 3 c3725 
Nov 26 20:54:31.024 VM: VM ESW1 created.
Nov 26 20:54:31.025 HYPERVISOR: exec_cmd: vm set_con_tcp_port ESW1 2010 
Nov 26 20:54:31.026 HYPERVISOR: exec_cmd: c3725 get_mac_addr ESW1 
Nov 26 20:54:31.026 HYPERVISOR: exec_cmd: vm slot_add_binding ESW1 0 16 WIC-2T 
Nov 26 20:54:31.027 HYPERVISOR: exec_cmd: vm get_status ESW1 
Nov 26 20:54:31.028 HYPERVISOR: exec_cmd: vm set_idle_pc ESW1 0x6026b804 
Nov 26 20:54:31.028 HYPERVISOR: exec_cmd: vm set_nvram ESW1 256 
Nov 26 20:54:31.029 HYPERVISOR: exec_cmd: vm get_status ESW1 
Nov 26 20:54:31.030 HYPERVISOR: exec_cmd: vm slot_add_binding ESW1 1 0 NM-16ESW 
Nov 26 20:54:31.030 HYPERVISOR: exec_cmd: vm set_ios ESW1 /media/actionmystique/SAMSUNG5-VMs/Images/GNS3/IOS/c3725-adventerprisek9-mz.124-15.T10.image 
Nov 26 20:54:31.031 HYPERVISOR: exec_cmd: vm set_disk0 ESW1 1 
Nov 26 20:54:31.032 HYPERVISOR: exec_cmd: c3725 set_mac_addr ESW1 c203.66c2.0000 
Nov 26 20:54:31.033 HYPERVISOR: exec_cmd: vm set_config ESW1 configs/i3_startup-config.cfg 
Nov 26 20:54:31.208 HYPERVISOR: exec_cmd: nio create_udp udp-c9d98abc-ddb5-44bf-91cb-267609c3c141 15012 127.0.0.1 15013 
Nov 26 20:54:31.209 HYPERVISOR: exec_cmd: vm slot_add_nio_binding ESW1 1 1 udp-c9d98abc-ddb5-44bf-91cb-267609c3c141 
Nov 26 20:54:31.209 HYPERVISOR: exec_cmd: vm get_status ESW1 
Nov 26 20:54:31.237 HYPERVISOR: exec_cmd: nio create_udp udp-e6d15425-398a-4c42-a1dc-bb89702fec04 15014 127.0.0.1 15015 
Nov 26 20:54:31.237 HYPERVISOR: exec_cmd: vm slot_add_nio_binding ESW1 1 2 udp-e6d15425-398a-4c42-a1dc-bb89702fec04 
Nov 26 20:54:31.237 HYPERVISOR: exec_cmd: vm get_status ESW1 
Nov 26 20:57:32.418 HYPERVISOR: exec_cmd: nio create_tap tap-74a1194d-6117-4d19-a223-7b365a45a64e tap1 
Nov 26 20:57:32.421 HYPERVISOR: exec_cmd: vm slot_add_nio_binding ESW1 1 0 tap-74a1194d-6117-4d19-a223-7b365a45a64e 
Nov 26 20:57:32.421 HYPERVISOR: exec_cmd: vm get_status ESW1 
Nov 26 20:59:43.710 HYPERVISOR: exec_cmd: vm extract_config ESW1 
Nov 26 21:01:55.597 HYPERVISOR: exec_cmd: vm get_status ESW1 
Nov 26 21:01:55.598 HYPERVISOR: exec_cmd: vm extract_config ESW1 
Nov 26 21:01:55.642 HYPERVISOR: exec_cmd: vm delete ESW1 
Nov 26 21:01:55.642 VM: VM ESW1 destroyed.
Nov 26 21:01:55.643 HYPERVISOR: exec_cmd: hypervisor stop 
Nov 26 21:01:56.012 HYPERVISOR: Stopped.
Nov 26 21:01:56.013 GENERAL: reset done.
