Nov 29 15:24:13.100 HYPERVISOR: Release 0.2.17-amd64/Linux (tag 2017072410)
Nov 29 15:24:13.100 HYPERVISOR: Started on IP = 127.0.0.1, TCP port = 52843.
Nov 29 15:24:13.122 HYPERVISOR: exec_cmd: hypervisor version 
Nov 29 15:24:13.123 HYPERVISOR: exec_cmd: hypervisor working_dir /media/actionmystique/SAMSUNG5-VMs/Labs/GNS3/TT 1-linux-/project-files/dynamips 
Nov 29 15:24:13.123 GENERAL: working_dir=/media/actionmystique/SAMSUNG5-VMs/Labs/GNS3/TT 1-linux-/project-files/dynamips
Nov 29 15:24:13.124 HYPERVISOR: exec_cmd: vm create ESW5 5 c3725 
Nov 29 15:24:13.124 VM: VM ESW5 created.
Nov 29 15:24:13.124 HYPERVISOR: exec_cmd: vm set_con_tcp_port ESW5 2010 
Nov 29 15:24:13.125 HYPERVISOR: exec_cmd: c3725 get_mac_addr ESW5 
Nov 29 15:24:13.126 HYPERVISOR: exec_cmd: vm get_status ESW5 
Nov 29 15:24:13.126 HYPERVISOR: exec_cmd: vm slot_add_binding ESW5 1 0 NM-16ESW 
Nov 29 15:24:13.127 HYPERVISOR: exec_cmd: c3725 set_mac_addr ESW5 c205.6a03.0000 
Nov 29 15:24:13.128 HYPERVISOR: exec_cmd: vm set_disk0 ESW5 1 
Nov 29 15:24:13.130 HYPERVISOR: exec_cmd: vm set_nvram ESW5 256 
Nov 29 15:24:13.136 HYPERVISOR: exec_cmd: vm set_ios ESW5 /media/actionmystique/SAMSUNG5-VMs/Images/GNS3/IOS/c3725-adventerprisek9-mz.124-15.T10.image 
Nov 29 15:24:13.138 HYPERVISOR: exec_cmd: vm get_status ESW5 
Nov 29 15:24:13.143 HYPERVISOR: exec_cmd: vm set_idle_pc ESW5 0x614ac27c 
Nov 29 15:24:13.144 HYPERVISOR: exec_cmd: vm slot_add_binding ESW5 0 16 WIC-2T 
Nov 29 15:24:13.144 HYPERVISOR: exec_cmd: vm set_config ESW5 configs/ios_base_startup-config.txt 
Nov 29 15:24:13.145 HYPERVISOR: exec_cmd: vm set_config ESW5 configs/ios_base_startup-config.txt configs/ios_base_private-config.txt 
Nov 29 15:24:13.469 HYPERVISOR: exec_cmd: nio create_udp udp-416422b8-12ee-43d6-b3ac-005923bd8683 15013 127.0.0.1 15012 
Nov 29 15:24:13.469 HYPERVISOR: exec_cmd: vm slot_add_nio_binding ESW5 1 0 udp-416422b8-12ee-43d6-b3ac-005923bd8683 
Nov 29 15:24:13.469 HYPERVISOR: exec_cmd: vm get_status ESW5 
Nov 29 15:24:13.481 HYPERVISOR: exec_cmd: nio create_udp udp-6e02e439-70db-4a7e-b990-fb5d7e57c739 15014 127.0.0.1 15015 
Nov 29 15:24:13.481 HYPERVISOR: exec_cmd: vm slot_add_nio_binding ESW5 1 1 udp-6e02e439-70db-4a7e-b990-fb5d7e57c739 
Nov 29 15:24:13.481 HYPERVISOR: exec_cmd: vm get_status ESW5 
Nov 29 15:24:28.938 HYPERVISOR: exec_cmd: vm get_status ESW5 
Nov 29 15:24:28.940 HYPERVISOR: exec_cmd: vm extract_config ESW5 
Nov 29 15:24:28.942 HYPERVISOR: exec_cmd: vm delete ESW5 
Nov 29 15:24:28.942 VM: VM ESW5 destroyed.
Nov 29 15:24:28.944 HYPERVISOR: exec_cmd: hypervisor stop 
Nov 29 15:24:29.138 HYPERVISOR: Stopped.
Nov 29 15:24:29.138 GENERAL: reset done.
