Dec 04 11:09:26.988 HYPERVISOR: Release 0.2.17-amd64/Linux (tag 2017072410)
Dec 04 11:09:26.988 HYPERVISOR: Started on IP = 127.0.0.1, TCP port = 44761.
Dec 04 11:09:27.027 HYPERVISOR: exec_cmd: hypervisor version 
Dec 04 11:09:27.028 HYPERVISOR: exec_cmd: hypervisor working_dir /media/actionmystique/SAMSUNG5-VMs/Labs/GNS3/TT 1-linux-/project-files/dynamips 
Dec 04 11:09:27.028 GENERAL: working_dir=/media/actionmystique/SAMSUNG5-VMs/Labs/GNS3/TT 1-linux-/project-files/dynamips
Dec 04 11:09:27.028 HYPERVISOR: exec_cmd: vm create ESW4 4 c3725 
Dec 04 11:09:27.028 VM: VM ESW4 created.
Dec 04 11:09:27.028 HYPERVISOR: exec_cmd: vm set_con_tcp_port ESW4 2009 
Dec 04 11:09:27.029 HYPERVISOR: exec_cmd: c3725 get_mac_addr ESW4 
Dec 04 11:09:27.029 HYPERVISOR: exec_cmd: vm set_nvram ESW4 256 
Dec 04 11:09:27.030 HYPERVISOR: exec_cmd: vm set_ios ESW4 /media/actionmystique/SAMSUNG5-VMs/Images/GNS3/IOS/c3725-adventerprisek9-mz.124-15.T10.image 
Dec 04 11:09:27.030 HYPERVISOR: exec_cmd: c3725 set_mac_addr ESW4 c204.68ae.0000 
Dec 04 11:09:27.031 HYPERVISOR: exec_cmd: vm get_status ESW4 
Dec 04 11:09:27.032 HYPERVISOR: exec_cmd: vm slot_add_binding ESW4 1 0 NM-16ESW 
Dec 04 11:09:27.033 HYPERVISOR: exec_cmd: vm get_status ESW4 
Dec 04 11:09:27.034 HYPERVISOR: exec_cmd: vm set_idle_pc ESW4 0x6026b804 
Dec 04 11:09:27.034 HYPERVISOR: exec_cmd: vm set_disk0 ESW4 1 
Dec 04 11:09:27.035 HYPERVISOR: exec_cmd: vm slot_add_binding ESW4 0 16 WIC-2T 
Dec 04 11:09:27.036 HYPERVISOR: exec_cmd: vm set_config ESW4 configs/ios_base_startup-config.txt 
Dec 04 11:09:27.037 HYPERVISOR: exec_cmd: vm set_config ESW4 configs/ios_base_startup-config.txt configs/ios_base_private-config.txt 
Dec 04 11:09:27.355 HYPERVISOR: exec_cmd: nio create_udp udp-f1ab3040-6032-4b76-b754-bc1ec87bf2a0 15012 127.0.0.1 15013 
Dec 04 11:09:27.356 HYPERVISOR: exec_cmd: vm slot_add_nio_binding ESW4 1 0 udp-f1ab3040-6032-4b76-b754-bc1ec87bf2a0 
Dec 04 11:09:27.356 HYPERVISOR: exec_cmd: vm get_status ESW4 
Dec 04 11:09:27.367 HYPERVISOR: exec_cmd: nio create_udp udp-f6e34301-60cc-4b7e-aa0c-57aa7997c475 15014 127.0.0.1 15015 
Dec 04 11:09:27.367 HYPERVISOR: exec_cmd: vm slot_add_nio_binding ESW4 1 1 udp-f6e34301-60cc-4b7e-aa0c-57aa7997c475 
Dec 04 11:09:27.368 HYPERVISOR: exec_cmd: vm get_status ESW4 
Dec 04 11:09:38.532 HYPERVISOR: exec_cmd: vm get_status ESW4 
Dec 04 11:09:38.536 HYPERVISOR: exec_cmd: vm extract_config ESW4 
Dec 04 11:09:38.541 HYPERVISOR: exec_cmd: vm delete ESW4 
Dec 04 11:09:38.541 VM: VM ESW4 destroyed.
Dec 04 11:09:38.544 HYPERVISOR: exec_cmd: hypervisor stop 
Dec 04 11:09:39.024 HYPERVISOR: Stopped.
Dec 04 11:09:39.024 GENERAL: reset done.
