Nov 27 16:26:10.232 HYPERVISOR: Release 0.2.17-amd64/Linux (tag 2017072410)
Nov 27 16:26:10.232 HYPERVISOR: Started on IP = 127.0.0.1, TCP port = 42207.
Nov 27 16:26:10.244 HYPERVISOR: exec_cmd: hypervisor version 
Nov 27 16:26:10.247 HYPERVISOR: exec_cmd: hypervisor working_dir /media/actionmystique/SAMSUNG5-VMs/Labs/GNS3/git-Public-Labs-Collection/CCNP/TBSHOOT/L3-Technologies/IPv4/IOS-Filtering-Tools/Prefix-List/Jean-Christophe_Manciot/1+/TT 1-linux/project-files/dynamips 
Nov 27 16:26:10.247 GENERAL: working_dir=/media/actionmystique/SAMSUNG5-VMs/Labs/GNS3/git-Public-Labs-Collection/CCNP/TBSHOOT/L3-Technologies/IPv4/IOS-Filtering-Tools/Prefix-List/Jean-Christophe_Manciot/1+/TT 1-linux/project-files/dynamips
Nov 27 16:26:10.248 HYPERVISOR: exec_cmd: vm create ESW1 1 c3725 
Nov 27 16:26:10.248 VM: VM ESW1 created.
Nov 27 16:26:10.249 HYPERVISOR: exec_cmd: vm set_con_tcp_port ESW1 2003 
Nov 27 16:26:10.249 HYPERVISOR: exec_cmd: c3725 get_mac_addr ESW1 
Nov 27 16:26:10.250 HYPERVISOR: exec_cmd: vm set_nvram ESW1 256 
Nov 27 16:26:10.251 HYPERVISOR: exec_cmd: vm get_status ESW1 
Nov 27 16:26:10.251 HYPERVISOR: exec_cmd: vm set_idle_pc ESW1 0x614ac27c 
Nov 27 16:26:10.252 HYPERVISOR: exec_cmd: c3725 set_mac_addr ESW1 c201.4468.0000 
Nov 27 16:26:10.253 HYPERVISOR: exec_cmd: vm get_status ESW1 
Nov 27 16:26:10.253 HYPERVISOR: exec_cmd: vm slot_add_binding ESW1 1 0 NM-16ESW 
Nov 27 16:26:10.256 HYPERVISOR: exec_cmd: vm set_ios ESW1 /media/actionmystique/SAMSUNG5-VMs/Images/GNS3/IOS/c3725-adventerprisek9-mz.124-15.T10.image 
Nov 27 16:26:10.259 HYPERVISOR: exec_cmd: vm slot_add_binding ESW1 0 16 WIC-2T 
Nov 27 16:26:10.264 HYPERVISOR: exec_cmd: vm set_disk0 ESW1 1 
Nov 27 16:26:10.266 HYPERVISOR: exec_cmd: vm set_config ESW1 configs/ios_base_startup-config.txt 
Nov 27 16:26:10.268 HYPERVISOR: exec_cmd: vm set_config ESW1 configs/ios_base_startup-config.txt configs/ios_base_private-config.txt 
Nov 27 16:26:10.465 HYPERVISOR: exec_cmd: nio create_udp udp-bc1f96ce-1ccf-474a-be76-2577a3f1120d 15004 127.0.0.1 15007 
Nov 27 16:26:10.478 HYPERVISOR: exec_cmd: vm slot_add_nio_binding ESW1 1 0 udp-bc1f96ce-1ccf-474a-be76-2577a3f1120d 
Nov 27 16:26:10.479 HYPERVISOR: exec_cmd: vm get_status ESW1 
Nov 27 16:27:36.320 HYPERVISOR: exec_cmd: vm get_status ESW1 
Nov 27 16:27:36.322 HYPERVISOR: exec_cmd: vm extract_config ESW1 
Nov 27 16:27:36.325 HYPERVISOR: exec_cmd: vm delete ESW1 
Nov 27 16:27:36.325 VM: VM ESW1 destroyed.
Nov 27 16:27:36.325 HYPERVISOR: exec_cmd: hypervisor stop 
Nov 27 16:27:36.328 HYPERVISOR: Stopped.
Nov 27 16:27:36.328 GENERAL: reset done.
