Nov 28 08:08:10.380 HYPERVISOR: Release 0.2.17-amd64/Linux (tag 2017072410)
Nov 28 08:08:10.380 HYPERVISOR: Started on IP = 127.0.0.1, TCP port = 52553.
Nov 28 08:08:10.409 HYPERVISOR: exec_cmd: hypervisor version 
Nov 28 08:08:10.410 HYPERVISOR: exec_cmd: hypervisor working_dir /media/actionmystique/SAMSUNG5-VMs/Labs/GNS3/TT 1-linux-/project-files/dynamips 
Nov 28 08:08:10.410 GENERAL: working_dir=/media/actionmystique/SAMSUNG5-VMs/Labs/GNS3/TT 1-linux-/project-files/dynamips
Nov 28 08:08:10.411 HYPERVISOR: exec_cmd: vm create ESW1 1 c3725 
Nov 28 08:08:10.411 VM: VM ESW1 created.
Nov 28 08:08:10.412 HYPERVISOR: exec_cmd: vm set_con_tcp_port ESW1 2003 
Nov 28 08:08:10.412 HYPERVISOR: exec_cmd: c3725 get_mac_addr ESW1 
Nov 28 08:08:10.414 HYPERVISOR: exec_cmd: vm get_status ESW1 
Nov 28 08:08:10.415 HYPERVISOR: exec_cmd: vm slot_add_binding ESW1 1 0 NM-16ESW 
Nov 28 08:08:10.416 HYPERVISOR: exec_cmd: vm set_disk0 ESW1 1 
Nov 28 08:08:10.417 HYPERVISOR: exec_cmd: vm slot_add_binding ESW1 0 16 WIC-2T 
Nov 28 08:08:10.418 HYPERVISOR: exec_cmd: vm get_status ESW1 
Nov 28 08:08:10.419 HYPERVISOR: exec_cmd: vm set_idle_pc ESW1 0x614ac27c 
Nov 28 08:08:10.421 HYPERVISOR: exec_cmd: c3725 set_mac_addr ESW1 c201.4468.0000 
Nov 28 08:08:10.422 HYPERVISOR: exec_cmd: vm set_nvram ESW1 256 
Nov 28 08:08:10.423 HYPERVISOR: exec_cmd: vm set_ios ESW1 /media/actionmystique/SAMSUNG5-VMs/Images/GNS3/IOS/c3725-adventerprisek9-mz.124-15.T10.image 
Nov 28 08:08:10.425 HYPERVISOR: exec_cmd: vm set_config ESW1 configs/ios_base_startup-config.txt 
Nov 28 08:08:10.426 HYPERVISOR: exec_cmd: vm set_config ESW1 configs/ios_base_startup-config.txt configs/ios_base_private-config.txt 
Nov 28 08:08:10.659 HYPERVISOR: exec_cmd: nio create_udp udp-ef00f4c2-a64c-44f7-b38c-fe35b5ba711b 15009 127.0.0.1 15008 
Nov 28 08:08:10.660 HYPERVISOR: exec_cmd: vm slot_add_nio_binding ESW1 1 0 udp-ef00f4c2-a64c-44f7-b38c-fe35b5ba711b 
Nov 28 08:08:10.660 HYPERVISOR: exec_cmd: vm get_status ESW1 
Nov 28 08:08:35.044 HYPERVISOR: exec_cmd: vm get_status ESW1 
Nov 28 08:08:35.046 HYPERVISOR: exec_cmd: vm extract_config ESW1 
Nov 28 08:08:35.048 HYPERVISOR: exec_cmd: vm delete ESW1 
Nov 28 08:08:35.048 VM: VM ESW1 destroyed.
Nov 28 08:08:35.057 HYPERVISOR: exec_cmd: hypervisor stop 
Nov 28 08:08:35.435 HYPERVISOR: Stopped.
Nov 28 08:08:35.435 GENERAL: reset done.
