Nov 29 19:01:07.683 HYPERVISOR: Release 0.2.17-amd64/Linux (tag 2017072410)
Nov 29 19:01:07.683 HYPERVISOR: Started on IP = 127.0.0.1, TCP port = 57491.
Nov 29 19:01:07.685 HYPERVISOR: exec_cmd: hypervisor version 
Nov 29 19:01:07.685 HYPERVISOR: exec_cmd: hypervisor working_dir /media/actionmystique/SAMSUNG5-VMs/Labs/GNS3/git-Public-Labs-Collection/CCNP/TBSHOOT/L3-Technologies/IPv6/IOS-Filtering-Tools/ACL/Jean-Christophe_Manciot/1+/TT 2-linux/project-files/dynamips 
Nov 29 19:01:07.685 GENERAL: working_dir=/media/actionmystique/SAMSUNG5-VMs/Labs/GNS3/git-Public-Labs-Collection/CCNP/TBSHOOT/L3-Technologies/IPv6/IOS-Filtering-Tools/ACL/Jean-Christophe_Manciot/1+/TT 2-linux/project-files/dynamips
Nov 29 19:01:07.686 HYPERVISOR: exec_cmd: vm create ESW1 1 c3725 
Nov 29 19:01:07.686 VM: VM ESW1 created.
Nov 29 19:01:07.686 HYPERVISOR: exec_cmd: vm set_con_tcp_port ESW1 2001 
Nov 29 19:01:07.686 HYPERVISOR: exec_cmd: vm set_aux_tcp_port ESW1 2501 
Nov 29 19:01:07.687 HYPERVISOR: exec_cmd: c3725 get_mac_addr ESW1 
Nov 29 19:01:07.687 HYPERVISOR: exec_cmd: vm slot_add_binding ESW1 0 16 WIC-2T 
Nov 29 19:01:07.687 HYPERVISOR: exec_cmd: vm set_ios ESW1 /media/actionmystique/SAMSUNG5-VMs/Images/GNS3/IOS/c3725-adventerprisek9-mz.124-15.T10.image 
Nov 29 19:01:07.688 HYPERVISOR: exec_cmd: vm get_status ESW1 
Nov 29 19:01:07.688 HYPERVISOR: exec_cmd: vm set_idle_pc ESW1 0x60c06d20 
Nov 29 19:01:07.688 HYPERVISOR: exec_cmd: vm get_status ESW1 
Nov 29 19:01:07.689 HYPERVISOR: exec_cmd: vm slot_add_binding ESW1 1 0 NM-16ESW 
Nov 29 19:01:07.689 HYPERVISOR: exec_cmd: c3725 set_mac_addr ESW1 c201.281a.0000 
Nov 29 19:01:07.689 HYPERVISOR: exec_cmd: vm set_disk0 ESW1 1 
Nov 29 19:01:07.690 HYPERVISOR: exec_cmd: vm set_nvram ESW1 256 
Nov 29 19:01:07.690 HYPERVISOR: exec_cmd: vm set_config ESW1 configs/i1_startup-config.cfg 
Nov 29 19:01:07.691 HYPERVISOR: exec_cmd: vm set_config ESW1 configs/i1_startup-config.cfg configs/i1_private-config.cfg 
Nov 29 19:01:07.848 HYPERVISOR: exec_cmd: nio create_udp udp-5ab98643-9b1d-46e1-a9d6-e78ae64853af 15005 127.0.0.1 15006 
Nov 29 19:01:07.855 HYPERVISOR: exec_cmd: vm slot_add_nio_binding ESW1 1 1 udp-5ab98643-9b1d-46e1-a9d6-e78ae64853af 
Nov 29 19:01:07.861 HYPERVISOR: exec_cmd: vm get_status ESW1 
Nov 29 19:01:07.867 HYPERVISOR: exec_cmd: nio create_udp udp-2c3a8924-047b-40b1-bd8e-99bf4ea026d9 15004 127.0.0.1 15007 
Nov 29 19:01:07.868 HYPERVISOR: exec_cmd: vm slot_add_nio_binding ESW1 1 2 udp-2c3a8924-047b-40b1-bd8e-99bf4ea026d9 
Nov 29 19:01:07.868 HYPERVISOR: exec_cmd: vm get_status ESW1 
Nov 29 19:01:07.884 HYPERVISOR: exec_cmd: nio create_udp udp-d9a254d8-768b-459c-9b03-5dd7ca40005f 15010 127.0.0.1 15009 
Nov 29 19:01:07.885 HYPERVISOR: exec_cmd: vm slot_add_nio_binding ESW1 1 3 udp-d9a254d8-768b-459c-9b03-5dd7ca40005f 
Nov 29 19:01:07.885 HYPERVISOR: exec_cmd: vm get_status ESW1 
Nov 29 19:01:07.910 HYPERVISOR: exec_cmd: nio create_udp udp-803488da-207a-4393-80ea-1370c9fbb760 15008 127.0.0.1 15011 
Nov 29 19:01:07.916 HYPERVISOR: exec_cmd: vm slot_add_nio_binding ESW1 1 0 udp-803488da-207a-4393-80ea-1370c9fbb760 
Nov 29 19:01:07.917 HYPERVISOR: exec_cmd: vm get_status ESW1 
