autostart = False
version = 0.8.3
[127.0.0.1:7200]
    workingdir = C:\Users\ActionMystique\Documents\Missions\GNS3\Temp
    udp = 10200
    [[3640]]
        image = C:\Users\ActionMystique\Documents\Missions\IOS\Binaries\c3640-jk9o3s-mz.124-16a.bin
        idlepc = 0x603e2770
        sparsemem = True
        ghostios = True
        chassis = 3640
    [[ROUTER Bakers]]
        model = 3640
        console = 2005
        aux = 2100
        cnfg = configs\Bakers.cfg
        slot0 = NM-1FE-TX
        f0/0 = Coarse f1/0
        slot1 = NM-1FE-TX
        f1/0 = Castor f1/0
        x = -46.2705986422
        y = -79.8284271247
        z = 1.0
        hx = 19.0208152802
        hy = 40.7609306505
    [[ROUTER Castor]]
        model = 3640
        console = 2003
        aux = 2101
        cnfg = configs\Castor.cfg
        slot0 = NM-1FE-TX
        f0/0 = Barbados f0/0
        slot1 = NM-1FE-TX
        f1/0 = Bakers f1/0
        x = -134.234018716
        y = -241.949747468
        z = 1.0
    [[ROUTER Coarse]]
        model = 3640
        console = 2004
        aux = 2103
        cnfg = configs\Coarse.cfg
        slot0 = NM-1FE-TX
        f0/0 = Barbados f1/0
        slot1 = NM-1FE-TX
        f1/0 = Bakers f0/0
        x = -138.234018716
        y = 74.4142135624
        z = 1.0
        hx = 5.79289321881
        hy = 38.6396103069
    [[ROUTER Barbados]]
        model = 3640
        console = 2002
        aux = 2102
        cnfg = configs\Barbados.cfg
        slot0 = NM-1FE-TX
        f0/0 = Castor f0/0
        slot1 = NM-1FE-TX
        f1/0 = Coarse f0/0
        x = -229.088311755
        y = -75.7573593129
        z = 1.0
        hx = -17.0563491861
        hy = 39.3467170881
[GNS3-DATA]
    configs = configs
    m11 = 1.41421356237
    m22 = 1.41421356237
    [[NOTE 1]]
        text = "192.168.23.0 /24"
        x = -90.5096679919
        y = -152.409162928
        color = "#0000ff"
    [[NOTE 2]]
        text = ".1"
        x = -172.53405461
        y = -42.1005050634
        color = "#0000ff"
    [[NOTE 3]]
        text = "192.168.12.0 /24"
        x = -247.487373415
        y = -152.714249456
        color = "#0000ff"
    [[NOTE 4]]
        text = "192.168.14.0 /24"
        x = -251.730014102
        y = 10.4264068712
        color = "#0000ff"
    [[NOTE 5]]
        text = "192.168.34.0 /24"
        x = -97.5807358037
        y = 10.0243866176
        color = "#0000ff"
    [[NOTE 6]]
        text = ".4"
        x = -86.2670273044
        y = 54.3711037056
        color = "#0000ff"
    [[NOTE 7]]
        text = ".4"
        x = -152.027957955
        y = 58.1076477384
        color = "#0000ff"
    [[NOTE 8]]
        text = ".3"
        x = -52.3259018078
        y = -43.0086219714
        color = "#0000ff"
    [[NOTE 9]]
        text = ".3"
        x = -56.5685424949
        y = -97.9619407771
        color = "#0000ff"
    [[NOTE 10]]
        text = ".1"
        x = -176.776695297
        y = -92.811183182
        color = "#0000ff"
    [[NOTE 11]]
        text = ".2"
        x = -106.066017178
        y = -203.521861301
        color = "#0000ff"
    [[NOTE 12]]
        text = ".2"
        x = -120.915259583
        y = -203.320851174
        color = "#0000ff"
    [[SHAPE 1]]
        type = ellipse
        x = -260.818325857
        y = -120.104076401
        width = 147.785317268
        height = 129.289321881
        fill_color = "#ffaa7f"
        border_style = 2
        z = -2.0
    [[SHAPE 2]]
        type = ellipse
        x = -91.6187950266
        y = -117.781745931
        width = 147.785317268
        height = 130.509667992
        fill_color = "#aaffff"
        border_style = 2
        z = -2.0
    [[SHAPE 3]]
        type = ellipse
        x = -178.391918986
        y = 27.3761543395
        width = 147.785317268
        height = 128.187337522
        fill_color = "#aaff7f"
        border_style = 2
        z = -2.0
    [[SHAPE 4]]
        type = ellipse
        x = -173.948268172
        y = -288.499566724
        width = 147.785317268
        height = 129.289321881
        fill_color = "#ffff7f"
        border_style = 2
        z = -2.0
