Nov 26 22:29:46.649 HYPERVISOR: Release 0.2.17-amd64/Linux (tag 2017072410)
Nov 26 22:29:46.649 HYPERVISOR: Started on IP = 127.0.0.1, TCP port = 58267.
Nov 26 22:29:46.664 HYPERVISOR: exec_cmd: hypervisor version 
Nov 26 22:29:46.664 HYPERVISOR: exec_cmd: hypervisor working_dir /media/actionmystique/SAMSUNG5-VMs/Labs/GNS3/TT 1-linux-/project-files/dynamips 
Nov 26 22:29:46.664 GENERAL: working_dir=/media/actionmystique/SAMSUNG5-VMs/Labs/GNS3/TT 1-linux-/project-files/dynamips
Nov 26 22:29:46.664 HYPERVISOR: exec_cmd: vm create ESW1 1 c3725 
Nov 26 22:29:46.665 VM: VM ESW1 created.
Nov 26 22:29:46.665 HYPERVISOR: exec_cmd: vm set_con_tcp_port ESW1 2001 
Nov 26 22:29:46.665 HYPERVISOR: exec_cmd: vm set_aux_tcp_port ESW1 2501 
Nov 26 22:29:46.665 HYPERVISOR: exec_cmd: c3725 get_mac_addr ESW1 
Nov 26 22:29:46.674 HYPERVISOR: exec_cmd: vm slot_add_binding ESW1 0 16 WIC-2T 
Nov 26 22:29:46.682 HYPERVISOR: exec_cmd: vm get_status ESW1 
Nov 26 22:29:46.692 HYPERVISOR: exec_cmd: vm set_idle_pc ESW1 0x60c06d20 
Nov 26 22:29:46.694 HYPERVISOR: exec_cmd: vm set_nvram ESW1 256 
Nov 26 22:29:46.695 HYPERVISOR: exec_cmd: vm get_status ESW1 
Nov 26 22:29:46.696 HYPERVISOR: exec_cmd: vm slot_add_binding ESW1 1 0 NM-16ESW 
Nov 26 22:29:46.697 HYPERVISOR: exec_cmd: vm set_ios ESW1 /media/actionmystique/SAMSUNG5-VMs/Images/GNS3/IOS/c3725-adventerprisek9-mz.124-15.T10.image 
Nov 26 22:29:46.698 HYPERVISOR: exec_cmd: vm set_disk0 ESW1 1 
Nov 26 22:29:46.699 HYPERVISOR: exec_cmd: c3725 set_mac_addr ESW1 c201.281a.0000 
Nov 26 22:29:46.699 HYPERVISOR: exec_cmd: vm set_config ESW1 configs/i1_startup-config.cfg 
Nov 26 22:29:46.700 HYPERVISOR: exec_cmd: vm set_config ESW1 configs/i1_startup-config.cfg configs/i1_private-config.cfg 
Nov 26 22:29:46.886 HYPERVISOR: exec_cmd: nio create_udp udp-b38330b2-f187-40a3-86f7-6a16d8f0574d 15005 127.0.0.1 15004 
Nov 26 22:29:46.892 HYPERVISOR: exec_cmd: vm slot_add_nio_binding ESW1 1 2 udp-b38330b2-f187-40a3-86f7-6a16d8f0574d 
Nov 26 22:29:46.899 HYPERVISOR: exec_cmd: vm get_status ESW1 
Nov 26 22:29:46.905 HYPERVISOR: exec_cmd: nio create_udp udp-5fdcd5ad-11ab-4442-bf3d-dd36b8af83f0 15006 127.0.0.1 15002 
Nov 26 22:29:46.906 HYPERVISOR: exec_cmd: vm slot_add_nio_binding ESW1 1 1 udp-5fdcd5ad-11ab-4442-bf3d-dd36b8af83f0 
Nov 26 22:29:46.906 HYPERVISOR: exec_cmd: vm get_status ESW1 
Nov 26 22:29:46.929 HYPERVISOR: exec_cmd: nio create_udp udp-bc521500-1c2e-409c-9420-f49baabe2642 15003 127.0.0.1 15007 
Nov 26 22:29:46.929 HYPERVISOR: exec_cmd: vm slot_add_nio_binding ESW1 1 0 udp-bc521500-1c2e-409c-9420-f49baabe2642 
Nov 26 22:29:46.929 HYPERVISOR: exec_cmd: vm get_status ESW1 
Nov 26 22:29:46.956 HYPERVISOR: exec_cmd: nio create_udp udp-5ff810e5-e530-4ea9-b8e2-86f5f2c381ad 15008 127.0.0.1 15011 
Nov 26 22:29:46.957 HYPERVISOR: exec_cmd: vm slot_add_nio_binding ESW1 1 3 udp-5ff810e5-e530-4ea9-b8e2-86f5f2c381ad 
Nov 26 22:29:46.957 HYPERVISOR: exec_cmd: vm get_status ESW1 
Nov 26 22:31:02.664 HYPERVISOR: exec_cmd: vm get_status ESW1 
Nov 26 22:31:02.665 HYPERVISOR: exec_cmd: vm extract_config ESW1 
Nov 26 22:31:02.665 HYPERVISOR: exec_cmd: vm delete ESW1 
Nov 26 22:31:02.665 VM: VM ESW1 destroyed.
Nov 26 22:31:02.666 HYPERVISOR: exec_cmd: hypervisor stop 
Nov 26 22:31:02.748 HYPERVISOR: Stopped.
Nov 26 22:31:02.748 GENERAL: reset done.
