Nov 26 22:14:00.398 HYPERVISOR: Release 0.2.17-amd64/Linux (tag 2017072410)
Nov 26 22:14:00.398 HYPERVISOR: Started on IP = 127.0.0.1, TCP port = 39493.
Nov 26 22:14:00.407 HYPERVISOR: exec_cmd: hypervisor version 
Nov 26 22:14:00.407 HYPERVISOR: exec_cmd: hypervisor working_dir /media/actionmystique/SAMSUNG5-VMs/Labs/GNS3/git-Public-Labs-Collection/CCNP/TBSHOOT/Infrastructure-Services/DHCP-NAT/Jean-Christophe_Manciot/1+/DHCPv6/TT 1-linux/project-files/dynamips 
Nov 26 22:14:00.407 GENERAL: working_dir=/media/actionmystique/SAMSUNG5-VMs/Labs/GNS3/git-Public-Labs-Collection/CCNP/TBSHOOT/Infrastructure-Services/DHCP-NAT/Jean-Christophe_Manciot/1+/DHCPv6/TT 1-linux/project-files/dynamips
Nov 26 22:14:00.407 HYPERVISOR: exec_cmd: vm create ESW1 1 c3725 
Nov 26 22:14:00.407 VM: VM ESW1 created.
Nov 26 22:14:00.408 HYPERVISOR: exec_cmd: vm set_con_tcp_port ESW1 2001 
Nov 26 22:14:00.408 HYPERVISOR: exec_cmd: vm set_aux_tcp_port ESW1 2501 
Nov 26 22:14:00.408 HYPERVISOR: exec_cmd: c3725 get_mac_addr ESW1 
Nov 26 22:14:00.409 HYPERVISOR: exec_cmd: vm slot_add_binding ESW1 0 16 WIC-2T 
Nov 26 22:14:00.409 HYPERVISOR: exec_cmd: vm get_status ESW1 
Nov 26 22:14:00.409 HYPERVISOR: exec_cmd: vm set_idle_pc ESW1 0x60c06d20 
Nov 26 22:14:00.410 HYPERVISOR: exec_cmd: vm set_nvram ESW1 256 
Nov 26 22:14:00.410 HYPERVISOR: exec_cmd: vm get_status ESW1 
Nov 26 22:14:00.411 HYPERVISOR: exec_cmd: vm slot_add_binding ESW1 1 0 NM-16ESW 
Nov 26 22:14:00.411 HYPERVISOR: exec_cmd: vm set_ios ESW1 /media/actionmystique/SAMSUNG5-VMs/Images/GNS3/IOS/c3725-adventerprisek9-mz.124-15.T10.image 
Nov 26 22:14:00.411 HYPERVISOR: exec_cmd: vm set_disk0 ESW1 1 
Nov 26 22:14:00.412 HYPERVISOR: exec_cmd: c3725 set_mac_addr ESW1 c201.281a.0000 
Nov 26 22:14:00.412 HYPERVISOR: exec_cmd: vm set_config ESW1 configs/i1_startup-config.cfg 
Nov 26 22:14:00.413 HYPERVISOR: exec_cmd: vm set_config ESW1 configs/i1_startup-config.cfg configs/i1_private-config.cfg 
Nov 26 22:14:00.565 HYPERVISOR: exec_cmd: nio create_udp udp-432fd495-4aff-4a3e-9bed-c49148832951 15003 127.0.0.1 15002 
Nov 26 22:14:00.571 HYPERVISOR: exec_cmd: vm slot_add_nio_binding ESW1 1 1 udp-432fd495-4aff-4a3e-9bed-c49148832951 
Nov 26 22:14:00.572 HYPERVISOR: exec_cmd: vm get_status ESW1 
Nov 26 22:14:00.606 HYPERVISOR: exec_cmd: nio create_udp udp-600a5798-fb0b-4655-a871-15f457bc545c 15006 127.0.0.1 15005 
Nov 26 22:14:00.608 HYPERVISOR: exec_cmd: vm slot_add_nio_binding ESW1 1 2 udp-600a5798-fb0b-4655-a871-15f457bc545c 
Nov 26 22:14:00.608 HYPERVISOR: exec_cmd: vm get_status ESW1 
Nov 26 22:14:00.614 HYPERVISOR: exec_cmd: nio create_udp udp-192d2ec7-f86d-4dd6-87fb-df8d741f3ba2 15004 127.0.0.1 15007 
Nov 26 22:14:00.621 HYPERVISOR: exec_cmd: vm slot_add_nio_binding ESW1 1 0 udp-192d2ec7-f86d-4dd6-87fb-df8d741f3ba2 
Nov 26 22:14:00.627 HYPERVISOR: exec_cmd: vm get_status ESW1 
Nov 26 22:14:00.656 HYPERVISOR: exec_cmd: nio create_udp udp-99d58f30-7b74-4ebd-a1bb-cac39ec4c8bc 15008 127.0.0.1 15011 
Nov 26 22:14:00.657 HYPERVISOR: exec_cmd: vm slot_add_nio_binding ESW1 1 3 udp-99d58f30-7b74-4ebd-a1bb-cac39ec4c8bc 
Nov 26 22:14:00.657 HYPERVISOR: exec_cmd: vm get_status ESW1 
