Nov 26 22:14:00.419 HYPERVISOR: Release 0.2.17-amd64/Linux (tag 2017072410)
Nov 26 22:14:00.419 HYPERVISOR: Started on IP = 127.0.0.1, TCP port = 48475.
Nov 26 22:14:00.422 HYPERVISOR: exec_cmd: hypervisor version 
Nov 26 22:14:00.423 HYPERVISOR: exec_cmd: hypervisor working_dir /media/actionmystique/SAMSUNG5-VMs/Labs/GNS3/git-Public-Labs-Collection/CCNP/TBSHOOT/Infrastructure-Services/DHCP-NAT/Jean-Christophe_Manciot/1+/DHCPv6/TT 1-linux/project-files/dynamips 
Nov 26 22:14:00.423 GENERAL: working_dir=/media/actionmystique/SAMSUNG5-VMs/Labs/GNS3/git-Public-Labs-Collection/CCNP/TBSHOOT/Infrastructure-Services/DHCP-NAT/Jean-Christophe_Manciot/1+/DHCPv6/TT 1-linux/project-files/dynamips
Nov 26 22:14:00.423 HYPERVISOR: exec_cmd: vm create ESW2 2 c3725 
Nov 26 22:14:00.423 VM: VM ESW2 created.
Nov 26 22:14:00.424 HYPERVISOR: exec_cmd: vm set_con_tcp_port ESW2 2002 
Nov 26 22:14:00.424 HYPERVISOR: exec_cmd: vm set_aux_tcp_port ESW2 2502 
Nov 26 22:14:00.424 HYPERVISOR: exec_cmd: c3725 get_mac_addr ESW2 
Nov 26 22:14:00.425 HYPERVISOR: exec_cmd: vm slot_add_binding ESW2 0 16 WIC-2T 
Nov 26 22:14:00.425 HYPERVISOR: exec_cmd: vm get_status ESW2 
Nov 26 22:14:00.425 HYPERVISOR: exec_cmd: vm set_idle_pc ESW2 0x60c06d20 
Nov 26 22:14:00.426 HYPERVISOR: exec_cmd: vm set_nvram ESW2 256 
Nov 26 22:14:00.426 HYPERVISOR: exec_cmd: vm get_status ESW2 
Nov 26 22:14:00.426 HYPERVISOR: exec_cmd: vm slot_add_binding ESW2 1 0 NM-16ESW 
Nov 26 22:14:00.427 HYPERVISOR: exec_cmd: vm set_ios ESW2 /media/actionmystique/SAMSUNG5-VMs/Images/GNS3/IOS/c3725-adventerprisek9-mz.124-15.T10.image 
Nov 26 22:14:00.427 HYPERVISOR: exec_cmd: vm set_disk0 ESW2 1 
Nov 26 22:14:00.428 HYPERVISOR: exec_cmd: c3725 set_mac_addr ESW2 c202.28c2.0000 
Nov 26 22:14:00.428 HYPERVISOR: exec_cmd: vm set_config ESW2 configs/i2_startup-config.cfg 
Nov 26 22:14:00.429 HYPERVISOR: exec_cmd: vm set_config ESW2 configs/i2_startup-config.cfg configs/i2_private-config.cfg 
Nov 26 22:14:00.649 HYPERVISOR: exec_cmd: nio create_udp udp-bae9d83e-f6ed-45ba-99b7-d57cfb6f47d8 15009 127.0.0.1 15010 
Nov 26 22:14:00.649 HYPERVISOR: exec_cmd: vm slot_add_nio_binding ESW2 1 0 udp-bae9d83e-f6ed-45ba-99b7-d57cfb6f47d8 
Nov 26 22:14:00.650 HYPERVISOR: exec_cmd: vm get_status ESW2 
Nov 26 22:14:08.138 HYPERVISOR: exec_cmd: nio create_tap tap-a28b176a-7b44-4342-8505-9d195b31e82a tap0 
Nov 26 22:14:08.138 HYPERVISOR: exec_cmd: vm slot_add_nio_binding ESW2 1 1 tap-a28b176a-7b44-4342-8505-9d195b31e82a 
Nov 26 22:14:08.139 HYPERVISOR: exec_cmd: vm get_status ESW2 
