Jul 29 17:46:02.805 HYPERVISOR: Release 0.2.16-amd64/Linux (tag 2015060118)
Jul 29 17:46:02.806 HYPERVISOR: Started on IP = 127.0.0.1, TCP port = 52105.
Jul 29 17:46:02.812 HYPERVISOR: exec_cmd: hypervisor version 
Jul 29 17:46:02.813 HYPERVISOR: exec_cmd: hypervisor working_dir /media/actionmystique/SAMSUNG-850-Ext4/Labs/GNS3/CCNP/TBSHOOT/L2-Technologies/STP/Jean-Christophe_Manciot/1+/TT 1-solutions-linux/project-files/dynamips 
Jul 29 17:46:02.813 GENERAL: working_dir=/media/actionmystique/SAMSUNG-850-Ext4/Labs/GNS3/CCNP/TBSHOOT/L2-Technologies/STP/Jean-Christophe_Manciot/1+/TT 1-solutions-linux/project-files/dynamips
Jul 29 17:46:02.813 HYPERVISOR: exec_cmd: vm create SW1 1 c3725 
Jul 29 17:46:02.813 VM: VM SW1 created.
Jul 29 17:46:02.813 HYPERVISOR: exec_cmd: vm set_con_tcp_port SW1 2001 
Jul 29 17:46:02.814 HYPERVISOR: exec_cmd: c3725 get_mac_addr SW1 
Jul 29 17:46:02.814 HYPERVISOR: exec_cmd: vm set_ios SW1 /media/actionmystique/SAMSUNG-850-Ext4/Images/GNS3/IOS/c3725-adventerprisek9-mz.124-15.T10.image 
Jul 29 17:46:02.815 HYPERVISOR: exec_cmd: vm set_disk0 SW1 1 
Jul 29 17:46:02.815 HYPERVISOR: exec_cmd: c3725 set_mac_addr SW1 aaaa.aaaa.aaaa 
Jul 29 17:46:02.815 HYPERVISOR: exec_cmd: vm slot_add_binding SW1 0 16 WIC-2T 
Jul 29 17:46:02.816 HYPERVISOR: exec_cmd: vm set_nvram SW1 256 
Jul 29 17:46:02.816 HYPERVISOR: exec_cmd: vm get_status SW1 
Jul 29 17:46:02.817 HYPERVISOR: exec_cmd: vm set_idle_pc SW1 0x6026b804 
Jul 29 17:46:02.817 HYPERVISOR: exec_cmd: vm set_exec_area SW1 16 
Jul 29 17:46:02.817 HYPERVISOR: exec_cmd: vm get_status SW1 
Jul 29 17:46:02.818 HYPERVISOR: exec_cmd: vm slot_add_binding SW1 1 0 NM-16ESW 
Jul 29 17:46:02.818 HYPERVISOR: exec_cmd: vm set_config SW1 configs/i1_startup-config.cfg 
Jul 29 17:46:02.818 HYPERVISOR: exec_cmd: vm set_config SW1 configs/i1_startup-config.cfg configs/i1_private-config.cfg 
Jul 29 17:46:02.847 HYPERVISOR: exec_cmd: nio create_null null-0881b8ca-cef5-4bb8-8fab-9453161c8aac 
Jul 29 17:46:02.849 HYPERVISOR: exec_cmd: vm slot_add_nio_binding SW1 1 0 null-0881b8ca-cef5-4bb8-8fab-9453161c8aac 
Jul 29 17:46:02.850 HYPERVISOR: exec_cmd: vm get_status SW1 
Jul 29 17:46:02.985 HYPERVISOR: exec_cmd: nio create_udp udp-2e02eb42-6ddc-41a6-976f-af8024aad6d1 15000 127.0.0.1 15001 
Jul 29 17:46:02.988 HYPERVISOR: exec_cmd: vm slot_add_nio_binding SW1 1 5 udp-2e02eb42-6ddc-41a6-976f-af8024aad6d1 
Jul 29 17:46:02.992 HYPERVISOR: exec_cmd: vm get_status SW1 
Jul 29 17:46:02.998 HYPERVISOR: exec_cmd: nio create_udp udp-3a2cc2c0-b5cb-4c5f-ad76-92a0dc11f95c 15002 127.0.0.1 15003 
Jul 29 17:46:03.002 HYPERVISOR: exec_cmd: vm slot_add_nio_binding SW1 1 6 udp-3a2cc2c0-b5cb-4c5f-ad76-92a0dc11f95c 
Jul 29 17:46:03.003 HYPERVISOR: exec_cmd: vm get_status SW1 
Jul 29 17:46:03.077 HYPERVISOR: exec_cmd: nio create_udp udp-83ed3a72-1966-47bc-b4ef-772783b99c69 15009 127.0.0.1 15008 
Jul 29 17:46:03.077 HYPERVISOR: exec_cmd: vm slot_add_nio_binding SW1 1 1 udp-83ed3a72-1966-47bc-b4ef-772783b99c69 
Jul 29 17:46:03.077 HYPERVISOR: exec_cmd: vm get_status SW1 
Jul 29 17:46:06.726 HYPERVISOR: exec_cmd: vm get_status SW1 
Jul 29 17:46:06.727 HYPERVISOR: exec_cmd: vm extract_config SW1 
Jul 29 17:46:06.732 HYPERVISOR: exec_cmd: vm delete SW1 
Jul 29 17:46:06.732 VM: VM SW1 destroyed.
Jul 29 17:46:06.733 HYPERVISOR: exec_cmd: hypervisor stop 
Jul 29 17:46:06.814 HYPERVISOR: Stopped.
Jul 29 17:46:06.814 GENERAL: reset done.
