Jul 29 17:46:02.835 HYPERVISOR: Release 0.2.16-amd64/Linux (tag 2015060118)
Jul 29 17:46:02.835 HYPERVISOR: Started on IP = 127.0.0.1, TCP port = 53795.
Jul 29 17:46:02.853 HYPERVISOR: exec_cmd: hypervisor version 
Jul 29 17:46:02.854 HYPERVISOR: exec_cmd: hypervisor working_dir /media/actionmystique/SAMSUNG-850-Ext4/Labs/GNS3/CCNP/TBSHOOT/L2-Technologies/STP/Jean-Christophe_Manciot/1+/TT 1-solutions-linux/project-files/dynamips 
Jul 29 17:46:02.854 GENERAL: working_dir=/media/actionmystique/SAMSUNG-850-Ext4/Labs/GNS3/CCNP/TBSHOOT/L2-Technologies/STP/Jean-Christophe_Manciot/1+/TT 1-solutions-linux/project-files/dynamips
Jul 29 17:46:02.854 HYPERVISOR: exec_cmd: vm create SW3 3 c3725 
Jul 29 17:46:02.854 VM: VM SW3 created.
Jul 29 17:46:02.854 HYPERVISOR: exec_cmd: vm set_con_tcp_port SW3 2003 
Jul 29 17:46:02.855 HYPERVISOR: exec_cmd: c3725 get_mac_addr SW3 
Jul 29 17:46:02.855 HYPERVISOR: exec_cmd: vm set_ios SW3 /media/actionmystique/SAMSUNG-850-Ext4/Images/GNS3/IOS/c3725-adventerprisek9-mz.124-15.T10.image 
Jul 29 17:46:02.855 HYPERVISOR: exec_cmd: vm set_disk0 SW3 1 
Jul 29 17:46:02.856 HYPERVISOR: exec_cmd: c3725 set_mac_addr SW3 cccc.cccc.cccc 
Jul 29 17:46:02.856 HYPERVISOR: exec_cmd: vm slot_add_binding SW3 0 16 WIC-2T 
Jul 29 17:46:02.856 HYPERVISOR: exec_cmd: vm set_nvram SW3 256 
Jul 29 17:46:02.857 HYPERVISOR: exec_cmd: vm get_status SW3 
Jul 29 17:46:02.857 HYPERVISOR: exec_cmd: vm set_idle_pc SW3 0x6026b804 
Jul 29 17:46:02.857 HYPERVISOR: exec_cmd: vm set_exec_area SW3 16 
Jul 29 17:46:02.858 HYPERVISOR: exec_cmd: vm get_status SW3 
Jul 29 17:46:02.858 HYPERVISOR: exec_cmd: vm slot_add_binding SW3 1 0 NM-16ESW 
Jul 29 17:46:02.859 HYPERVISOR: exec_cmd: vm set_config SW3 configs/i3_startup-config.cfg 
Jul 29 17:46:02.859 HYPERVISOR: exec_cmd: vm set_config SW3 configs/i3_startup-config.cfg configs/i3_private-config.cfg 
Jul 29 17:46:02.941 HYPERVISOR: exec_cmd: nio create_null null-9d6652d5-212b-4fcd-bc78-0071f6e166ce 
Jul 29 17:46:02.941 HYPERVISOR: exec_cmd: vm slot_add_nio_binding SW3 1 0 null-9d6652d5-212b-4fcd-bc78-0071f6e166ce 
Jul 29 17:46:02.942 HYPERVISOR: exec_cmd: vm get_status SW3 
Jul 29 17:46:02.990 HYPERVISOR: exec_cmd: nio create_udp udp-7aa94077-bc04-4d2a-963d-bdc06988a363 15001 127.0.0.1 15000 
Jul 29 17:46:02.992 HYPERVISOR: exec_cmd: vm slot_add_nio_binding SW3 1 5 udp-7aa94077-bc04-4d2a-963d-bdc06988a363 
Jul 29 17:46:02.995 HYPERVISOR: exec_cmd: vm get_status SW3 
Jul 29 17:46:03.031 HYPERVISOR: exec_cmd: nio create_udp udp-aba53505-63cc-406f-9dea-ed0d3156b837 15003 127.0.0.1 15002 
Jul 29 17:46:03.032 HYPERVISOR: exec_cmd: vm slot_add_nio_binding SW3 1 6 udp-aba53505-63cc-406f-9dea-ed0d3156b837 
Jul 29 17:46:03.033 HYPERVISOR: exec_cmd: vm get_status SW3 
Jul 29 17:46:03.048 HYPERVISOR: exec_cmd: nio create_udp udp-a7dcbc46-b3d1-408d-9a32-bf098dd377c6 15004 127.0.0.1 15007 
Jul 29 17:46:03.051 HYPERVISOR: exec_cmd: vm slot_add_nio_binding SW3 1 2 udp-a7dcbc46-b3d1-408d-9a32-bf098dd377c6 
Jul 29 17:46:03.052 HYPERVISOR: exec_cmd: vm get_status SW3 
Jul 29 17:46:06.727 HYPERVISOR: exec_cmd: vm get_status SW3 
Jul 29 17:46:06.727 HYPERVISOR: exec_cmd: vm extract_config SW3 
Jul 29 17:46:06.733 HYPERVISOR: exec_cmd: vm delete SW3 
Jul 29 17:46:06.733 VM: VM SW3 destroyed.
Jul 29 17:46:06.734 HYPERVISOR: exec_cmd: hypervisor stop 
Jul 29 17:46:06.852 HYPERVISOR: Stopped.
Jul 29 17:46:06.852 GENERAL: reset done.
