Nov 28 08:22:51.831 HYPERVISOR: Release 0.2.17-amd64/Linux (tag 2017072410)
Nov 28 08:22:51.831 HYPERVISOR: Started on IP = 127.0.0.1, TCP port = 50001.
Nov 28 08:22:51.839 HYPERVISOR: exec_cmd: hypervisor version 
Nov 28 08:22:51.839 HYPERVISOR: exec_cmd: hypervisor working_dir /media/actionmystique/SAMSUNG5-VMs/Labs/GNS3/TT 1-linux-/project-files/dynamips 
Nov 28 08:22:51.839 GENERAL: working_dir=/media/actionmystique/SAMSUNG5-VMs/Labs/GNS3/TT 1-linux-/project-files/dynamips
Nov 28 08:22:51.840 HYPERVISOR: exec_cmd: vm create ESW1 1 c3725 
Nov 28 08:22:51.840 VM: VM ESW1 created.
Nov 28 08:22:51.840 HYPERVISOR: exec_cmd: vm set_con_tcp_port ESW1 2001 
Nov 28 08:22:51.840 HYPERVISOR: exec_cmd: vm set_aux_tcp_port ESW1 2501 
Nov 28 08:22:51.841 HYPERVISOR: exec_cmd: c3725 get_mac_addr ESW1 
Nov 28 08:22:51.841 HYPERVISOR: exec_cmd: vm set_disk0 ESW1 1 
Nov 28 08:22:51.841 HYPERVISOR: exec_cmd: vm get_status ESW1 
Nov 28 08:22:51.842 HYPERVISOR: exec_cmd: vm slot_add_binding ESW1 1 0 NM-16ESW 
Nov 28 08:22:51.842 HYPERVISOR: exec_cmd: vm set_ios ESW1 /media/actionmystique/SAMSUNG5-VMs/Images/GNS3/IOS/c3725-adventerprisek9-mz.124-15.T10.image 
Nov 28 08:22:51.843 HYPERVISOR: exec_cmd: c3725 set_mac_addr ESW1 c201.3297.0000 
Nov 28 08:22:51.843 HYPERVISOR: exec_cmd: vm slot_add_binding ESW1 0 16 WIC-2T 
Nov 28 08:22:51.843 HYPERVISOR: exec_cmd: vm get_status ESW1 
Nov 28 08:22:51.844 HYPERVISOR: exec_cmd: vm set_idle_pc ESW1 0x60c06d20 
Nov 28 08:22:51.844 HYPERVISOR: exec_cmd: vm set_nvram ESW1 256 
Nov 28 08:22:51.844 HYPERVISOR: exec_cmd: vm set_config ESW1 configs/i1_startup-config.cfg 
Nov 28 08:22:51.845 HYPERVISOR: exec_cmd: vm set_config ESW1 configs/i1_startup-config.cfg configs/i1_private-config.cfg 
Nov 28 08:22:51.960 HYPERVISOR: exec_cmd: nio create_udp udp-c390a33a-ef6d-4724-b480-b9b09ce5448c 15002 127.0.0.1 15000 
Nov 28 08:22:51.972 HYPERVISOR: exec_cmd: vm slot_add_nio_binding ESW1 1 1 udp-c390a33a-ef6d-4724-b480-b9b09ce5448c 
Nov 28 08:22:51.972 HYPERVISOR: exec_cmd: vm get_status ESW1 
Nov 28 08:22:51.978 HYPERVISOR: exec_cmd: nio create_udp udp-b207611e-56ab-4615-a7b0-c0b3805506c7 15003 127.0.0.1 15004 
Nov 28 08:22:51.978 HYPERVISOR: exec_cmd: vm slot_add_nio_binding ESW1 1 2 udp-b207611e-56ab-4615-a7b0-c0b3805506c7 
Nov 28 08:22:51.978 HYPERVISOR: exec_cmd: vm get_status ESW1 
Nov 28 08:22:52.003 HYPERVISOR: exec_cmd: nio create_udp udp-f8428dd9-bf90-417d-a388-c5022958b8c7 15005 127.0.0.1 15001 
Nov 28 08:22:52.004 HYPERVISOR: exec_cmd: vm slot_add_nio_binding ESW1 1 0 udp-f8428dd9-bf90-417d-a388-c5022958b8c7 
Nov 28 08:22:52.004 HYPERVISOR: exec_cmd: vm get_status ESW1 
Nov 28 08:23:01.631 HYPERVISOR: exec_cmd: vm get_status ESW1 
Nov 28 08:23:01.631 HYPERVISOR: exec_cmd: vm extract_config ESW1 
Nov 28 08:23:01.632 HYPERVISOR: exec_cmd: vm delete ESW1 
Nov 28 08:23:01.632 VM: VM ESW1 destroyed.
Nov 28 08:23:01.632 HYPERVISOR: exec_cmd: hypervisor stop 
Nov 28 08:23:01.849 HYPERVISOR: Stopped.
Nov 28 08:23:01.849 GENERAL: reset done.
