Nov 28 08:08:44.373 HYPERVISOR: Release 0.2.17-amd64/Linux (tag 2017072410)
Nov 28 08:08:44.373 HYPERVISOR: Started on IP = 127.0.0.1, TCP port = 52289.
Nov 28 08:08:44.385 HYPERVISOR: exec_cmd: hypervisor version 
Nov 28 08:08:44.386 HYPERVISOR: exec_cmd: hypervisor working_dir /media/actionmystique/SAMSUNG5-VMs/Labs/GNS3/TT 1-solutions-linux-/project-files/dynamips 
Nov 28 08:08:44.386 GENERAL: working_dir=/media/actionmystique/SAMSUNG5-VMs/Labs/GNS3/TT 1-solutions-linux-/project-files/dynamips
Nov 28 08:08:44.386 HYPERVISOR: exec_cmd: vm create ESW2 2 c3725 
Nov 28 08:08:44.386 VM: VM ESW2 created.
Nov 28 08:08:44.387 HYPERVISOR: exec_cmd: vm set_con_tcp_port ESW2 2004 
Nov 28 08:08:44.387 HYPERVISOR: exec_cmd: c3725 get_mac_addr ESW2 
Nov 28 08:08:44.387 HYPERVISOR: exec_cmd: vm get_status ESW2 
Nov 28 08:08:44.388 HYPERVISOR: exec_cmd: vm slot_add_binding ESW2 1 0 NM-16ESW 
Nov 28 08:08:44.388 HYPERVISOR: exec_cmd: vm set_disk0 ESW2 1 
Nov 28 08:08:44.388 HYPERVISOR: exec_cmd: vm slot_add_binding ESW2 0 16 WIC-2T 
Nov 28 08:08:44.389 HYPERVISOR: exec_cmd: vm get_status ESW2 
Nov 28 08:08:44.389 HYPERVISOR: exec_cmd: vm set_idle_pc ESW2 0x6026b804 
Nov 28 08:08:44.389 HYPERVISOR: exec_cmd: c3725 set_mac_addr ESW2 c202.447a.0000 
Nov 28 08:08:44.390 HYPERVISOR: exec_cmd: vm set_nvram ESW2 256 
Nov 28 08:08:44.390 HYPERVISOR: exec_cmd: vm set_ios ESW2 /media/actionmystique/SAMSUNG5-VMs/Images/GNS3/IOS/c3725-adventerprisek9-mz.124-15.T10.image 
Nov 28 08:08:44.391 HYPERVISOR: exec_cmd: vm set_config ESW2 configs/ios_base_startup-config.txt 
Nov 28 08:08:44.391 HYPERVISOR: exec_cmd: vm set_config ESW2 configs/ios_base_startup-config.txt configs/ios_base_private-config.txt 
Nov 28 08:08:44.643 HYPERVISOR: exec_cmd: nio create_udp udp-8448efad-409a-490a-93b7-5a82b3e7bfcf 15003 127.0.0.1 15006 
Nov 28 08:08:44.645 HYPERVISOR: exec_cmd: vm slot_add_nio_binding ESW2 1 0 udp-8448efad-409a-490a-93b7-5a82b3e7bfcf 
Nov 28 08:08:44.645 HYPERVISOR: exec_cmd: vm get_status ESW2 
Nov 28 08:09:03.563 HYPERVISOR: exec_cmd: vm get_status ESW2 
Nov 28 08:09:03.566 HYPERVISOR: exec_cmd: vm extract_config ESW2 
Nov 28 08:09:03.568 HYPERVISOR: exec_cmd: vm delete ESW2 
Nov 28 08:09:03.568 VM: VM ESW2 destroyed.
Nov 28 08:09:03.580 HYPERVISOR: exec_cmd: hypervisor stop 
Nov 28 08:09:03.906 HYPERVISOR: Stopped.
Nov 28 08:09:03.906 GENERAL: reset done.
