Nov 27 16:20:40.204 HYPERVISOR: Release 0.2.17-amd64/Linux (tag 2017072410)
Nov 27 16:20:40.204 HYPERVISOR: Started on IP = 127.0.0.1, TCP port = 37707.
Nov 27 16:20:40.224 HYPERVISOR: exec_cmd: hypervisor version 
Nov 27 16:20:40.225 HYPERVISOR: exec_cmd: hypervisor working_dir /media/actionmystique/SAMSUNG5-VMs/Labs/GNS3/TT 1-linux-/project-files/dynamips 
Nov 27 16:20:40.225 GENERAL: working_dir=/media/actionmystique/SAMSUNG5-VMs/Labs/GNS3/TT 1-linux-/project-files/dynamips
Nov 27 16:20:40.225 HYPERVISOR: exec_cmd: vm create SW1 1 c3725 
Nov 27 16:20:40.226 VM: VM SW1 created.
Nov 27 16:20:40.227 HYPERVISOR: exec_cmd: vm set_con_tcp_port SW1 2001 
Nov 27 16:20:40.227 HYPERVISOR: exec_cmd: c3725 get_mac_addr SW1 
Nov 27 16:20:40.228 HYPERVISOR: exec_cmd: vm set_nvram SW1 256 
Nov 27 16:20:40.229 HYPERVISOR: exec_cmd: vm get_status SW1 
Nov 27 16:20:40.230 HYPERVISOR: exec_cmd: vm set_idle_pc SW1 0x614ac21c 
Nov 27 16:20:40.231 HYPERVISOR: exec_cmd: c3725 set_mac_addr SW1 aaaa.aaaa.aaaa 
Nov 27 16:20:40.232 HYPERVISOR: exec_cmd: vm set_exec_area SW1 16 
Nov 27 16:20:40.233 HYPERVISOR: exec_cmd: vm get_status SW1 
Nov 27 16:20:40.234 HYPERVISOR: exec_cmd: vm slot_add_binding SW1 1 0 NM-16ESW 
Nov 27 16:20:40.235 HYPERVISOR: exec_cmd: vm set_disk0 SW1 1 
Nov 27 16:20:40.236 HYPERVISOR: exec_cmd: vm set_ios SW1 /media/actionmystique/SAMSUNG5-VMs/Images/GNS3/IOS/c3725-adventerprisek9-mz.124-15.T10.image 
Nov 27 16:20:40.237 HYPERVISOR: exec_cmd: vm slot_add_binding SW1 0 16 WIC-2T 
Nov 27 16:20:40.239 HYPERVISOR: exec_cmd: vm set_config SW1 configs/i1_startup-config.cfg 
Nov 27 16:20:40.240 HYPERVISOR: exec_cmd: vm set_config SW1 configs/i1_startup-config.cfg configs/i1_private-config.cfg 
Nov 27 16:20:40.484 HYPERVISOR: exec_cmd: nio create_udp udp-6b11e1e8-3154-4bcf-8d8d-2f5c9e2094c8 15005 127.0.0.1 15007 
Nov 27 16:20:40.485 HYPERVISOR: exec_cmd: vm slot_add_nio_binding SW1 1 5 udp-6b11e1e8-3154-4bcf-8d8d-2f5c9e2094c8 
Nov 27 16:20:40.485 HYPERVISOR: exec_cmd: vm get_status SW1 
Nov 27 16:20:40.495 HYPERVISOR: exec_cmd: nio create_udp udp-67f399a9-203e-4ea5-8ff4-69a56276ffa3 15009 127.0.0.1 15008 
Nov 27 16:20:40.496 HYPERVISOR: exec_cmd: vm slot_add_nio_binding SW1 1 6 udp-67f399a9-203e-4ea5-8ff4-69a56276ffa3 
Nov 27 16:20:40.497 HYPERVISOR: exec_cmd: vm get_status SW1 
Nov 27 16:20:40.529 HYPERVISOR: exec_cmd: nio create_udp udp-9744a0ea-aaf7-4c2a-bf06-6f88b68e8dfa 15011 127.0.0.1 15010 
Nov 27 16:20:40.529 HYPERVISOR: exec_cmd: vm slot_add_nio_binding SW1 1 1 udp-9744a0ea-aaf7-4c2a-bf06-6f88b68e8dfa 
Nov 27 16:20:40.530 HYPERVISOR: exec_cmd: vm get_status SW1 
Nov 27 16:20:40.545 HYPERVISOR: exec_cmd: nio create_udp udp-d29fb3ec-beff-47da-ac99-85606c18fd42 15012 127.0.0.1 15013 
Nov 27 16:20:40.545 HYPERVISOR: exec_cmd: vm slot_add_nio_binding SW1 1 0 udp-d29fb3ec-beff-47da-ac99-85606c18fd42 
Nov 27 16:20:40.545 HYPERVISOR: exec_cmd: vm get_status SW1 
Nov 27 16:20:52.865 HYPERVISOR: exec_cmd: vm get_status SW1 
Nov 27 16:20:52.867 HYPERVISOR: exec_cmd: vm extract_config SW1 
Nov 27 16:20:52.870 HYPERVISOR: exec_cmd: vm delete SW1 
Nov 27 16:20:52.870 VM: VM SW1 destroyed.
Nov 27 16:20:52.872 HYPERVISOR: exec_cmd: hypervisor stop 
Nov 27 16:20:53.234 HYPERVISOR: Stopped.
Nov 27 16:20:53.235 GENERAL: reset done.
