Nov 27 16:19:54.261 HYPERVISOR: Release 0.2.17-amd64/Linux (tag 2017072410)
Nov 27 16:19:54.261 HYPERVISOR: Started on IP = 127.0.0.1, TCP port = 33051.
Nov 27 16:19:54.280 HYPERVISOR: exec_cmd: hypervisor version 
Nov 27 16:19:54.281 HYPERVISOR: exec_cmd: hypervisor working_dir /media/actionmystique/SAMSUNG5-VMs/Labs/GNS3/TT 2-solutions-linux-/project-files/dynamips 
Nov 27 16:19:54.281 GENERAL: working_dir=/media/actionmystique/SAMSUNG5-VMs/Labs/GNS3/TT 2-solutions-linux-/project-files/dynamips
Nov 27 16:19:54.282 HYPERVISOR: exec_cmd: vm create SW1 1 c3725 
Nov 27 16:19:54.282 VM: VM SW1 created.
Nov 27 16:19:54.283 HYPERVISOR: exec_cmd: vm set_con_tcp_port SW1 2001 
Nov 27 16:19:54.284 HYPERVISOR: exec_cmd: c3725 get_mac_addr SW1 
Nov 27 16:19:54.285 HYPERVISOR: exec_cmd: vm set_nvram SW1 256 
Nov 27 16:19:54.286 HYPERVISOR: exec_cmd: vm get_status SW1 
Nov 27 16:19:54.287 HYPERVISOR: exec_cmd: vm set_idle_pc SW1 0x60c056e4 
Nov 27 16:19:54.288 HYPERVISOR: exec_cmd: c3725 set_mac_addr SW1 aaaa.aaaa.aaaa 
Nov 27 16:19:54.289 HYPERVISOR: exec_cmd: vm set_exec_area SW1 16 
Nov 27 16:19:54.290 HYPERVISOR: exec_cmd: vm get_status SW1 
Nov 27 16:19:54.291 HYPERVISOR: exec_cmd: vm slot_add_binding SW1 1 0 NM-16ESW 
Nov 27 16:19:54.292 HYPERVISOR: exec_cmd: vm set_disk0 SW1 1 
Nov 27 16:19:54.293 HYPERVISOR: exec_cmd: vm set_ios SW1 /media/actionmystique/SAMSUNG5-VMs/Images/GNS3/IOS/c3725-adventerprisek9-mz.124-15.T10.image 
Nov 27 16:19:54.294 HYPERVISOR: exec_cmd: vm slot_add_binding SW1 0 16 WIC-2T 
Nov 27 16:19:54.295 HYPERVISOR: exec_cmd: vm set_config SW1 configs/i1_startup-config.cfg 
Nov 27 16:19:54.296 HYPERVISOR: exec_cmd: vm set_config SW1 configs/i1_startup-config.cfg configs/i1_private-config.cfg 
Nov 27 16:19:54.590 HYPERVISOR: exec_cmd: nio create_udp udp-cc817a31-1505-4006-95ff-995346ff37b5 15009 127.0.0.1 15008 
Nov 27 16:19:54.591 HYPERVISOR: exec_cmd: vm slot_add_nio_binding SW1 1 0 udp-cc817a31-1505-4006-95ff-995346ff37b5 
Nov 27 16:19:54.592 HYPERVISOR: exec_cmd: vm get_status SW1 
Nov 27 16:19:54.601 HYPERVISOR: exec_cmd: nio create_udp udp-a7c58f7d-3f65-4554-ad98-d9c89bf2f892 15012 127.0.0.1 15011 
Nov 27 16:19:54.602 HYPERVISOR: exec_cmd: vm slot_add_nio_binding SW1 1 5 udp-a7c58f7d-3f65-4554-ad98-d9c89bf2f892 
Nov 27 16:19:54.605 HYPERVISOR: exec_cmd: vm get_status SW1 
Nov 27 16:19:54.633 HYPERVISOR: exec_cmd: nio create_udp udp-47a63ee1-9b9b-4c35-a146-95bfd40da1c8 15010 127.0.0.1 15014 
Nov 27 16:19:54.634 HYPERVISOR: exec_cmd: vm slot_add_nio_binding SW1 1 6 udp-47a63ee1-9b9b-4c35-a146-95bfd40da1c8 
Nov 27 16:19:54.634 HYPERVISOR: exec_cmd: vm get_status SW1 
Nov 27 16:19:54.652 HYPERVISOR: exec_cmd: nio create_udp udp-3f80177d-6d94-4d5c-b6c9-ecb467350f8a 15013 127.0.0.1 15015 
Nov 27 16:19:54.653 HYPERVISOR: exec_cmd: vm slot_add_nio_binding SW1 1 1 udp-3f80177d-6d94-4d5c-b6c9-ecb467350f8a 
Nov 27 16:19:54.653 HYPERVISOR: exec_cmd: vm get_status SW1 
Nov 27 16:20:08.956 HYPERVISOR: exec_cmd: vm get_status SW1 
Nov 27 16:20:08.958 HYPERVISOR: exec_cmd: vm extract_config SW1 
Nov 27 16:20:08.961 HYPERVISOR: exec_cmd: vm delete SW1 
Nov 27 16:20:08.961 VM: VM SW1 destroyed.
Nov 27 16:20:08.963 HYPERVISOR: exec_cmd: hypervisor stop 
Nov 27 16:20:09.292 HYPERVISOR: Stopped.
Nov 27 16:20:09.292 GENERAL: reset done.
