Nov 26 20:03:06.571 HYPERVISOR: Release 0.2.17-amd64/Linux (tag 2017072410)
Nov 26 20:03:06.571 HYPERVISOR: Started on IP = 127.0.0.1, TCP port = 42687.
Nov 26 20:03:06.579 HYPERVISOR: exec_cmd: hypervisor version 
Nov 26 20:03:06.581 HYPERVISOR: exec_cmd: hypervisor working_dir /media/actionmystique/SAMSUNG5-VMs/Labs/GNS3/git-Public-Labs-Collection/CCDP/ARCH/BGP/Jean-Christophe_Manciot/1+/Confederations-linux-/project-files/dynamips 
Nov 26 20:03:06.581 GENERAL: working_dir=/media/actionmystique/SAMSUNG5-VMs/Labs/GNS3/git-Public-Labs-Collection/CCDP/ARCH/BGP/Jean-Christophe_Manciot/1+/Confederations-linux-/project-files/dynamips
Nov 26 20:03:06.582 HYPERVISOR: exec_cmd: vm create Paris 1 c7200 
Nov 26 20:03:06.582 VM: VM Paris created.
Nov 26 20:03:06.583 HYPERVISOR: exec_cmd: vm set_con_tcp_port Paris 2101 
Nov 26 20:03:06.585 HYPERVISOR: exec_cmd: vm set_aux_tcp_port Paris 2501 
Nov 26 20:03:06.586 HYPERVISOR: exec_cmd: c7200 get_mac_addr Paris 
Nov 26 20:03:06.588 HYPERVISOR: exec_cmd: vm get_status Paris 
Nov 26 20:03:06.589 HYPERVISOR: exec_cmd: vm slot_add_binding Paris 0 0 C7200-IO-FE 
Nov 26 20:03:06.591 HYPERVISOR: exec_cmd: vm get_status Paris 
Nov 26 20:03:06.597 HYPERVISOR: exec_cmd: vm set_idle_pc Paris 0x6062d534 
Nov 26 20:03:06.607 HYPERVISOR: exec_cmd: vm set_ram Paris 512 
Nov 26 20:03:06.610 HYPERVISOR: exec_cmd: vm set_ios Paris /media/actionmystique/SAMSUNG5-VMs/Images/GNS3/IOS/c7200-adventerprisek9-mz.152-4.M2.image 
Nov 26 20:03:06.611 HYPERVISOR: exec_cmd: vm get_status Paris 
Nov 26 20:03:06.612 HYPERVISOR: exec_cmd: vm slot_add_binding Paris 1 0 PA-GE 
Nov 26 20:03:06.614 HYPERVISOR: exec_cmd: vm get_status Paris 
Nov 26 20:03:06.615 HYPERVISOR: exec_cmd: vm slot_remove_binding Paris 0 0 
Nov 26 20:03:06.616 HYPERVISOR: exec_cmd: vm get_status Paris 
Nov 26 20:03:06.617 HYPERVISOR: exec_cmd: vm slot_add_binding Paris 0 0 C7200-IO-GE-E 
Nov 26 20:03:06.618 HYPERVISOR: exec_cmd: vm get_status Paris 
Nov 26 20:03:06.619 HYPERVISOR: exec_cmd: vm slot_add_binding Paris 2 0 PA-GE 
Nov 26 20:03:06.621 HYPERVISOR: exec_cmd: c7200 set_mac_addr Paris ca01.112f.0000 
Nov 26 20:03:06.622 HYPERVISOR: exec_cmd: vm set_config Paris configs/i1_startup-config.cfg 
Nov 26 20:03:06.810 HYPERVISOR: exec_cmd: nio create_udp udp-f9a67248-baed-4a4e-bba8-acb7114179b0 15003 127.0.0.1 15000 
Nov 26 20:03:06.811 HYPERVISOR: exec_cmd: vm slot_add_nio_binding Paris 2 0 udp-f9a67248-baed-4a4e-bba8-acb7114179b0 
Nov 26 20:03:06.816 HYPERVISOR: exec_cmd: vm get_status Paris 
Nov 26 20:03:06.920 HYPERVISOR: exec_cmd: nio create_udp udp-e798553d-e2b9-47f2-8c3c-9eefa8505da6 15006 127.0.0.1 15001 
Nov 26 20:03:06.921 HYPERVISOR: exec_cmd: vm slot_add_nio_binding Paris 1 0 udp-e798553d-e2b9-47f2-8c3c-9eefa8505da6 
Nov 26 20:03:06.921 HYPERVISOR: exec_cmd: vm get_status Paris 
Nov 26 20:03:07.080 HYPERVISOR: exec_cmd: nio create_udp udp-b6eac117-16be-476d-9926-084258c03105 15017 127.0.0.1 15016 
Nov 26 20:03:07.081 HYPERVISOR: exec_cmd: vm slot_add_nio_binding Paris 0 0 udp-b6eac117-16be-476d-9926-084258c03105 
Nov 26 20:03:07.081 HYPERVISOR: exec_cmd: vm get_status Paris 
