Nov 26 20:03:19.425 HYPERVISOR: Release 0.2.17-amd64/Linux (tag 2017072410)
Nov 26 20:03:19.425 HYPERVISOR: Started on IP = 127.0.0.1, TCP port = 49665.
Nov 26 20:03:19.450 HYPERVISOR: exec_cmd: hypervisor version 
Nov 26 20:03:19.451 HYPERVISOR: exec_cmd: hypervisor working_dir /media/actionmystique/SAMSUNG5-VMs/Labs/GNS3/Confederations-linux/project-files/dynamips 
Nov 26 20:03:19.451 GENERAL: working_dir=/media/actionmystique/SAMSUNG5-VMs/Labs/GNS3/Confederations-linux/project-files/dynamips
Nov 26 20:03:19.453 HYPERVISOR: exec_cmd: vm create Munich 7 c7200 
Nov 26 20:03:19.453 VM: VM Munich created.
Nov 26 20:03:19.454 HYPERVISOR: exec_cmd: vm set_con_tcp_port Munich 2108 
Nov 26 20:03:19.456 HYPERVISOR: exec_cmd: vm set_aux_tcp_port Munich 2508 
Nov 26 20:03:19.457 HYPERVISOR: exec_cmd: c7200 get_mac_addr Munich 
Nov 26 20:03:19.459 HYPERVISOR: exec_cmd: vm get_status Munich 
Nov 26 20:03:19.480 HYPERVISOR: exec_cmd: vm slot_add_binding Munich 0 0 C7200-IO-FE 
Nov 26 20:03:19.499 HYPERVISOR: exec_cmd: vm get_status Munich 
Nov 26 20:03:19.500 HYPERVISOR: exec_cmd: vm set_idle_pc Munich 0x6062d534 
Nov 26 20:03:19.501 HYPERVISOR: exec_cmd: vm set_ram Munich 512 
Nov 26 20:03:19.501 HYPERVISOR: exec_cmd: vm set_ios Munich /media/actionmystique/SAMSUNG5-VMs/Images/GNS3/IOS/c7200-adventerprisek9-mz.152-4.M2.image 
Nov 26 20:03:19.502 HYPERVISOR: exec_cmd: vm get_status Munich 
Nov 26 20:03:19.502 HYPERVISOR: exec_cmd: vm slot_add_binding Munich 1 0 PA-GE 
Nov 26 20:03:19.502 HYPERVISOR: exec_cmd: vm get_status Munich 
Nov 26 20:03:19.503 HYPERVISOR: exec_cmd: vm slot_remove_binding Munich 0 0 
Nov 26 20:03:19.503 HYPERVISOR: exec_cmd: vm get_status Munich 
Nov 26 20:03:19.503 HYPERVISOR: exec_cmd: vm slot_add_binding Munich 0 0 C7200-IO-GE-E 
Nov 26 20:03:19.504 HYPERVISOR: exec_cmd: c7200 set_mac_addr Munich ca07.1172.0000 
Nov 26 20:03:19.504 HYPERVISOR: exec_cmd: vm set_config Munich configs/i7_startup-config.cfg 
Nov 26 20:03:19.936 HYPERVISOR: exec_cmd: nio create_udp udp-49b0ed97-87ab-46e4-9872-d652812b6109 15019 127.0.0.1 15018 
Nov 26 20:03:19.936 HYPERVISOR: exec_cmd: vm slot_add_nio_binding Munich 0 0 udp-49b0ed97-87ab-46e4-9872-d652812b6109 
Nov 26 20:03:19.937 HYPERVISOR: exec_cmd: vm get_status Munich 
Nov 26 20:03:19.948 HYPERVISOR: exec_cmd: nio create_udp udp-7392abaf-d0c3-4d1d-8d2f-2b4ce6fd99cf 15020 127.0.0.1 15021 
Nov 26 20:03:19.949 HYPERVISOR: exec_cmd: vm slot_add_nio_binding Munich 1 0 udp-7392abaf-d0c3-4d1d-8d2f-2b4ce6fd99cf 
Nov 26 20:03:19.949 HYPERVISOR: exec_cmd: vm get_status Munich 
Nov 26 20:03:25.477 HYPERVISOR: exec_cmd: vm get_status Munich 
Nov 26 20:03:25.479 HYPERVISOR: exec_cmd: vm extract_config Munich 
Nov 26 20:03:25.483 HYPERVISOR: exec_cmd: vm delete Munich 
Nov 26 20:03:25.483 VM: VM Munich destroyed.
Nov 26 20:03:25.487 HYPERVISOR: exec_cmd: hypervisor stop 
Nov 26 20:03:25.950 HYPERVISOR: Stopped.
Nov 26 20:03:25.950 GENERAL: reset done.
