Nov 26 20:49:03.793 HYPERVISOR: Release 0.2.17-amd64/Linux (tag 2017072410)
Nov 26 20:49:03.793 HYPERVISOR: Started on IP = 127.0.0.1, TCP port = 43697.
Nov 26 20:49:03.835 HYPERVISOR: exec_cmd: hypervisor version 
Nov 26 20:49:03.836 HYPERVISOR: exec_cmd: hypervisor working_dir /media/actionmystique/SAMSUNG5-VMs/Labs/GNS3/Virtual Links/project-files/dynamips 
Nov 26 20:49:03.836 GENERAL: working_dir=/media/actionmystique/SAMSUNG5-VMs/Labs/GNS3/Virtual Links/project-files/dynamips
Nov 26 20:49:03.838 HYPERVISOR: exec_cmd: vm create ABR15 12 c7200 
Nov 26 20:49:03.838 VM: VM ABR15 created.
Nov 26 20:49:03.840 HYPERVISOR: exec_cmd: vm set_con_tcp_port ABR15 2025 
Nov 26 20:49:03.842 HYPERVISOR: exec_cmd: vm set_aux_tcp_port ABR15 2525 
Nov 26 20:49:03.844 HYPERVISOR: exec_cmd: c7200 get_mac_addr ABR15 
Nov 26 20:49:03.846 HYPERVISOR: exec_cmd: vm get_status ABR15 
Nov 26 20:49:03.852 HYPERVISOR: exec_cmd: vm slot_add_binding ABR15 0 0 C7200-IO-FE 
Nov 26 20:49:03.863 HYPERVISOR: exec_cmd: vm get_status ABR15 
Nov 26 20:49:03.870 HYPERVISOR: exec_cmd: vm slot_remove_binding ABR15 0 0 
Nov 26 20:49:03.881 HYPERVISOR: exec_cmd: vm get_status ABR15 
Nov 26 20:49:03.883 HYPERVISOR: exec_cmd: vm slot_add_binding ABR15 0 0 C7200-IO-GE-E 
Nov 26 20:49:03.885 HYPERVISOR: exec_cmd: vm get_status ABR15 
Nov 26 20:49:03.886 HYPERVISOR: exec_cmd: vm slot_add_binding ABR15 2 0 PA-2FE-TX 
Nov 26 20:49:03.887 HYPERVISOR: exec_cmd: vm set_ram ABR15 512 
Nov 26 20:49:03.889 HYPERVISOR: exec_cmd: vm get_status ABR15 
Nov 26 20:49:03.890 HYPERVISOR: exec_cmd: vm set_idle_pc ABR15 0x62a29de4 
Nov 26 20:49:03.892 HYPERVISOR: exec_cmd: vm get_status ABR15 
Nov 26 20:49:03.894 HYPERVISOR: exec_cmd: vm slot_add_binding ABR15 1 0 PA-2FE-TX 
Nov 26 20:49:03.896 HYPERVISOR: exec_cmd: vm get_status ABR15 
Nov 26 20:49:03.898 HYPERVISOR: exec_cmd: vm slot_add_binding ABR15 3 0 PA-GE 
Nov 26 20:49:03.899 HYPERVISOR: exec_cmd: vm set_ios ABR15 /media/actionmystique/SAMSUNG5-VMs/Images/GNS3/IOS/c7200-adventerprisek9-mz.152-4.M2.image 
Nov 26 20:49:03.901 HYPERVISOR: exec_cmd: vm set_config ABR15 configs/i12_startup-config.cfg 
Nov 26 20:49:04.800 HYPERVISOR: exec_cmd: vm extract_config ABR15 
Nov 26 20:49:05.225 HYPERVISOR: exec_cmd: nio create_udp udp-9e3e2127-b703-4815-b6d0-1ea788b9d5f4 15036 127.0.0.1 15035 
Nov 26 20:49:05.225 HYPERVISOR: exec_cmd: vm slot_add_nio_binding ABR15 1 0 udp-9e3e2127-b703-4815-b6d0-1ea788b9d5f4 
Nov 26 20:49:05.225 HYPERVISOR: exec_cmd: vm get_status ABR15 
Nov 26 20:49:05.321 HYPERVISOR: exec_cmd: nio create_udp udp-6c70987c-5556-4179-a16b-90572032a45b 15046 127.0.0.1 15045 
Nov 26 20:49:05.322 HYPERVISOR: exec_cmd: vm slot_add_nio_binding ABR15 0 0 udp-6c70987c-5556-4179-a16b-90572032a45b 
Nov 26 20:49:05.322 HYPERVISOR: exec_cmd: vm get_status ABR15 
Nov 26 20:50:03.769 HYPERVISOR: exec_cmd: vm get_status ABR15 
Nov 26 20:50:03.776 HYPERVISOR: exec_cmd: vm extract_config ABR15 
Nov 26 20:50:03.781 HYPERVISOR: exec_cmd: vm delete ABR15 
Nov 26 20:50:03.781 VM: VM ABR15 destroyed.
Nov 26 20:50:03.787 HYPERVISOR: exec_cmd: hypervisor stop 
Nov 26 20:50:03.877 HYPERVISOR: Stopped.
Nov 26 20:50:03.877 GENERAL: reset done.
