Nov 26 22:02:24.150 HYPERVISOR: Release 0.2.17-amd64/Linux (tag 2017072410)
Nov 26 22:02:24.150 HYPERVISOR: Started on IP = 127.0.0.1, TCP port = 35479.
Nov 26 22:02:24.184 HYPERVISOR: exec_cmd: hypervisor version 
Nov 26 22:02:24.184 HYPERVISOR: exec_cmd: hypervisor working_dir /media/actionmystique/SAMSUNG5-VMs/Labs/GNS3/TT 2-solutions-linux-/project-files/dynamips 
Nov 26 22:02:24.184 GENERAL: working_dir=/media/actionmystique/SAMSUNG5-VMs/Labs/GNS3/TT 2-solutions-linux-/project-files/dynamips
Nov 26 22:02:24.185 HYPERVISOR: exec_cmd: vm create ESW1 1 c3725 
Nov 26 22:02:24.185 VM: VM ESW1 created.
Nov 26 22:02:24.185 HYPERVISOR: exec_cmd: vm set_con_tcp_port ESW1 2004 
Nov 26 22:02:24.186 HYPERVISOR: exec_cmd: c3725 get_mac_addr ESW1 
Nov 26 22:02:24.186 HYPERVISOR: exec_cmd: vm slot_add_binding ESW1 0 16 WIC-2T 
Nov 26 22:02:24.187 HYPERVISOR: exec_cmd: vm get_status ESW1 
Nov 26 22:02:24.187 HYPERVISOR: exec_cmd: vm set_idle_pc ESW1 0x60c06d20 
Nov 26 22:02:24.187 HYPERVISOR: exec_cmd: vm set_nvram ESW1 256 
Nov 26 22:02:24.188 HYPERVISOR: exec_cmd: vm get_status ESW1 
Nov 26 22:02:24.188 HYPERVISOR: exec_cmd: vm slot_add_binding ESW1 1 0 NM-16ESW 
Nov 26 22:02:24.189 HYPERVISOR: exec_cmd: vm set_ios ESW1 /media/actionmystique/SAMSUNG5-VMs/Images/GNS3/IOS/c3725-adventerprisek9-mz.124-15.T10.image 
Nov 26 22:02:24.189 HYPERVISOR: exec_cmd: vm set_disk0 ESW1 1 
Nov 26 22:02:24.189 HYPERVISOR: exec_cmd: c3725 set_mac_addr ESW1 c201.1a63.0000 
Nov 26 22:02:24.190 HYPERVISOR: exec_cmd: vm set_config ESW1 configs/i1_startup-config.cfg 
Nov 26 22:02:24.190 HYPERVISOR: exec_cmd: vm set_config ESW1 configs/i1_startup-config.cfg configs/i1_private-config.cfg 
Nov 26 22:02:24.271 HYPERVISOR: exec_cmd: nio create_tap tap-9fc7d915-26c2-453c-8f9a-36705b35e225 tap0 
Nov 26 22:02:24.273 HYPERVISOR: exec_cmd: vm slot_add_nio_binding ESW1 1 1 tap-9fc7d915-26c2-453c-8f9a-36705b35e225 
Nov 26 22:02:24.273 HYPERVISOR: exec_cmd: vm get_status ESW1 
Nov 26 22:02:24.357 HYPERVISOR: exec_cmd: nio create_udp udp-37d1a379-e2ff-44c0-825c-95d87e564652 15005 127.0.0.1 15001 
Nov 26 22:02:24.357 HYPERVISOR: exec_cmd: vm slot_add_nio_binding ESW1 1 0 udp-37d1a379-e2ff-44c0-825c-95d87e564652 
Nov 26 22:02:24.357 HYPERVISOR: exec_cmd: vm get_status ESW1 
Nov 26 22:02:40.388 HYPERVISOR: exec_cmd: vm get_status ESW1 
Nov 26 22:02:40.389 HYPERVISOR: exec_cmd: vm extract_config ESW1 
Nov 26 22:02:40.390 HYPERVISOR: exec_cmd: vm delete ESW1 
Nov 26 22:02:40.390 VM: VM ESW1 destroyed.
Nov 26 22:02:40.391 HYPERVISOR: exec_cmd: hypervisor stop 
Nov 26 22:02:40.702 HYPERVISOR: Stopped.
Nov 26 22:02:40.702 GENERAL: reset done.
