Nov 26 20:44:10.175 HYPERVISOR: Release 0.2.17-amd64/Linux (tag 2017072410)
Nov 26 20:44:10.175 HYPERVISOR: Started on IP = 127.0.0.1, TCP port = 52611.
Nov 26 20:44:10.181 HYPERVISOR: exec_cmd: hypervisor version 
Nov 26 20:44:10.182 HYPERVISOR: exec_cmd: hypervisor working_dir /media/actionmystique/SAMSUNG5-VMs/Labs/GNS3/Redistribution/project-files/dynamips 
Nov 26 20:44:10.182 GENERAL: working_dir=/media/actionmystique/SAMSUNG5-VMs/Labs/GNS3/Redistribution/project-files/dynamips
Nov 26 20:44:10.182 HYPERVISOR: exec_cmd: vm create R2 3 c7200 
Nov 26 20:44:10.182 VM: VM R2 created.
Nov 26 20:44:10.183 HYPERVISOR: exec_cmd: vm set_con_tcp_port R2 2002 
Nov 26 20:44:10.186 HYPERVISOR: exec_cmd: vm set_aux_tcp_port R2 2102 
Nov 26 20:44:10.197 HYPERVISOR: exec_cmd: c7200 get_mac_addr R2 
Nov 26 20:44:10.199 HYPERVISOR: exec_cmd: vm get_status R2 
Nov 26 20:44:10.201 HYPERVISOR: exec_cmd: vm slot_add_binding R2 0 0 C7200-IO-FE 
Nov 26 20:44:10.203 HYPERVISOR: exec_cmd: vm get_status R2 
Nov 26 20:44:10.204 HYPERVISOR: exec_cmd: vm slot_remove_binding R2 0 0 
Nov 26 20:44:10.205 HYPERVISOR: exec_cmd: vm get_status R2 
Nov 26 20:44:10.206 HYPERVISOR: exec_cmd: vm slot_add_binding R2 0 0 C7200-IO-GE-E 
Nov 26 20:44:10.208 HYPERVISOR: exec_cmd: vm get_status R2 
Nov 26 20:44:10.210 HYPERVISOR: exec_cmd: vm slot_add_binding R2 2 0 PA-GE 
Nov 26 20:44:10.211 HYPERVISOR: exec_cmd: vm set_ram R2 512 
Nov 26 20:44:10.212 HYPERVISOR: exec_cmd: vm get_status R2 
Nov 26 20:44:10.214 HYPERVISOR: exec_cmd: vm set_idle_pc R2 0x60188e14 
Nov 26 20:44:10.215 HYPERVISOR: exec_cmd: vm get_status R2 
Nov 26 20:44:10.217 HYPERVISOR: exec_cmd: vm slot_add_binding R2 1 0 PA-8T 
Nov 26 20:44:10.219 HYPERVISOR: exec_cmd: vm set_ios R2 /media/actionmystique/SAMSUNG5-VMs/Images/GNS3/IOS/c7200-adventerprisek9-mz.152-4.M2.image 
Nov 26 20:44:10.221 HYPERVISOR: exec_cmd: vm set_config R2 configs/i3_startup-config.cfg 
Nov 26 20:44:11.174 HYPERVISOR: exec_cmd: vm extract_config R2 
Nov 26 20:44:11.225 HYPERVISOR: exec_cmd: nio create_udp udp-55bb7fbe-9d73-415f-a544-4214d576db65 15007 127.0.0.1 15006 
Nov 26 20:44:11.225 HYPERVISOR: exec_cmd: vm slot_add_nio_binding R2 1 0 udp-55bb7fbe-9d73-415f-a544-4214d576db65 
Nov 26 20:44:11.226 HYPERVISOR: exec_cmd: vm get_status R2 
Nov 26 20:44:11.321 HYPERVISOR: exec_cmd: nio create_udp udp-911dadb9-3983-4967-bc98-3f0703bcf1fa 15017 127.0.0.1 15016 
Nov 26 20:44:11.321 HYPERVISOR: exec_cmd: vm slot_add_nio_binding R2 0 0 udp-911dadb9-3983-4967-bc98-3f0703bcf1fa 
Nov 26 20:44:11.323 HYPERVISOR: exec_cmd: vm get_status R2 
Nov 26 20:44:11.369 HYPERVISOR: exec_cmd: nio create_udp udp-569391b0-a3f2-40d3-ab2c-7ae99cff82ab 15019 127.0.0.1 15022 
Nov 26 20:44:11.369 HYPERVISOR: exec_cmd: vm slot_add_nio_binding R2 2 0 udp-569391b0-a3f2-40d3-ab2c-7ae99cff82ab 
Nov 26 20:44:11.370 HYPERVISOR: exec_cmd: vm get_status R2 
Nov 26 20:44:11.492 HYPERVISOR: exec_cmd: nio create_udp udp-ae2ab1d3-2124-4e89-9b43-7ca9b89af713 15031 127.0.0.1 15033 
Nov 26 20:44:11.493 HYPERVISOR: exec_cmd: vm slot_add_nio_binding R2 1 1 udp-ae2ab1d3-2124-4e89-9b43-7ca9b89af713 
Nov 26 20:44:11.493 HYPERVISOR: exec_cmd: vm get_status R2 
Nov 26 20:44:11.646 HYPERVISOR: exec_cmd: nio create_udp udp-b838cfc9-dbce-45d1-ac96-d6e9987a9eb8 15046 127.0.0.1 15047 
Nov 26 20:44:11.650 HYPERVISOR: exec_cmd: vm slot_add_nio_binding R2 1 2 udp-b838cfc9-dbce-45d1-ac96-d6e9987a9eb8 
Nov 26 20:44:11.651 HYPERVISOR: exec_cmd: vm get_status R2 
Nov 26 20:44:47.079 HYPERVISOR: exec_cmd: vm extract_config R2 
Nov 26 20:45:10.990 HYPERVISOR: exec_cmd: vm get_status R2 
Nov 26 20:45:10.995 HYPERVISOR: exec_cmd: vm extract_config R2 
Nov 26 20:45:10.999 HYPERVISOR: exec_cmd: vm delete R2 
Nov 26 20:45:10.999 VM: VM R2 destroyed.
Nov 26 20:45:11.002 HYPERVISOR: exec_cmd: hypervisor stop 
Nov 26 20:45:11.240 HYPERVISOR: Stopped.
Nov 26 20:45:11.240 GENERAL: reset done.
