Nov 27 15:45:20.519 HYPERVISOR: Release 0.2.17-amd64/Linux (tag 2017072410)
Nov 27 15:45:20.519 HYPERVISOR: Started on IP = 127.0.0.1, TCP port = 37809.
Nov 27 15:45:20.530 HYPERVISOR: exec_cmd: hypervisor version 
Nov 27 15:45:20.531 HYPERVISOR: exec_cmd: hypervisor working_dir /media/actionmystique/SAMSUNG5-VMs/Labs/GNS3/git-Public-Labs-Collection/CCNP/TBSHOOT/L2-Technologies/EtherChannel/L2/Jean-Christophe_Manciot/1+/TT 1-solutions-linux/project-files/dynamips 
Nov 27 15:45:20.531 GENERAL: working_dir=/media/actionmystique/SAMSUNG5-VMs/Labs/GNS3/git-Public-Labs-Collection/CCNP/TBSHOOT/L2-Technologies/EtherChannel/L2/Jean-Christophe_Manciot/1+/TT 1-solutions-linux/project-files/dynamips
Nov 27 15:45:20.532 HYPERVISOR: exec_cmd: vm create SW2 2 c3725 
Nov 27 15:45:20.532 VM: VM SW2 created.
Nov 27 15:45:20.532 HYPERVISOR: exec_cmd: vm set_con_tcp_port SW2 2002 
Nov 27 15:45:20.533 HYPERVISOR: exec_cmd: c3725 get_mac_addr SW2 
Nov 27 15:45:20.533 HYPERVISOR: exec_cmd: c3725 set_mac_addr SW2 eeee.eeee.eeee 
Nov 27 15:45:20.534 HYPERVISOR: exec_cmd: vm get_status SW2 
Nov 27 15:45:20.535 HYPERVISOR: exec_cmd: vm slot_add_binding SW2 1 0 NM-16ESW 
Nov 27 15:45:20.535 HYPERVISOR: exec_cmd: vm get_status SW2 
Nov 27 15:45:20.536 HYPERVISOR: exec_cmd: vm set_idle_pc SW2 0x60c05928 
Nov 27 15:45:20.537 HYPERVISOR: exec_cmd: vm slot_add_binding SW2 0 16 WIC-2T 
Nov 27 15:45:20.538 HYPERVISOR: exec_cmd: vm set_ios SW2 /media/actionmystique/SAMSUNG5-VMs/Images/GNS3/IOS/c3725-adventerprisek9-mz.124-15.T10.image 
Nov 27 15:45:20.538 HYPERVISOR: exec_cmd: vm set_exec_area SW2 16 
Nov 27 15:45:20.539 HYPERVISOR: exec_cmd: vm set_disk0 SW2 1 
Nov 27 15:45:20.540 HYPERVISOR: exec_cmd: vm set_nvram SW2 256 
Nov 27 15:45:20.542 HYPERVISOR: exec_cmd: vm set_config SW2 configs/i2_startup-config.cfg 
Nov 27 15:45:20.543 HYPERVISOR: exec_cmd: vm set_config SW2 configs/i2_startup-config.cfg configs/i2_private-config.cfg 
Nov 27 15:45:20.706 HYPERVISOR: exec_cmd: nio create_udp udp-2c6c7cb5-2887-462d-bbe4-22e3e1ae3347 15000 127.0.0.1 15001 
Nov 27 15:45:20.707 HYPERVISOR: exec_cmd: vm slot_add_nio_binding SW2 1 0 udp-2c6c7cb5-2887-462d-bbe4-22e3e1ae3347 
Nov 27 15:45:20.707 HYPERVISOR: exec_cmd: vm get_status SW2 
Nov 27 15:45:20.740 HYPERVISOR: exec_cmd: nio create_udp udp-08af4229-9350-4820-926a-1fdd990a8419 15002 127.0.0.1 15003 
Nov 27 15:45:20.740 HYPERVISOR: exec_cmd: vm slot_add_nio_binding SW2 1 2 udp-08af4229-9350-4820-926a-1fdd990a8419 
Nov 27 15:45:20.741 HYPERVISOR: exec_cmd: vm get_status SW2 
Nov 27 15:45:20.792 HYPERVISOR: exec_cmd: nio create_udp udp-14e4ed1d-4ffc-48da-8ecc-e31a3f0fa39f 15008 127.0.0.1 15009 
Nov 27 15:45:20.796 HYPERVISOR: exec_cmd: vm slot_add_nio_binding SW2 1 1 udp-14e4ed1d-4ffc-48da-8ecc-e31a3f0fa39f 
Nov 27 15:45:20.796 HYPERVISOR: exec_cmd: vm get_status SW2 
