Nov 27 15:45:28.741 HYPERVISOR: Release 0.2.17-amd64/Linux (tag 2017072410)
Nov 27 15:45:28.741 HYPERVISOR: Started on IP = 127.0.0.1, TCP port = 59943.
Nov 27 15:45:28.761 HYPERVISOR: exec_cmd: hypervisor version 
Nov 27 15:45:28.761 HYPERVISOR: exec_cmd: hypervisor working_dir /media/actionmystique/SAMSUNG5-VMs/Labs/GNS3/TT 1-solutions-linux-/project-files/dynamips 
Nov 27 15:45:28.761 GENERAL: working_dir=/media/actionmystique/SAMSUNG5-VMs/Labs/GNS3/TT 1-solutions-linux-/project-files/dynamips
Nov 27 15:45:28.762 HYPERVISOR: exec_cmd: vm create SW1 1 c3725 
Nov 27 15:45:28.762 VM: VM SW1 created.
Nov 27 15:45:28.763 HYPERVISOR: exec_cmd: vm set_con_tcp_port SW1 2001 
Nov 27 15:45:28.764 HYPERVISOR: exec_cmd: c3725 get_mac_addr SW1 
Nov 27 15:45:28.765 HYPERVISOR: exec_cmd: c3725 set_mac_addr SW1 aaaa.aaaa.aaaa 
Nov 27 15:45:28.766 HYPERVISOR: exec_cmd: vm get_status SW1 
Nov 27 15:45:28.767 HYPERVISOR: exec_cmd: vm slot_add_binding SW1 1 0 NM-16ESW 
Nov 27 15:45:28.768 HYPERVISOR: exec_cmd: vm get_status SW1 
Nov 27 15:45:28.769 HYPERVISOR: exec_cmd: vm set_idle_pc SW1 0x60c05928 
Nov 27 15:45:28.770 HYPERVISOR: exec_cmd: vm slot_add_binding SW1 0 16 WIC-2T 
Nov 27 15:45:28.771 HYPERVISOR: exec_cmd: vm set_ios SW1 /media/actionmystique/SAMSUNG5-VMs/Images/GNS3/IOS/c3725-adventerprisek9-mz.124-15.T10.image 
Nov 27 15:45:28.772 HYPERVISOR: exec_cmd: vm set_exec_area SW1 16 
Nov 27 15:45:28.773 HYPERVISOR: exec_cmd: vm set_disk0 SW1 1 
Nov 27 15:45:28.774 HYPERVISOR: exec_cmd: vm set_nvram SW1 256 
Nov 27 15:45:28.775 HYPERVISOR: exec_cmd: vm set_config SW1 configs/i1_startup-config.cfg 
Nov 27 15:45:28.776 HYPERVISOR: exec_cmd: vm set_config SW1 configs/i1_startup-config.cfg configs/i1_private-config.cfg 
Nov 27 15:45:28.877 HYPERVISOR: exec_cmd: nio create_null null-e8121b57-202d-4794-b52d-e83fe988cfb1 
Nov 27 15:45:28.879 HYPERVISOR: exec_cmd: vm slot_add_nio_binding SW1 1 0 null-e8121b57-202d-4794-b52d-e83fe988cfb1 
Nov 27 15:45:28.879 HYPERVISOR: exec_cmd: vm get_status SW1 
Nov 27 15:45:28.971 HYPERVISOR: exec_cmd: nio create_udp udp-503c120d-04f4-4366-bb14-700d939bdb36 15005 127.0.0.1 15004 
Nov 27 15:45:28.973 HYPERVISOR: exec_cmd: vm slot_add_nio_binding SW1 1 5 udp-503c120d-04f4-4366-bb14-700d939bdb36 
Nov 27 15:45:28.973 HYPERVISOR: exec_cmd: vm get_status SW1 
Nov 27 15:45:29.012 HYPERVISOR: exec_cmd: nio create_udp udp-f49e790e-892b-4338-9aa4-a3d40f83dde7 15006 127.0.0.1 15008 
Nov 27 15:45:29.012 HYPERVISOR: exec_cmd: vm slot_add_nio_binding SW1 1 6 udp-f49e790e-892b-4338-9aa4-a3d40f83dde7 
Nov 27 15:45:29.013 HYPERVISOR: exec_cmd: vm get_status SW1 
Nov 27 15:45:29.021 HYPERVISOR: exec_cmd: nio create_udp udp-11b245f2-79c9-42d1-8ebc-80d8ba237c70 15007 127.0.0.1 15009 
Nov 27 15:45:29.022 HYPERVISOR: exec_cmd: vm slot_add_nio_binding SW1 1 1 udp-11b245f2-79c9-42d1-8ebc-80d8ba237c70 
Nov 27 15:45:29.025 HYPERVISOR: exec_cmd: vm get_status SW1 
Nov 27 15:45:56.980 HYPERVISOR: exec_cmd: vm get_status SW1 
Nov 27 15:45:56.981 HYPERVISOR: exec_cmd: vm extract_config SW1 
Nov 27 15:45:56.983 HYPERVISOR: exec_cmd: vm delete SW1 
Nov 27 15:45:56.984 VM: VM SW1 destroyed.
Nov 27 15:45:56.985 HYPERVISOR: exec_cmd: hypervisor stop 
Nov 27 15:45:57.288 HYPERVISOR: Stopped.
Nov 27 15:45:57.288 GENERAL: reset done.
