Nov 26 21:04:08.317 HYPERVISOR: Release 0.2.17-amd64/Linux (tag 2017072410)
Nov 26 21:04:08.317 HYPERVISOR: Started on IP = 127.0.0.1, TCP port = 43907.
Nov 26 21:04:08.363 HYPERVISOR: exec_cmd: hypervisor version 
Nov 26 21:04:08.364 HYPERVISOR: exec_cmd: hypervisor working_dir /media/actionmystique/SAMSUNG5-VMs/Labs/GNS3/PVST+ GLBP/project-files/dynamips 
Nov 26 21:04:08.364 GENERAL: working_dir=/media/actionmystique/SAMSUNG5-VMs/Labs/GNS3/PVST+ GLBP/project-files/dynamips
Nov 26 21:04:08.366 HYPERVISOR: exec_cmd: vm create SW11 16 c3725 
Nov 26 21:04:08.366 VM: VM SW11 created.
Nov 26 21:04:08.367 HYPERVISOR: exec_cmd: vm set_con_tcp_port SW11 2023 
Nov 26 21:04:08.369 HYPERVISOR: exec_cmd: vm set_aux_tcp_port SW11 2523 
Nov 26 21:04:08.374 HYPERVISOR: exec_cmd: c3725 get_mac_addr SW11 
Nov 26 21:04:08.388 HYPERVISOR: exec_cmd: vm set_ios SW11 /media/actionmystique/SAMSUNG5-VMs/Images/GNS3/IOS/c3725-adventerprisek9-mz.124-15.T10.image 
Nov 26 21:04:08.389 HYPERVISOR: exec_cmd: vm set_ram SW11 256 
Nov 26 21:04:08.392 HYPERVISOR: exec_cmd: vm get_status SW11 
Nov 26 21:04:08.393 HYPERVISOR: exec_cmd: vm set_idle_pc SW11 0x6026b804 
Nov 26 21:04:08.394 HYPERVISOR: exec_cmd: vm get_status SW11 
Nov 26 21:04:08.401 HYPERVISOR: exec_cmd: vm slot_add_binding SW11 1 0 NM-16ESW 
Nov 26 21:04:08.406 HYPERVISOR: exec_cmd: vm set_config SW11 configs/i16_startup-config.cfg 
Nov 26 21:04:09.284 HYPERVISOR: exec_cmd: nio create_udp udp-f85e6034-e9f9-4851-98e4-42d673a4729e 30000 127.0.0.1 20000 
Nov 26 21:04:09.286 HYPERVISOR: exec_cmd: vm slot_add_nio_binding SW11 1 11 udp-f85e6034-e9f9-4851-98e4-42d673a4729e 
Nov 26 21:04:09.287 HYPERVISOR: exec_cmd: vm get_status SW11 
Nov 26 21:04:09.321 HYPERVISOR: exec_cmd: nio create_udp udp-f9886cf9-3c45-46db-bb75-864a783f8ab1 30001 127.0.0.1 20001 
Nov 26 21:04:09.321 HYPERVISOR: exec_cmd: vm slot_add_nio_binding SW11 1 12 udp-f9886cf9-3c45-46db-bb75-864a783f8ab1 
Nov 26 21:04:09.322 HYPERVISOR: exec_cmd: vm get_status SW11 
Nov 26 21:04:09.623 HYPERVISOR: exec_cmd: vm extract_config SW11 
Nov 26 21:04:10.153 HYPERVISOR: exec_cmd: nio create_udp udp-73461ca9-6f1e-4f36-8be6-3bf15bd57bca 15055 127.0.0.1 15053 
Nov 26 21:04:10.154 HYPERVISOR: exec_cmd: vm slot_add_nio_binding SW11 1 1 udp-73461ca9-6f1e-4f36-8be6-3bf15bd57bca 
Nov 26 21:04:10.154 HYPERVISOR: exec_cmd: vm get_status SW11 
Nov 26 21:04:10.181 HYPERVISOR: exec_cmd: nio create_udp udp-ce2dfe8f-e7a1-41b2-98cb-c8814f7ead7d 15056 127.0.0.1 15057 
Nov 26 21:04:10.184 HYPERVISOR: exec_cmd: vm slot_add_nio_binding SW11 1 2 udp-ce2dfe8f-e7a1-41b2-98cb-c8814f7ead7d 
Nov 26 21:04:10.185 HYPERVISOR: exec_cmd: vm get_status SW11 
Nov 26 21:04:10.195 HYPERVISOR: exec_cmd: nio create_udp udp-d407a083-707a-4098-ace7-e734e61b91dd 15059 127.0.0.1 15058 
Nov 26 21:04:10.199 HYPERVISOR: exec_cmd: vm slot_add_nio_binding SW11 1 3 udp-d407a083-707a-4098-ace7-e734e61b91dd 
Nov 26 21:04:10.200 HYPERVISOR: exec_cmd: vm get_status SW11 
Nov 26 21:04:10.206 HYPERVISOR: exec_cmd: nio create_udp udp-0c2eb4e6-e54a-40ec-9a90-f667e9435970 15060 127.0.0.1 15061 
Nov 26 21:04:10.210 HYPERVISOR: exec_cmd: vm slot_add_nio_binding SW11 1 5 udp-0c2eb4e6-e54a-40ec-9a90-f667e9435970 
Nov 26 21:04:10.211 HYPERVISOR: exec_cmd: vm get_status SW11 
Nov 26 21:04:36.147 HYPERVISOR: exec_cmd: vm get_status SW11 
Nov 26 21:04:36.152 HYPERVISOR: exec_cmd: vm extract_config SW11 
Nov 26 21:04:36.197 HYPERVISOR: exec_cmd: vm delete SW11 
Nov 26 21:04:36.197 VM: VM SW11 destroyed.
Nov 26 21:04:36.199 HYPERVISOR: exec_cmd: hypervisor stop 
Nov 26 21:04:36.374 HYPERVISOR: Stopped.
Nov 26 21:04:36.374 GENERAL: reset done.
