Nov 26 21:04:08.234 HYPERVISOR: Release 0.2.17-amd64/Linux (tag 2017072410)
Nov 26 21:04:08.234 HYPERVISOR: Started on IP = 127.0.0.1, TCP port = 48223.
Nov 26 21:04:08.267 HYPERVISOR: exec_cmd: hypervisor version 
Nov 26 21:04:08.268 HYPERVISOR: exec_cmd: hypervisor working_dir /media/actionmystique/SAMSUNG5-VMs/Labs/GNS3/PVST+ GLBP/project-files/dynamips 
Nov 26 21:04:08.268 GENERAL: working_dir=/media/actionmystique/SAMSUNG5-VMs/Labs/GNS3/PVST+ GLBP/project-files/dynamips
Nov 26 21:04:08.270 HYPERVISOR: exec_cmd: vm create Server_5122 13 c2691 
Nov 26 21:04:08.270 VM: VM Server_5122 created.
Nov 26 21:04:08.276 HYPERVISOR: exec_cmd: vm set_con_tcp_port Server_5122 2059 
Nov 26 21:04:08.290 HYPERVISOR: exec_cmd: vm set_aux_tcp_port Server_5122 2560 
Nov 26 21:04:08.292 HYPERVISOR: exec_cmd: c2691 get_mac_addr Server_5122 
Nov 26 21:04:08.295 HYPERVISOR: exec_cmd: vm set_ios Server_5122 /media/actionmystique/SAMSUNG5-VMs/Images/GNS3/IOS/c2691-adventerprisek9-mz.124-15.T7.bin 
Nov 26 21:04:08.296 HYPERVISOR: exec_cmd: vm set_ram Server_5122 192 
Nov 26 21:04:08.298 HYPERVISOR: exec_cmd: vm get_status Server_5122 
Nov 26 21:04:08.303 HYPERVISOR: exec_cmd: vm set_idle_pc Server_5122 0x60264748 
Nov 26 21:04:08.318 HYPERVISOR: exec_cmd: vm get_status Server_5122 
Nov 26 21:04:08.324 HYPERVISOR: exec_cmd: vm slot_add_binding Server_5122 1 0 NM-1FE-TX 
Nov 26 21:04:08.338 HYPERVISOR: exec_cmd: vm set_config Server_5122 configs/i13_startup-config.cfg 
Nov 26 21:04:09.619 HYPERVISOR: exec_cmd: vm extract_config Server_5122 
Nov 26 21:04:10.017 HYPERVISOR: exec_cmd: nio create_udp udp-0ba449c3-800e-4d08-b9f8-c96a54908292 15041 127.0.0.1 15039 
Nov 26 21:04:10.017 HYPERVISOR: exec_cmd: vm slot_add_nio_binding Server_5122 1 0 udp-0ba449c3-800e-4d08-b9f8-c96a54908292 
Nov 26 21:04:10.017 HYPERVISOR: exec_cmd: vm get_status Server_5122 
Nov 26 21:04:36.147 HYPERVISOR: exec_cmd: vm get_status Server_5122 
Nov 26 21:04:36.153 HYPERVISOR: exec_cmd: vm extract_config Server_5122 
Nov 26 21:04:36.159 HYPERVISOR: exec_cmd: vm delete Server_5122 
Nov 26 21:04:36.159 VM: VM Server_5122 destroyed.
Nov 26 21:04:36.162 HYPERVISOR: exec_cmd: hypervisor stop 
Nov 26 21:04:36.292 HYPERVISOR: Stopped.
Nov 26 21:04:36.292 GENERAL: reset done.
