Jan 11 11:10:08.865 HYPERVISOR: Release 0.2.14-x86/Windows (tag 2014092320)
Jan 11 11:10:08.865 HYPERVISOR: Started on IP = 127.0.0.1, TCP port = 7200.
Jan 11 11:10:09.204 HYPERVISOR: exec_cmd: hypervisor version 
Jan 11 11:10:09.204 HYPERVISOR: exec_cmd: hypervisor uuid 
Jan 11 11:10:09.204 HYPERVISOR: exec_cmd: hypervisor working_dir C:/Users/ActionMystique/GNS3/projects/CCNP-Security/FIREWALL/Jean-Christophe/1+/Data Center ASA - ASDM - AAA - VMs/Data Center ASA - ASDM - AAA - VMs-files\dynamips 
Jan 11 11:10:09.221 GENERAL: working_dir=C:/Users/ActionMystique/GNS3/projects/CCNP-Security/FIREWALL/Jean-Christophe/1+/Data Center ASA - ASDM - AAA - VMs/Data Center ASA - ASDM - AAA - VMs-files\dynamips
Jan 11 11:10:09.221 HYPERVISOR: exec_cmd: vm create SW1 1 c3725 
Jan 11 11:10:09.221 VM: VM SW1 created.
Jan 11 11:10:09.239 HYPERVISOR: exec_cmd: vm set_con_tcp_port SW1 2001 
Jan 11 11:10:09.239 HYPERVISOR: exec_cmd: vm set_aux_tcp_port SW1 2501 
Jan 11 11:10:09.239 HYPERVISOR: exec_cmd: c3725 get_mac_addr SW1 
Jan 11 11:10:09.239 HYPERVISOR: exec_cmd: vm set_ios SW1 C:\Users\ActionMystique\GNS3\images\IOS\c3725-adventerprisek9-mz.124-15.T10.image 
Jan 11 11:10:09.239 HYPERVISOR: exec_cmd: vm set_sparse_mem SW1 1 
Jan 11 11:10:09.239 HYPERVISOR: exec_cmd: vm set_ram_mmap SW1 1 
Jan 11 11:10:09.239 HYPERVISOR: exec_cmd: c3725 set_mac_addr SW1 c201.068c.0000 
Jan 11 11:10:09.239 HYPERVISOR: exec_cmd: vm create Ghost 0 c7200 
Jan 11 11:10:09.239 VM: VM Ghost created.
Jan 11 11:10:09.239 HYPERVISOR: exec_cmd: vm set_ios Ghost C:\Users\ActionMystique\GNS3\images\IOS\c3725-adventerprisek9-mz.124-15.T10.image 
Jan 11 11:10:09.239 HYPERVISOR: exec_cmd: vm set_ghost_status Ghost 1 
Jan 11 11:10:09.239 HYPERVISOR: exec_cmd: vm set_ghost_file Ghost c3725-adventerprisek9-mz.124-15.T10.image-128.ghost 
Jan 11 11:10:09.239 HYPERVISOR: exec_cmd: vm get_status Ghost 
Jan 11 11:10:09.239 HYPERVISOR: exec_cmd: vm start Ghost 
Jan 11 11:10:11.464 HYPERVISOR: exec_cmd: vm get_status Ghost 
Jan 11 11:10:11.464 HYPERVISOR: exec_cmd: vm stop Ghost 
Jan 11 11:10:11.624 VM: VM Ghost shutdown.
Jan 11 11:10:11.624 HYPERVISOR: exec_cmd: vm clean_delete Ghost 
Jan 11 11:10:11.624 VM: VM Ghost destroyed.
Jan 11 11:10:11.624 HYPERVISOR: exec_cmd: vm set_ghost_status SW1 2 
Jan 11 11:10:11.624 HYPERVISOR: exec_cmd: vm set_ghost_file SW1 c3725-adventerprisek9-mz.124-15.T10.image-128.ghost 
Jan 11 11:10:28.402 HYPERVISOR: exec_cmd: vm set_config SW1 configs\i1_startup-config.cfg 
Jan 11 11:10:28.402 HYPERVISOR: exec_cmd: vm get_status SW1 
Jan 11 11:10:28.402 HYPERVISOR: exec_cmd: vm set_idle_pc SW1 0x6148b5dc 
Jan 11 11:10:28.402 HYPERVISOR: exec_cmd: vm get_status SW1 
Jan 11 11:10:28.402 HYPERVISOR: exec_cmd: vm slot_add_binding SW1 1 0 NM-16ESW 
Jan 11 11:10:28.402 HYPERVISOR: exec_cmd: vm get_status SW1 
Jan 11 11:10:28.637 HYPERVISOR: exec_cmd: nio create_udp_auto nio_udp_auto0 127.0.0.1 10001 20000 
Jan 11 11:10:28.637 HYPERVISOR: exec_cmd: nio create_udp_auto nio_udp_auto1 127.0.0.1 10001 20000 
Jan 11 11:10:28.637 HYPERVISOR: exec_cmd: nio create_udp_auto nio_udp_auto4 127.0.0.1 10001 20000 
Jan 11 11:10:28.637 HYPERVISOR: exec_cmd: nio create_udp_auto nio_udp_auto6 127.0.0.1 10001 20000 
Jan 11 11:10:28.657 HYPERVISOR: exec_cmd: nio create_udp_auto nio_udp_auto8 127.0.0.1 10001 20000 
Jan 11 11:10:28.657 HYPERVISOR: exec_cmd: nio create_udp_auto nio_udp_auto10 127.0.0.1 10001 20000 
Jan 11 11:10:28.657 HYPERVISOR: exec_cmd: nio create_udp_auto nio_udp_auto12 127.0.0.1 10001 20000 
Jan 11 11:10:28.677 HYPERVISOR: exec_cmd: nio create_udp_auto nio_udp_auto14 127.0.0.1 10001 20000 
Jan 11 11:10:28.677 HYPERVISOR: exec_cmd: nio create_udp_auto nio_udp_auto16 127.0.0.1 10001 20000 
Jan 11 11:10:28.677 HYPERVISOR: exec_cmd: nio create_udp_auto nio_udp_auto18 127.0.0.1 10001 20000 
Jan 11 11:10:28.853 HYPERVISOR: exec_cmd: nio create_udp_auto nio_udp_auto38 127.0.0.1 10001 20000 
Jan 11 11:10:28.872 HYPERVISOR: exec_cmd: nio create_udp_auto nio_udp_auto40 127.0.0.1 10001 20000 
Jan 11 11:10:28.892 HYPERVISOR: exec_cmd: nio create_udp_auto nio_udp_auto42 127.0.0.1 10001 20000 
Jan 11 11:10:28.892 HYPERVISOR: exec_cmd: nio create_udp_auto nio_udp_auto44 127.0.0.1 10001 20000 
Jan 11 11:10:30.537 HYPERVISOR: exec_cmd: nio connect_udp_auto nio_udp_auto0 127.0.0.1 40003 
Jan 11 11:10:30.537 HYPERVISOR: exec_cmd: vm slot_add_nio_binding SW1 1 12 nio_udp_auto0 
Jan 11 11:10:30.537 HYPERVISOR: exec_cmd: vm get_status SW1 
Jan 11 11:10:30.556 HYPERVISOR: exec_cmd: nio connect_udp_auto nio_udp_auto1 127.0.0.1 40004 
Jan 11 11:10:30.556 HYPERVISOR: exec_cmd: vm slot_add_nio_binding SW1 1 13 nio_udp_auto1 
Jan 11 11:10:30.556 HYPERVISOR: exec_cmd: vm get_status SW1 
Jan 11 11:10:30.595 HYPERVISOR: exec_cmd: nio connect_udp_auto nio_udp_auto4 127.0.0.1 10006 
Jan 11 11:10:30.595 HYPERVISOR: exec_cmd: vm slot_add_nio_binding SW1 1 0 nio_udp_auto4 
Jan 11 11:10:30.595 HYPERVISOR: exec_cmd: vm get_status SW1 
Jan 11 11:10:30.615 HYPERVISOR: exec_cmd: nio connect_udp_auto nio_udp_auto6 127.0.0.1 10008 
Jan 11 11:10:30.615 HYPERVISOR: exec_cmd: vm slot_add_nio_binding SW1 1 4 nio_udp_auto6 
Jan 11 11:10:30.615 HYPERVISOR: exec_cmd: vm get_status SW1 
Jan 11 11:10:30.634 HYPERVISOR: exec_cmd: nio connect_udp_auto nio_udp_auto8 127.0.0.1 10010 
Jan 11 11:10:30.634 HYPERVISOR: exec_cmd: vm slot_add_nio_binding SW1 1 5 nio_udp_auto8 
Jan 11 11:10:30.654 HYPERVISOR: exec_cmd: vm get_status SW1 
Jan 11 11:10:30.674 HYPERVISOR: exec_cmd: nio connect_udp_auto nio_udp_auto10 127.0.0.1 10012 
Jan 11 11:10:30.674 HYPERVISOR: exec_cmd: vm slot_add_nio_binding SW1 1 6 nio_udp_auto10 
Jan 11 11:10:30.674 HYPERVISOR: exec_cmd: vm get_status SW1 
Jan 11 11:10:30.693 HYPERVISOR: exec_cmd: nio connect_udp_auto nio_udp_auto12 127.0.0.1 10014 
Jan 11 11:10:30.693 HYPERVISOR: exec_cmd: vm slot_add_nio_binding SW1 1 1 nio_udp_auto12 
Jan 11 11:10:30.693 HYPERVISOR: exec_cmd: vm get_status SW1 
Jan 11 11:10:30.713 HYPERVISOR: exec_cmd: nio connect_udp_auto nio_udp_auto14 127.0.0.1 10016 
Jan 11 11:10:30.713 HYPERVISOR: exec_cmd: vm slot_add_nio_binding SW1 1 11 nio_udp_auto14 
Jan 11 11:10:30.713 HYPERVISOR: exec_cmd: vm get_status SW1 
Jan 11 11:10:30.752 HYPERVISOR: exec_cmd: nio connect_udp_auto nio_udp_auto16 127.0.0.1 10018 
Jan 11 11:10:30.752 HYPERVISOR: exec_cmd: vm slot_add_nio_binding SW1 1 10 nio_udp_auto16 
Jan 11 11:10:30.752 HYPERVISOR: exec_cmd: vm get_status SW1 
Jan 11 11:10:30.772 HYPERVISOR: exec_cmd: nio connect_udp_auto nio_udp_auto18 127.0.0.1 10020 
Jan 11 11:10:30.772 HYPERVISOR: exec_cmd: vm slot_add_nio_binding SW1 1 2 nio_udp_auto18 
Jan 11 11:10:30.772 HYPERVISOR: exec_cmd: vm get_status SW1 
Jan 11 11:10:31.026 HYPERVISOR: exec_cmd: nio connect_udp_auto nio_udp_auto38 127.0.0.1 10040 
Jan 11 11:10:31.026 HYPERVISOR: exec_cmd: vm slot_add_nio_binding SW1 1 3 nio_udp_auto38 
Jan 11 11:10:31.026 HYPERVISOR: exec_cmd: vm get_status SW1 
Jan 11 11:10:31.046 HYPERVISOR: exec_cmd: nio connect_udp_auto nio_udp_auto40 127.0.0.1 10042 
Jan 11 11:10:31.046 HYPERVISOR: exec_cmd: vm slot_add_nio_binding SW1 1 7 nio_udp_auto40 
Jan 11 11:10:31.046 HYPERVISOR: exec_cmd: vm get_status SW1 
Jan 11 11:10:31.065 HYPERVISOR: exec_cmd: nio connect_udp_auto nio_udp_auto42 127.0.0.1 10044 
Jan 11 11:10:31.065 HYPERVISOR: exec_cmd: vm slot_add_nio_binding SW1 1 8 nio_udp_auto42 
Jan 11 11:10:31.065 HYPERVISOR: exec_cmd: vm get_status SW1 
Jan 11 11:10:31.104 HYPERVISOR: exec_cmd: nio connect_udp_auto nio_udp_auto44 127.0.0.1 10046 
Jan 11 11:10:31.104 HYPERVISOR: exec_cmd: vm slot_add_nio_binding SW1 1 9 nio_udp_auto44 
Jan 11 11:10:31.104 HYPERVISOR: exec_cmd: vm get_status SW1 
Jan 11 11:11:54.218 HYPERVISOR: exec_cmd: vm extract_config SW1 
Jan 11 11:22:55.874 HYPERVISOR: exec_cmd: vm extract_config SW1 
Jan 11 11:22:58.405 HYPERVISOR: Stopped.
Jan 11 11:22:58.405 VM: VM SW1 destroyed.
Jan 11 11:22:58.421 GENERAL: reset done.
