Nov 27 15:46:26.464 HYPERVISOR: Release 0.2.17-amd64/Linux (tag 2017072410)
Nov 27 15:46:26.464 HYPERVISOR: Started on IP = 127.0.0.1, TCP port = 37343.
Nov 27 15:46:26.484 HYPERVISOR: exec_cmd: hypervisor version 
Nov 27 15:46:26.485 HYPERVISOR: exec_cmd: hypervisor working_dir /media/actionmystique/SAMSUNG5-VMs/Labs/GNS3/TT 2-solutions-linux-/project-files/dynamips 
Nov 27 15:46:26.485 GENERAL: working_dir=/media/actionmystique/SAMSUNG5-VMs/Labs/GNS3/TT 2-solutions-linux-/project-files/dynamips
Nov 27 15:46:26.486 HYPERVISOR: exec_cmd: vm create SW1 1 c3725 
Nov 27 15:46:26.486 VM: VM SW1 created.
Nov 27 15:46:26.487 HYPERVISOR: exec_cmd: vm set_con_tcp_port SW1 2001 
Nov 27 15:46:26.488 HYPERVISOR: exec_cmd: c3725 get_mac_addr SW1 
Nov 27 15:46:26.489 HYPERVISOR: exec_cmd: c3725 set_mac_addr SW1 aaaa.aaaa.aaaa 
Nov 27 15:46:26.490 HYPERVISOR: exec_cmd: vm get_status SW1 
Nov 27 15:46:26.491 HYPERVISOR: exec_cmd: vm slot_add_binding SW1 1 0 NM-16ESW 
Nov 27 15:46:26.492 HYPERVISOR: exec_cmd: vm get_status SW1 
Nov 27 15:46:26.493 HYPERVISOR: exec_cmd: vm set_idle_pc SW1 0x6026b804 
Nov 27 15:46:26.494 HYPERVISOR: exec_cmd: vm slot_add_binding SW1 0 16 WIC-2T 
Nov 27 15:46:26.495 HYPERVISOR: exec_cmd: vm set_ios SW1 /media/actionmystique/SAMSUNG5-VMs/Images/GNS3/IOS/c3725-adventerprisek9-mz.124-15.T10.image 
Nov 27 15:46:26.496 HYPERVISOR: exec_cmd: vm set_exec_area SW1 16 
Nov 27 15:46:26.497 HYPERVISOR: exec_cmd: vm set_disk0 SW1 1 
Nov 27 15:46:26.498 HYPERVISOR: exec_cmd: vm set_nvram SW1 256 
Nov 27 15:46:26.499 HYPERVISOR: exec_cmd: vm set_config SW1 configs/i1_startup-config.cfg 
Nov 27 15:46:26.500 HYPERVISOR: exec_cmd: vm set_config SW1 configs/i1_startup-config.cfg configs/i1_private-config.cfg 
Nov 27 15:46:26.601 HYPERVISOR: exec_cmd: nio create_null null-4c0e7775-bd50-4801-8597-21c9ee38907a 
Nov 27 15:46:26.603 HYPERVISOR: exec_cmd: vm slot_add_nio_binding SW1 1 0 null-4c0e7775-bd50-4801-8597-21c9ee38907a 
Nov 27 15:46:26.608 HYPERVISOR: exec_cmd: vm get_status SW1 
Nov 27 15:46:26.704 HYPERVISOR: exec_cmd: nio create_udp udp-be77d668-34a7-4e8d-9cb0-0145e3d11b10 15005 127.0.0.1 15004 
Nov 27 15:46:26.706 HYPERVISOR: exec_cmd: vm slot_add_nio_binding SW1 1 1 udp-be77d668-34a7-4e8d-9cb0-0145e3d11b10 
Nov 27 15:46:26.707 HYPERVISOR: exec_cmd: vm get_status SW1 
Nov 27 15:46:26.741 HYPERVISOR: exec_cmd: nio create_udp udp-91d00506-169f-410c-b895-e7bb3098c668 15006 127.0.0.1 15008 
Nov 27 15:46:26.741 HYPERVISOR: exec_cmd: vm slot_add_nio_binding SW1 1 5 udp-91d00506-169f-410c-b895-e7bb3098c668 
Nov 27 15:46:26.742 HYPERVISOR: exec_cmd: vm get_status SW1 
Nov 27 15:46:26.756 HYPERVISOR: exec_cmd: nio create_udp udp-5179b81d-f35d-4cd9-a53b-7be34166d632 15007 127.0.0.1 15009 
Nov 27 15:46:26.757 HYPERVISOR: exec_cmd: vm slot_add_nio_binding SW1 1 6 udp-5179b81d-f35d-4cd9-a53b-7be34166d632 
Nov 27 15:46:26.757 HYPERVISOR: exec_cmd: vm get_status SW1 
Nov 27 15:46:43.512 HYPERVISOR: exec_cmd: vm get_status SW1 
Nov 27 15:46:43.513 HYPERVISOR: exec_cmd: vm extract_config SW1 
Nov 27 15:46:43.516 HYPERVISOR: exec_cmd: vm delete SW1 
Nov 27 15:46:43.516 VM: VM SW1 destroyed.
Nov 27 15:46:43.518 HYPERVISOR: exec_cmd: hypervisor stop 
Nov 27 15:46:44.000 HYPERVISOR: Stopped.
Nov 27 15:46:44.001 GENERAL: reset done.
