Nov 27 15:46:26.458 HYPERVISOR: Release 0.2.17-amd64/Linux (tag 2017072410)
Nov 27 15:46:26.458 HYPERVISOR: Started on IP = 127.0.0.1, TCP port = 37187.
Nov 27 15:46:26.484 HYPERVISOR: exec_cmd: hypervisor version 
Nov 27 15:46:26.485 HYPERVISOR: exec_cmd: hypervisor working_dir /media/actionmystique/SAMSUNG5-VMs/Labs/GNS3/TT 2-solutions-linux-/project-files/dynamips 
Nov 27 15:46:26.485 GENERAL: working_dir=/media/actionmystique/SAMSUNG5-VMs/Labs/GNS3/TT 2-solutions-linux-/project-files/dynamips
Nov 27 15:46:26.486 HYPERVISOR: exec_cmd: vm create SW2 2 c3725 
Nov 27 15:46:26.486 VM: VM SW2 created.
Nov 27 15:46:26.487 HYPERVISOR: exec_cmd: vm set_con_tcp_port SW2 2002 
Nov 27 15:46:26.488 HYPERVISOR: exec_cmd: c3725 get_mac_addr SW2 
Nov 27 15:46:26.488 HYPERVISOR: exec_cmd: c3725 set_mac_addr SW2 eeee.eeee.eeee 
Nov 27 15:46:26.490 HYPERVISOR: exec_cmd: vm get_status SW2 
Nov 27 15:46:26.491 HYPERVISOR: exec_cmd: vm slot_add_binding SW2 1 0 NM-16ESW 
Nov 27 15:46:26.492 HYPERVISOR: exec_cmd: vm get_status SW2 
Nov 27 15:46:26.493 HYPERVISOR: exec_cmd: vm set_idle_pc SW2 0x6026b804 
Nov 27 15:46:26.494 HYPERVISOR: exec_cmd: vm slot_add_binding SW2 0 16 WIC-2T 
Nov 27 15:46:26.495 HYPERVISOR: exec_cmd: vm set_ios SW2 /media/actionmystique/SAMSUNG5-VMs/Images/GNS3/IOS/c3725-adventerprisek9-mz.124-15.T10.image 
Nov 27 15:46:26.496 HYPERVISOR: exec_cmd: vm set_exec_area SW2 16 
Nov 27 15:46:26.497 HYPERVISOR: exec_cmd: vm set_disk0 SW2 1 
Nov 27 15:46:26.498 HYPERVISOR: exec_cmd: vm set_nvram SW2 256 
Nov 27 15:46:26.499 HYPERVISOR: exec_cmd: vm set_config SW2 configs/i2_startup-config.cfg 
Nov 27 15:46:26.500 HYPERVISOR: exec_cmd: vm set_config SW2 configs/i2_startup-config.cfg configs/i2_private-config.cfg 
Nov 27 15:46:26.689 HYPERVISOR: exec_cmd: nio create_udp udp-9c2bf25f-a849-4eb9-8bad-bca703076d88 15002 127.0.0.1 15001 
Nov 27 15:46:26.689 HYPERVISOR: exec_cmd: vm slot_add_nio_binding SW2 1 2 udp-9c2bf25f-a849-4eb9-8bad-bca703076d88 
Nov 27 15:46:26.690 HYPERVISOR: exec_cmd: vm get_status SW2 
Nov 27 15:46:26.701 HYPERVISOR: exec_cmd: nio create_udp udp-f963c4d2-0e52-489c-b623-e37e13b06dd1 15003 127.0.0.1 15000 
Nov 27 15:46:26.705 HYPERVISOR: exec_cmd: vm slot_add_nio_binding SW2 1 0 udp-f963c4d2-0e52-489c-b623-e37e13b06dd1 
Nov 27 15:46:26.706 HYPERVISOR: exec_cmd: vm get_status SW2 
Nov 27 15:46:26.713 HYPERVISOR: exec_cmd: nio create_udp udp-d8d2b89d-6239-42d6-9a2d-3d384b0aace3 15004 127.0.0.1 15005 
Nov 27 15:46:26.718 HYPERVISOR: exec_cmd: vm slot_add_nio_binding SW2 1 1 udp-d8d2b89d-6239-42d6-9a2d-3d384b0aace3 
Nov 27 15:46:26.719 HYPERVISOR: exec_cmd: vm get_status SW2 
Nov 27 15:46:43.512 HYPERVISOR: exec_cmd: vm get_status SW2 
Nov 27 15:46:43.513 HYPERVISOR: exec_cmd: vm extract_config SW2 
Nov 27 15:46:43.517 HYPERVISOR: exec_cmd: vm delete SW2 
Nov 27 15:46:43.517 VM: VM SW2 destroyed.
Nov 27 15:46:43.518 HYPERVISOR: exec_cmd: hypervisor stop 
Nov 27 15:46:44.000 HYPERVISOR: Stopped.
Nov 27 15:46:44.000 GENERAL: reset done.
