Nov 26 21:04:39.912 HYPERVISOR: Release 0.2.17-amd64/Linux (tag 2017072410)
Nov 26 21:04:39.912 HYPERVISOR: Started on IP = 127.0.0.1, TCP port = 41511.
Nov 26 21:04:39.939 HYPERVISOR: exec_cmd: hypervisor version 
Nov 26 21:04:39.945 HYPERVISOR: exec_cmd: hypervisor working_dir /media/actionmystique/SAMSUNG5-VMs/Labs/GNS3/PVST+ EtherChannel VRRP/project-files/dynamips 
Nov 26 21:04:39.945 GENERAL: working_dir=/media/actionmystique/SAMSUNG5-VMs/Labs/GNS3/PVST+ EtherChannel VRRP/project-files/dynamips
Nov 26 21:04:39.960 HYPERVISOR: exec_cmd: vm create SW8 8 c3725 
Nov 26 21:04:39.960 VM: VM SW8 created.
Nov 26 21:04:39.963 HYPERVISOR: exec_cmd: vm set_con_tcp_port SW8 2015 
Nov 26 21:04:39.965 HYPERVISOR: exec_cmd: vm set_aux_tcp_port SW8 2515 
Nov 26 21:04:39.966 HYPERVISOR: exec_cmd: c3725 get_mac_addr SW8 
Nov 26 21:04:39.967 HYPERVISOR: exec_cmd: vm set_ios SW8 /media/actionmystique/SAMSUNG5-VMs/Images/GNS3/IOS/c3725-adventerprisek9-mz.124-15.T10.image 
Nov 26 21:04:39.968 HYPERVISOR: exec_cmd: vm set_ram SW8 256 
Nov 26 21:04:39.969 HYPERVISOR: exec_cmd: vm get_status SW8 
Nov 26 21:04:39.971 HYPERVISOR: exec_cmd: vm set_idle_pc SW8 0x6026b804 
Nov 26 21:04:39.972 HYPERVISOR: exec_cmd: vm get_status SW8 
Nov 26 21:04:39.975 HYPERVISOR: exec_cmd: vm slot_add_binding SW8 1 0 NM-16ESW 
Nov 26 21:04:39.981 HYPERVISOR: exec_cmd: vm set_config SW8 configs/i8_startup-config.cfg 
Nov 26 21:04:40.910 HYPERVISOR: exec_cmd: vm extract_config SW8 
Nov 26 21:04:41.212 HYPERVISOR: exec_cmd: nio create_udp udp-97b1587f-b5a9-4a2f-b02c-2d42f522cf00 15029 127.0.0.1 15026 
Nov 26 21:04:41.212 HYPERVISOR: exec_cmd: vm slot_add_nio_binding SW8 1 11 udp-97b1587f-b5a9-4a2f-b02c-2d42f522cf00 
Nov 26 21:04:41.213 HYPERVISOR: exec_cmd: vm get_status SW8 
Nov 26 21:04:41.228 HYPERVISOR: exec_cmd: nio create_udp udp-2e281448-44eb-4881-b81c-413143cf0788 15031 127.0.0.1 15032 
Nov 26 21:04:41.229 HYPERVISOR: exec_cmd: vm slot_add_nio_binding SW8 1 3 udp-2e281448-44eb-4881-b81c-413143cf0788 
Nov 26 21:04:41.229 HYPERVISOR: exec_cmd: vm get_status SW8 
Nov 26 21:04:41.253 HYPERVISOR: exec_cmd: nio create_udp udp-f958a977-a84b-4eee-a8cd-5f87476cb805 15033 127.0.0.1 15030 
Nov 26 21:04:41.253 HYPERVISOR: exec_cmd: vm slot_add_nio_binding SW8 1 2 udp-f958a977-a84b-4eee-a8cd-5f87476cb805 
Nov 26 21:04:41.253 HYPERVISOR: exec_cmd: vm get_status SW8 
Nov 26 21:04:41.260 HYPERVISOR: exec_cmd: nio create_udp udp-0e920725-54fa-43cd-a780-28966d1e47b5 15034 127.0.0.1 15035 
Nov 26 21:04:41.261 HYPERVISOR: exec_cmd: vm slot_add_nio_binding SW8 1 1 udp-0e920725-54fa-43cd-a780-28966d1e47b5 
Nov 26 21:04:41.261 HYPERVISOR: exec_cmd: vm get_status SW8 
Nov 26 21:04:41.454 HYPERVISOR: exec_cmd: nio create_udp udp-b7a9ed93-d694-4ccf-b29c-2d15095ed7a7 15053 127.0.0.1 15052 
Nov 26 21:04:41.455 HYPERVISOR: exec_cmd: vm slot_add_nio_binding SW8 1 4 udp-b7a9ed93-d694-4ccf-b29c-2d15095ed7a7 
Nov 26 21:04:41.455 HYPERVISOR: exec_cmd: vm get_status SW8 
Nov 26 21:54:01.423 HYPERVISOR: exec_cmd: vm get_status SW8 
Nov 26 21:54:01.427 HYPERVISOR: exec_cmd: vm extract_config SW8 
Nov 26 21:54:01.475 HYPERVISOR: exec_cmd: vm delete SW8 
Nov 26 21:54:01.475 VM: VM SW8 destroyed.
Nov 26 21:54:01.478 HYPERVISOR: exec_cmd: hypervisor stop 
Nov 26 21:54:01.588 HYPERVISOR: Stopped.
Nov 26 21:54:01.588 GENERAL: reset done.
