Nov 27 16:25:55.585 HYPERVISOR: Release 0.2.17-amd64/Linux (tag 2017072410)
Nov 27 16:25:55.585 HYPERVISOR: Started on IP = 127.0.0.1, TCP port = 52329.
Nov 27 16:25:55.615 HYPERVISOR: exec_cmd: hypervisor version 
Nov 27 16:25:55.616 HYPERVISOR: exec_cmd: hypervisor working_dir /media/actionmystique/SAMSUNG5-VMs/Labs/GNS3/TT 1-solutions-linux-/project-files/dynamips 
Nov 27 16:25:55.616 GENERAL: working_dir=/media/actionmystique/SAMSUNG5-VMs/Labs/GNS3/TT 1-solutions-linux-/project-files/dynamips
Nov 27 16:25:55.616 HYPERVISOR: exec_cmd: vm create ESW1 1 c3725 
Nov 27 16:25:55.616 VM: VM ESW1 created.
Nov 27 16:25:55.617 HYPERVISOR: exec_cmd: vm set_con_tcp_port ESW1 2001 
Nov 27 16:25:55.618 HYPERVISOR: exec_cmd: vm set_aux_tcp_port ESW1 2501 
Nov 27 16:25:55.618 HYPERVISOR: exec_cmd: c3725 get_mac_addr ESW1 
Nov 27 16:25:55.619 HYPERVISOR: exec_cmd: vm set_nvram ESW1 256 
Nov 27 16:25:55.620 HYPERVISOR: exec_cmd: vm get_status ESW1 
Nov 27 16:25:55.620 HYPERVISOR: exec_cmd: vm set_idle_pc ESW1 0x6026b804 
Nov 27 16:25:55.621 HYPERVISOR: exec_cmd: c3725 set_mac_addr ESW1 c201.281a.0000 
Nov 27 16:25:55.623 HYPERVISOR: exec_cmd: vm get_status ESW1 
Nov 27 16:25:55.624 HYPERVISOR: exec_cmd: vm slot_add_binding ESW1 1 0 NM-16ESW 
Nov 27 16:25:55.625 HYPERVISOR: exec_cmd: vm set_disk0 ESW1 1 
Nov 27 16:25:55.625 HYPERVISOR: exec_cmd: vm set_ios ESW1 /media/actionmystique/SAMSUNG5-VMs/Images/GNS3/IOS/c3725-adventerprisek9-mz.124-15.T10.image 
Nov 27 16:25:55.626 HYPERVISOR: exec_cmd: vm slot_add_binding ESW1 0 16 WIC-2T 
Nov 27 16:25:55.627 HYPERVISOR: exec_cmd: vm set_config ESW1 configs/i1_startup-config.cfg 
Nov 27 16:25:55.628 HYPERVISOR: exec_cmd: vm set_config ESW1 configs/i1_startup-config.cfg configs/i1_private-config.cfg 
Nov 27 16:25:55.757 HYPERVISOR: exec_cmd: nio create_udp udp-c3eb059e-828d-45c8-b88d-24084240a155 15002 127.0.0.1 15003 
Nov 27 16:25:55.769 HYPERVISOR: exec_cmd: vm slot_add_nio_binding ESW1 1 0 udp-c3eb059e-828d-45c8-b88d-24084240a155 
Nov 27 16:25:55.781 HYPERVISOR: exec_cmd: vm get_status ESW1 
Nov 27 16:25:55.821 HYPERVISOR: exec_cmd: nio create_udp udp-fccb23e5-db96-42e7-a3b7-7e31d30fc15b 15007 127.0.0.1 15006 
Nov 27 16:25:55.822 HYPERVISOR: exec_cmd: vm slot_add_nio_binding ESW1 1 1 udp-fccb23e5-db96-42e7-a3b7-7e31d30fc15b 
Nov 27 16:25:55.822 HYPERVISOR: exec_cmd: vm get_status ESW1 
Nov 27 16:26:09.548 HYPERVISOR: exec_cmd: vm get_status ESW1 
Nov 27 16:26:09.550 HYPERVISOR: exec_cmd: vm extract_config ESW1 
Nov 27 16:26:09.551 HYPERVISOR: exec_cmd: vm delete ESW1 
Nov 27 16:26:09.551 VM: VM ESW1 destroyed.
Nov 27 16:26:09.552 HYPERVISOR: exec_cmd: hypervisor stop 
Nov 27 16:26:09.628 HYPERVISOR: Stopped.
Nov 27 16:26:09.628 GENERAL: reset done.
