Dec 04 11:07:56.945 HYPERVISOR: Release 0.2.17-amd64/Linux (tag 2017072410)
Dec 04 11:07:56.945 HYPERVISOR: Started on IP = 127.0.0.1, TCP port = 35751.
Dec 04 11:07:56.956 HYPERVISOR: exec_cmd: hypervisor version 
Dec 04 11:07:56.957 HYPERVISOR: exec_cmd: hypervisor working_dir /media/actionmystique/SAMSUNG5-VMs/Labs/GNS3/git-Public-Labs-Collection/CCNP/TBSHOOT/L3-Technologies/IPv6/Routing-Protocols/OSPFv3/Jean-Christophe_Manciot/1+/TT 2-solutions-linux/project-files/dynamips 
Dec 04 11:07:56.957 GENERAL: working_dir=/media/actionmystique/SAMSUNG5-VMs/Labs/GNS3/git-Public-Labs-Collection/CCNP/TBSHOOT/L3-Technologies/IPv6/Routing-Protocols/OSPFv3/Jean-Christophe_Manciot/1+/TT 2-solutions-linux/project-files/dynamips
Dec 04 11:07:56.958 HYPERVISOR: exec_cmd: vm create ESW4 4 c3725 
Dec 04 11:07:56.958 VM: VM ESW4 created.
Dec 04 11:07:56.958 HYPERVISOR: exec_cmd: vm set_con_tcp_port ESW4 2009 
Dec 04 11:07:56.959 HYPERVISOR: exec_cmd: c3725 get_mac_addr ESW4 
Dec 04 11:07:56.960 HYPERVISOR: exec_cmd: vm set_nvram ESW4 256 
Dec 04 11:07:56.960 HYPERVISOR: exec_cmd: vm set_ios ESW4 /media/actionmystique/SAMSUNG5-VMs/Images/GNS3/IOS/c3725-adventerprisek9-mz.124-15.T10.image 
Dec 04 11:07:56.960 HYPERVISOR: exec_cmd: c3725 set_mac_addr ESW4 c204.68ae.0000 
Dec 04 11:07:56.961 HYPERVISOR: exec_cmd: vm get_status ESW4 
Dec 04 11:07:56.961 HYPERVISOR: exec_cmd: vm slot_add_binding ESW4 1 0 NM-16ESW 
Dec 04 11:07:56.961 HYPERVISOR: exec_cmd: vm get_status ESW4 
Dec 04 11:07:56.962 HYPERVISOR: exec_cmd: vm set_idle_pc ESW4 0x60c05928 
Dec 04 11:07:56.962 HYPERVISOR: exec_cmd: vm set_disk0 ESW4 1 
Dec 04 11:07:56.962 HYPERVISOR: exec_cmd: vm slot_add_binding ESW4 0 16 WIC-2T 
Dec 04 11:07:56.963 HYPERVISOR: exec_cmd: vm set_config ESW4 configs/ios_base_startup-config.txt 
Dec 04 11:07:56.963 HYPERVISOR: exec_cmd: vm set_config ESW4 configs/ios_base_startup-config.txt configs/ios_base_private-config.txt 
Dec 04 11:07:57.263 HYPERVISOR: exec_cmd: nio create_udp udp-63a1bbbd-6d19-4dfc-9f02-292be9c99d11 15010 127.0.0.1 15011 
Dec 04 11:07:57.264 HYPERVISOR: exec_cmd: vm slot_add_nio_binding ESW4 1 0 udp-63a1bbbd-6d19-4dfc-9f02-292be9c99d11 
Dec 04 11:07:57.264 HYPERVISOR: exec_cmd: vm get_status ESW4 
Dec 04 11:07:57.272 HYPERVISOR: exec_cmd: nio create_udp udp-2072b81a-c844-44ab-9086-c9ea39d5606d 15013 127.0.0.1 15012 
Dec 04 11:07:57.272 HYPERVISOR: exec_cmd: vm slot_add_nio_binding ESW4 1 1 udp-2072b81a-c844-44ab-9086-c9ea39d5606d 
Dec 04 11:07:57.273 HYPERVISOR: exec_cmd: vm get_status ESW4 
