Nov 26 22:01:26.659 HYPERVISOR: Release 0.2.17-amd64/Linux (tag 2017072410)
Nov 26 22:01:26.659 HYPERVISOR: Started on IP = 127.0.0.1, TCP port = 33695.
Nov 26 22:01:26.693 HYPERVISOR: exec_cmd: hypervisor version 
Nov 26 22:01:26.693 HYPERVISOR: exec_cmd: hypervisor working_dir /media/actionmystique/SAMSUNG5-VMs/Labs/GNS3/TT 2-linux-/project-files/dynamips 
Nov 26 22:01:26.693 GENERAL: working_dir=/media/actionmystique/SAMSUNG5-VMs/Labs/GNS3/TT 2-linux-/project-files/dynamips
Nov 26 22:01:26.694 HYPERVISOR: exec_cmd: vm create ESW1 1 c3725 
Nov 26 22:01:26.694 VM: VM ESW1 created.
Nov 26 22:01:26.694 HYPERVISOR: exec_cmd: vm set_con_tcp_port ESW1 2004 
Nov 26 22:01:26.694 HYPERVISOR: exec_cmd: c3725 get_mac_addr ESW1 
Nov 26 22:01:26.695 HYPERVISOR: exec_cmd: vm slot_add_binding ESW1 0 16 WIC-2T 
Nov 26 22:01:26.695 HYPERVISOR: exec_cmd: vm get_status ESW1 
Nov 26 22:01:26.696 HYPERVISOR: exec_cmd: vm set_idle_pc ESW1 0x614ac27c 
Nov 26 22:01:26.696 HYPERVISOR: exec_cmd: vm set_nvram ESW1 256 
Nov 26 22:01:26.696 HYPERVISOR: exec_cmd: vm get_status ESW1 
Nov 26 22:01:26.697 HYPERVISOR: exec_cmd: vm slot_add_binding ESW1 1 0 NM-16ESW 
Nov 26 22:01:26.697 HYPERVISOR: exec_cmd: vm set_ios ESW1 /media/actionmystique/SAMSUNG5-VMs/Images/GNS3/IOS/c3725-adventerprisek9-mz.124-15.T10.image 
Nov 26 22:01:26.698 HYPERVISOR: exec_cmd: vm set_disk0 ESW1 1 
Nov 26 22:01:26.698 HYPERVISOR: exec_cmd: c3725 set_mac_addr ESW1 c201.1a63.0000 
Nov 26 22:01:26.698 HYPERVISOR: exec_cmd: vm set_config ESW1 configs/i1_startup-config.cfg 
Nov 26 22:01:26.699 HYPERVISOR: exec_cmd: vm set_config ESW1 configs/i1_startup-config.cfg configs/i1_private-config.cfg 
Nov 26 22:01:26.793 HYPERVISOR: exec_cmd: nio create_tap tap-8a240456-3923-4552-9201-60e200f87113 tap0 
Nov 26 22:01:26.794 HYPERVISOR: exec_cmd: vm slot_add_nio_binding ESW1 1 1 tap-8a240456-3923-4552-9201-60e200f87113 
Nov 26 22:01:26.794 HYPERVISOR: exec_cmd: vm get_status ESW1 
Nov 26 22:01:26.876 HYPERVISOR: exec_cmd: nio create_udp udp-ad58972f-4dab-4d6a-87e7-cb2b5f4725b5 15005 127.0.0.1 15001 
Nov 26 22:01:26.877 HYPERVISOR: exec_cmd: vm slot_add_nio_binding ESW1 1 0 udp-ad58972f-4dab-4d6a-87e7-cb2b5f4725b5 
Nov 26 22:01:26.877 HYPERVISOR: exec_cmd: vm get_status ESW1 
Nov 26 22:01:46.472 HYPERVISOR: exec_cmd: vm get_status ESW1 
Nov 26 22:01:46.473 HYPERVISOR: exec_cmd: vm extract_config ESW1 
Nov 26 22:01:46.474 HYPERVISOR: exec_cmd: vm delete ESW1 
Nov 26 22:01:46.474 VM: VM ESW1 destroyed.
Nov 26 22:01:46.474 HYPERVISOR: exec_cmd: hypervisor stop 
Nov 26 22:01:46.713 HYPERVISOR: Stopped.
Nov 26 22:01:46.713 GENERAL: reset done.
