Nov 27 16:23:32.744 HYPERVISOR: Release 0.2.17-amd64/Linux (tag 2017072410)
Nov 27 16:23:32.744 HYPERVISOR: Started on IP = 127.0.0.1, TCP port = 42167.
Nov 27 16:23:32.761 HYPERVISOR: exec_cmd: hypervisor version 
Nov 27 16:23:32.762 HYPERVISOR: exec_cmd: hypervisor working_dir /media/actionmystique/SAMSUNG5-VMs/Labs/GNS3/git-Public-Labs-Collection/CCNP/TBSHOOT/L3-Technologies/IPv4/High-Availability/VRRP/Jean-Christophe_Manciot/1+/TT 1-solutions-linux/project-files/dynamips 
Nov 27 16:23:32.762 GENERAL: working_dir=/media/actionmystique/SAMSUNG5-VMs/Labs/GNS3/git-Public-Labs-Collection/CCNP/TBSHOOT/L3-Technologies/IPv4/High-Availability/VRRP/Jean-Christophe_Manciot/1+/TT 1-solutions-linux/project-files/dynamips
Nov 27 16:23:32.764 HYPERVISOR: exec_cmd: vm create SW2 2 c3725 
Nov 27 16:23:32.764 VM: VM SW2 created.
Nov 27 16:23:32.765 HYPERVISOR: exec_cmd: vm set_con_tcp_port SW2 2002 
Nov 27 16:23:32.766 HYPERVISOR: exec_cmd: c3725 get_mac_addr SW2 
Nov 27 16:23:32.767 HYPERVISOR: exec_cmd: vm set_nvram SW2 256 
Nov 27 16:23:32.768 HYPERVISOR: exec_cmd: vm get_status SW2 
Nov 27 16:23:32.768 HYPERVISOR: exec_cmd: vm set_idle_pc SW2 0x60c056e4 
Nov 27 16:23:32.769 HYPERVISOR: exec_cmd: c3725 set_mac_addr SW2 eeee.eeee.eeee 
Nov 27 16:23:32.770 HYPERVISOR: exec_cmd: vm set_exec_area SW2 16 
Nov 27 16:23:32.771 HYPERVISOR: exec_cmd: vm get_status SW2 
Nov 27 16:23:32.772 HYPERVISOR: exec_cmd: vm slot_add_binding SW2 1 0 NM-16ESW 
Nov 27 16:23:32.773 HYPERVISOR: exec_cmd: vm set_ios SW2 /media/actionmystique/SAMSUNG5-VMs/Images/GNS3/IOS/c3725-adventerprisek9-mz.124-15.T10.image 
Nov 27 16:23:32.775 HYPERVISOR: exec_cmd: vm slot_add_binding SW2 0 16 WIC-2T 
Nov 27 16:23:32.776 HYPERVISOR: exec_cmd: vm set_disk0 SW2 1 
Nov 27 16:23:32.777 HYPERVISOR: exec_cmd: vm set_config SW2 configs/i2_startup-config.cfg 
Nov 27 16:23:32.778 HYPERVISOR: exec_cmd: vm set_config SW2 configs/i2_startup-config.cfg configs/i2_private-config.cfg 
Nov 27 16:23:32.965 HYPERVISOR: exec_cmd: nio create_udp udp-9d069413-0b3a-4e9f-9cd0-f3800f902c37 15002 127.0.0.1 15001 
Nov 27 16:23:32.965 HYPERVISOR: exec_cmd: vm slot_add_nio_binding SW2 1 2 udp-9d069413-0b3a-4e9f-9cd0-f3800f902c37 
Nov 27 16:23:32.969 HYPERVISOR: exec_cmd: vm get_status SW2 
Nov 27 16:23:32.983 HYPERVISOR: exec_cmd: nio create_udp udp-99e2c8c6-c339-4bf9-adab-2d038a82168b 15004 127.0.0.1 15000 
Nov 27 16:23:32.985 HYPERVISOR: exec_cmd: vm slot_add_nio_binding SW2 1 0 udp-99e2c8c6-c339-4bf9-adab-2d038a82168b 
Nov 27 16:23:32.988 HYPERVISOR: exec_cmd: vm get_status SW2 
Nov 27 16:23:33.013 HYPERVISOR: exec_cmd: nio create_udp udp-31f2f9ed-e429-4fdb-b510-f9ab42a9362d 15005 127.0.0.1 15003 
Nov 27 16:23:33.013 HYPERVISOR: exec_cmd: vm slot_add_nio_binding SW2 1 1 udp-31f2f9ed-e429-4fdb-b510-f9ab42a9362d 
Nov 27 16:23:33.014 HYPERVISOR: exec_cmd: vm get_status SW2 
