Dec 04 11:16:26.159 HYPERVISOR: Release 0.2.17-amd64/Linux (tag 2017072410)
Dec 04 11:16:26.159 HYPERVISOR: Started on IP = 127.0.0.1, TCP port = 37781.
Dec 04 11:16:26.176 HYPERVISOR: exec_cmd: hypervisor version 
Dec 04 11:16:26.176 HYPERVISOR: exec_cmd: hypervisor working_dir /media/actionmystique/SAMSUNG5-VMs/Labs/GNS3/git-Public-Labs-Collection/CCNP/TBSHOOT/L3-Technologies/IPv6/Routing-Protocols/RIPng/Jean-Christophe_Manciot/1+/TT 3-solutions-linux/project-files/dynamips 
Dec 04 11:16:26.176 GENERAL: working_dir=/media/actionmystique/SAMSUNG5-VMs/Labs/GNS3/git-Public-Labs-Collection/CCNP/TBSHOOT/L3-Technologies/IPv6/Routing-Protocols/RIPng/Jean-Christophe_Manciot/1+/TT 3-solutions-linux/project-files/dynamips
Dec 04 11:16:26.177 HYPERVISOR: exec_cmd: vm create ESW2 2 c3725 
Dec 04 11:16:26.177 VM: VM ESW2 created.
Dec 04 11:16:26.178 HYPERVISOR: exec_cmd: vm set_con_tcp_port ESW2 2005 
Dec 04 11:16:26.179 HYPERVISOR: exec_cmd: c3725 get_mac_addr ESW2 
Dec 04 11:16:26.179 HYPERVISOR: exec_cmd: vm get_status ESW2 
Dec 04 11:16:26.180 HYPERVISOR: exec_cmd: vm slot_add_binding ESW2 1 0 NM-16ESW 
Dec 04 11:16:26.181 HYPERVISOR: exec_cmd: vm slot_add_binding ESW2 0 16 WIC-2T 
Dec 04 11:16:26.181 HYPERVISOR: exec_cmd: vm get_status ESW2 
Dec 04 11:16:26.182 HYPERVISOR: exec_cmd: vm set_idle_pc ESW2 0x6026b804 
Dec 04 11:16:26.183 HYPERVISOR: exec_cmd: vm set_disk0 ESW2 1 
Dec 04 11:16:26.183 HYPERVISOR: exec_cmd: vm set_nvram ESW2 256 
Dec 04 11:16:26.184 HYPERVISOR: exec_cmd: vm set_ios ESW2 /media/actionmystique/SAMSUNG5-VMs/Images/GNS3/IOS/c3725-adventerprisek9-mz.124-15.T10.image 
Dec 04 11:16:26.185 HYPERVISOR: exec_cmd: c3725 set_mac_addr ESW2 c202.1bd4.0000 
Dec 04 11:16:26.186 HYPERVISOR: exec_cmd: vm set_config ESW2 configs/ios_base_startup-config.txt 
Dec 04 11:16:26.187 HYPERVISOR: exec_cmd: vm set_config ESW2 configs/ios_base_startup-config.txt configs/ios_base_private-config.txt 
Dec 04 11:16:26.381 HYPERVISOR: exec_cmd: nio create_udp udp-955676fd-5259-4e3e-a2e6-0844f3c738fe 15008 127.0.0.1 15009 
Dec 04 11:16:26.381 HYPERVISOR: exec_cmd: vm slot_add_nio_binding ESW2 1 0 udp-955676fd-5259-4e3e-a2e6-0844f3c738fe 
Dec 04 11:16:26.382 HYPERVISOR: exec_cmd: vm get_status ESW2 
