Nov 27 16:15:07.326 HYPERVISOR: Release 0.2.17-amd64/Linux (tag 2017072410)
Nov 27 16:15:07.326 HYPERVISOR: Started on IP = 127.0.0.1, TCP port = 54531.
Nov 27 16:15:07.346 HYPERVISOR: exec_cmd: hypervisor version 
Nov 27 16:15:07.347 HYPERVISOR: exec_cmd: hypervisor working_dir /media/actionmystique/SAMSUNG5-VMs/Labs/GNS3/TT 2-solutions-linux-/project-files/dynamips 
Nov 27 16:15:07.347 GENERAL: working_dir=/media/actionmystique/SAMSUNG5-VMs/Labs/GNS3/TT 2-solutions-linux-/project-files/dynamips
Nov 27 16:15:07.348 HYPERVISOR: exec_cmd: vm create SW1 1 c3725 
Nov 27 16:15:07.348 VM: VM SW1 created.
Nov 27 16:15:07.349 HYPERVISOR: exec_cmd: vm set_con_tcp_port SW1 2001 
Nov 27 16:15:07.349 HYPERVISOR: exec_cmd: c3725 get_mac_addr SW1 
Nov 27 16:15:07.350 HYPERVISOR: exec_cmd: vm set_nvram SW1 256 
Nov 27 16:15:07.351 HYPERVISOR: exec_cmd: vm get_status SW1 
Nov 27 16:15:07.352 HYPERVISOR: exec_cmd: vm set_idle_pc SW1 0x60c06d20 
Nov 27 16:15:07.353 HYPERVISOR: exec_cmd: c3725 set_mac_addr SW1 aaaa.aaaa.aaaa 
Nov 27 16:15:07.354 HYPERVISOR: exec_cmd: vm set_exec_area SW1 16 
Nov 27 16:15:07.355 HYPERVISOR: exec_cmd: vm get_status SW1 
Nov 27 16:15:07.356 HYPERVISOR: exec_cmd: vm slot_add_binding SW1 1 0 NM-16ESW 
Nov 27 16:15:07.357 HYPERVISOR: exec_cmd: vm set_disk0 SW1 1 
Nov 27 16:15:07.358 HYPERVISOR: exec_cmd: vm set_ios SW1 /media/actionmystique/SAMSUNG5-VMs/Images/GNS3/IOS/c3725-adventerprisek9-mz.124-15.T10.image 
Nov 27 16:15:07.359 HYPERVISOR: exec_cmd: vm slot_add_binding SW1 0 16 WIC-2T 
Nov 27 16:15:07.360 HYPERVISOR: exec_cmd: vm set_config SW1 configs/i1_startup-config.cfg 
Nov 27 16:15:07.361 HYPERVISOR: exec_cmd: vm set_config SW1 configs/i1_startup-config.cfg configs/i1_private-config.cfg 
Nov 27 16:15:07.461 HYPERVISOR: exec_cmd: nio create_null null-46e11002-dfd5-4a5c-85fa-9efef74e0b56 
Nov 27 16:15:07.463 HYPERVISOR: exec_cmd: vm slot_add_nio_binding SW1 1 0 null-46e11002-dfd5-4a5c-85fa-9efef74e0b56 
Nov 27 16:15:07.464 HYPERVISOR: exec_cmd: vm get_status SW1 
Nov 27 16:15:07.557 HYPERVISOR: exec_cmd: nio create_udp udp-4b9cecc3-3590-46eb-85f9-9561ea757b93 15004 127.0.0.1 15005 
Nov 27 16:15:07.557 HYPERVISOR: exec_cmd: vm slot_add_nio_binding SW1 1 1 udp-4b9cecc3-3590-46eb-85f9-9561ea757b93 
Nov 27 16:15:07.558 HYPERVISOR: exec_cmd: vm get_status SW1 
Nov 27 16:15:07.577 HYPERVISOR: exec_cmd: nio create_udp udp-131dc75c-4e49-4eed-beda-be40f0d8f9fb 15006 127.0.0.1 15007 
Nov 27 16:15:07.577 HYPERVISOR: exec_cmd: vm slot_add_nio_binding SW1 1 5 udp-131dc75c-4e49-4eed-beda-be40f0d8f9fb 
Nov 27 16:15:07.578 HYPERVISOR: exec_cmd: vm get_status SW1 
Nov 27 16:15:07.601 HYPERVISOR: exec_cmd: nio create_udp udp-8f2d0c9f-0329-4f0f-a9ca-2339169adb28 15008 127.0.0.1 15009 
Nov 27 16:15:07.601 HYPERVISOR: exec_cmd: vm slot_add_nio_binding SW1 1 6 udp-8f2d0c9f-0329-4f0f-a9ca-2339169adb28 
Nov 27 16:15:07.602 HYPERVISOR: exec_cmd: vm get_status SW1 
Nov 27 16:15:21.157 HYPERVISOR: exec_cmd: vm get_status SW1 
Nov 27 16:15:21.158 HYPERVISOR: exec_cmd: vm extract_config SW1 
Nov 27 16:15:21.162 HYPERVISOR: exec_cmd: vm delete SW1 
Nov 27 16:15:21.162 VM: VM SW1 destroyed.
Nov 27 16:15:21.162 HYPERVISOR: exec_cmd: hypervisor stop 
Nov 27 16:15:21.357 HYPERVISOR: Stopped.
Nov 27 16:15:21.357 GENERAL: reset done.
