Jul 18 19:13:44.538 HYPERVISOR: Release 0.2.16-amd64/Linux (tag 2015060118)
Jul 18 19:13:44.538 HYPERVISOR: Started on IP = 127.0.0.1, TCP port = 42320.
Jul 18 19:13:44.560 HYPERVISOR: exec_cmd: hypervisor version 
Jul 18 19:13:44.561 HYPERVISOR: exec_cmd: hypervisor working_dir /media/actionmystique/SAMSUNG-850-Ext4/Labs/GNS3/CCNP/TBSHOOT/L3-Technologies/IPv6/Routing-Protocols/Redistribution/Jean-Christophe_Manciot/1+/TT 1-solutions-linux/project-files/dynamips 
Jul 18 19:13:44.561 GENERAL: working_dir=/media/actionmystique/SAMSUNG-850-Ext4/Labs/GNS3/CCNP/TBSHOOT/L3-Technologies/IPv6/Routing-Protocols/Redistribution/Jean-Christophe_Manciot/1+/TT 1-solutions-linux/project-files/dynamips
Jul 18 19:13:44.561 HYPERVISOR: exec_cmd: vm create ESW4 4 c3725 
Jul 18 19:13:44.561 VM: VM ESW4 created.
Jul 18 19:13:44.562 HYPERVISOR: exec_cmd: vm set_con_tcp_port ESW4 2009 
Jul 18 19:13:44.563 HYPERVISOR: exec_cmd: c3725 get_mac_addr ESW4 
Jul 18 19:13:44.563 HYPERVISOR: exec_cmd: c3725 set_mac_addr ESW4 c204.68ae.0000 
Jul 18 19:13:44.564 HYPERVISOR: exec_cmd: vm slot_add_binding ESW4 0 16 WIC-2T 
Jul 18 19:13:44.565 HYPERVISOR: exec_cmd: vm get_status ESW4 
Jul 18 19:13:44.565 HYPERVISOR: exec_cmd: vm set_idle_pc ESW4 0x6026b804 
Jul 18 19:13:44.566 HYPERVISOR: exec_cmd: vm get_status ESW4 
Jul 18 19:13:44.567 HYPERVISOR: exec_cmd: vm slot_add_binding ESW4 1 0 NM-16ESW 
Jul 18 19:13:44.567 HYPERVISOR: exec_cmd: vm set_nvram ESW4 256 
Jul 18 19:13:44.568 HYPERVISOR: exec_cmd: vm set_ios ESW4 /media/actionmystique/SAMSUNG-850-Ext4/Images/GNS3/IOS/c3725-adventerprisek9-mz.124-15.T10.image 
Jul 18 19:13:44.569 HYPERVISOR: exec_cmd: vm set_disk0 ESW4 1 
Jul 18 19:13:44.569 HYPERVISOR: exec_cmd: vm set_config ESW4 configs/ios_base_startup-config.txt 
Jul 18 19:13:44.570 HYPERVISOR: exec_cmd: vm set_config ESW4 configs/ios_base_startup-config.txt configs/ios_base_private-config.txt 
Jul 18 19:13:44.851 HYPERVISOR: exec_cmd: nio create_udp udp-2e70999f-7d2b-44d0-90fe-535231746696 15014 127.0.0.1 15012 
Jul 18 19:13:44.851 HYPERVISOR: exec_cmd: vm slot_add_nio_binding ESW4 1 0 udp-2e70999f-7d2b-44d0-90fe-535231746696 
Jul 18 19:13:44.852 HYPERVISOR: exec_cmd: vm get_status ESW4 
Jul 18 19:13:44.859 HYPERVISOR: exec_cmd: nio create_udp udp-32ec0876-57f2-412f-bf9d-598d556c78fa 15013 127.0.0.1 15015 
Jul 18 19:13:44.859 HYPERVISOR: exec_cmd: vm slot_add_nio_binding ESW4 1 1 udp-32ec0876-57f2-412f-bf9d-598d556c78fa 
Jul 18 19:13:44.860 HYPERVISOR: exec_cmd: vm get_status ESW4 
Jul 18 19:13:49.422 HYPERVISOR: exec_cmd: vm get_status ESW4 
Jul 18 19:13:49.425 HYPERVISOR: exec_cmd: vm extract_config ESW4 
Jul 18 19:13:49.439 HYPERVISOR: exec_cmd: vm delete ESW4 
Jul 18 19:13:49.439 VM: VM ESW4 destroyed.
Jul 18 19:13:49.442 HYPERVISOR: exec_cmd: hypervisor stop 
Jul 18 19:13:49.560 HYPERVISOR: Stopped.
Jul 18 19:13:49.560 GENERAL: reset done.
