Nov 27 16:19:25.340 HYPERVISOR: Release 0.2.17-amd64/Linux (tag 2017072410)
Nov 27 16:19:25.340 HYPERVISOR: Started on IP = 127.0.0.1, TCP port = 50865.
Nov 27 16:19:25.354 HYPERVISOR: exec_cmd: hypervisor version 
Nov 27 16:19:25.354 HYPERVISOR: exec_cmd: hypervisor working_dir /media/actionmystique/SAMSUNG5-VMs/Labs/GNS3/TT 2-linux-/project-files/dynamips 
Nov 27 16:19:25.354 GENERAL: working_dir=/media/actionmystique/SAMSUNG5-VMs/Labs/GNS3/TT 2-linux-/project-files/dynamips
Nov 27 16:19:25.354 HYPERVISOR: exec_cmd: vm create Core 4 c3725 
Nov 27 16:19:25.354 VM: VM Core created.
Nov 27 16:19:25.355 HYPERVISOR: exec_cmd: vm set_con_tcp_port Core 2005 
Nov 27 16:19:25.355 HYPERVISOR: exec_cmd: c3725 get_mac_addr Core 
Nov 27 16:19:25.355 HYPERVISOR: exec_cmd: vm set_ram Core 256 
Nov 27 16:19:25.356 HYPERVISOR: exec_cmd: vm set_nvram Core 256 
Nov 27 16:19:25.356 HYPERVISOR: exec_cmd: vm get_status Core 
Nov 27 16:19:25.356 HYPERVISOR: exec_cmd: vm set_idle_pc Core 0x60c056e4 
Nov 27 16:19:25.357 HYPERVISOR: exec_cmd: c3725 set_mac_addr Core c204.0c3e.0000 
Nov 27 16:19:25.357 HYPERVISOR: exec_cmd: vm get_status Core 
Nov 27 16:19:25.358 HYPERVISOR: exec_cmd: vm slot_add_binding Core 1 0 NM-16ESW 
Nov 27 16:19:25.358 HYPERVISOR: exec_cmd: vm set_disk0 Core 1 
Nov 27 16:19:25.358 HYPERVISOR: exec_cmd: vm set_ios Core /media/actionmystique/SAMSUNG5-VMs/Images/GNS3/IOS/c3725-adventerprisek9-mz.124-15.T10.image 
Nov 27 16:19:25.359 HYPERVISOR: exec_cmd: vm slot_add_binding Core 0 16 WIC-2T 
Nov 27 16:19:25.359 HYPERVISOR: exec_cmd: vm set_config Core configs/i4_startup-config.cfg 
Nov 27 16:19:25.360 HYPERVISOR: exec_cmd: vm set_config Core configs/i4_startup-config.cfg configs/i4_private-config.cfg 
Nov 27 16:19:25.665 HYPERVISOR: exec_cmd: nio create_udp udp-262d8ecf-5f59-42c7-8fc1-50e1d07eebda 15003 127.0.0.1 15004 
Nov 27 16:19:25.668 HYPERVISOR: exec_cmd: vm slot_add_nio_binding Core 1 1 udp-262d8ecf-5f59-42c7-8fc1-50e1d07eebda 
Nov 27 16:19:25.669 HYPERVISOR: exec_cmd: vm get_status Core 
Nov 27 16:19:25.772 HYPERVISOR: exec_cmd: nio create_udp udp-ef1e3261-099d-408d-a5f7-c0dc9d61c2b3 15014 127.0.0.1 15012 
Nov 27 16:19:25.773 HYPERVISOR: exec_cmd: vm slot_add_nio_binding Core 1 0 udp-ef1e3261-099d-408d-a5f7-c0dc9d61c2b3 
Nov 27 16:19:25.773 HYPERVISOR: exec_cmd: vm get_status Core 
Nov 27 16:19:45.017 HYPERVISOR: exec_cmd: vm get_status Core 
Nov 27 16:19:45.019 HYPERVISOR: exec_cmd: vm extract_config Core 
Nov 27 16:19:45.020 HYPERVISOR: exec_cmd: vm delete Core 
Nov 27 16:19:45.020 VM: VM Core destroyed.
Nov 27 16:19:45.023 HYPERVISOR: exec_cmd: hypervisor stop 
Nov 27 16:19:45.373 HYPERVISOR: Stopped.
Nov 27 16:19:45.373 GENERAL: reset done.
