Nov 27 16:19:19.682 HYPERVISOR: Release 0.2.17-amd64/Linux (tag 2017072410)
Nov 27 16:19:19.682 HYPERVISOR: Started on IP = 127.0.0.1, TCP port = 56513.
Nov 27 16:19:19.689 HYPERVISOR: exec_cmd: hypervisor version 
Nov 27 16:19:19.689 HYPERVISOR: exec_cmd: hypervisor working_dir /media/actionmystique/SAMSUNG5-VMs/Labs/GNS3/git-Public-Labs-Collection/CCNP/TBSHOOT/L3-Technologies/IPv4/High-Availability/GLBP/Jean-Christophe_Manciot/1+/TT 2-linux/project-files/dynamips 
Nov 27 16:19:19.689 GENERAL: working_dir=/media/actionmystique/SAMSUNG5-VMs/Labs/GNS3/git-Public-Labs-Collection/CCNP/TBSHOOT/L3-Technologies/IPv4/High-Availability/GLBP/Jean-Christophe_Manciot/1+/TT 2-linux/project-files/dynamips
Nov 27 16:19:19.690 HYPERVISOR: exec_cmd: vm create SW2 2 c3725 
Nov 27 16:19:19.690 VM: VM SW2 created.
Nov 27 16:19:19.690 HYPERVISOR: exec_cmd: vm set_con_tcp_port SW2 2002 
Nov 27 16:19:19.690 HYPERVISOR: exec_cmd: c3725 get_mac_addr SW2 
Nov 27 16:19:19.691 HYPERVISOR: exec_cmd: vm set_nvram SW2 256 
Nov 27 16:19:19.691 HYPERVISOR: exec_cmd: vm get_status SW2 
Nov 27 16:19:19.691 HYPERVISOR: exec_cmd: vm set_idle_pc SW2 0x60c056e4 
Nov 27 16:19:19.692 HYPERVISOR: exec_cmd: c3725 set_mac_addr SW2 eeee.eeee.eeee 
Nov 27 16:19:19.692 HYPERVISOR: exec_cmd: vm set_exec_area SW2 16 
Nov 27 16:19:19.693 HYPERVISOR: exec_cmd: vm get_status SW2 
Nov 27 16:19:19.693 HYPERVISOR: exec_cmd: vm slot_add_binding SW2 1 0 NM-16ESW 
Nov 27 16:19:19.693 HYPERVISOR: exec_cmd: vm set_ios SW2 /media/actionmystique/SAMSUNG5-VMs/Images/GNS3/IOS/c3725-adventerprisek9-mz.124-15.T10.image 
Nov 27 16:19:19.694 HYPERVISOR: exec_cmd: vm slot_add_binding SW2 0 16 WIC-2T 
Nov 27 16:19:19.694 HYPERVISOR: exec_cmd: vm set_disk0 SW2 1 
Nov 27 16:19:19.694 HYPERVISOR: exec_cmd: vm set_config SW2 configs/i2_startup-config.cfg 
Nov 27 16:19:19.695 HYPERVISOR: exec_cmd: vm set_config SW2 configs/i2_startup-config.cfg configs/i2_private-config.cfg 
Nov 27 16:19:19.953 HYPERVISOR: exec_cmd: nio create_udp udp-be80a1f3-47aa-4e5c-a03e-de93ecd88261 15008 127.0.0.1 15009 
Nov 27 16:19:19.957 HYPERVISOR: exec_cmd: vm slot_add_nio_binding SW2 1 0 udp-be80a1f3-47aa-4e5c-a03e-de93ecd88261 
Nov 27 16:19:19.958 HYPERVISOR: exec_cmd: vm get_status SW2 
Nov 27 16:19:19.988 HYPERVISOR: exec_cmd: nio create_udp udp-7fbb1fba-485c-4300-a4d3-81d1a2a8395b 15011 127.0.0.1 15012 
Nov 27 16:19:19.992 HYPERVISOR: exec_cmd: vm slot_add_nio_binding SW2 1 1 udp-7fbb1fba-485c-4300-a4d3-81d1a2a8395b 
Nov 27 16:19:19.993 HYPERVISOR: exec_cmd: vm get_status SW2 
Nov 27 16:19:20.005 HYPERVISOR: exec_cmd: nio create_udp udp-f12275cd-af25-4965-8802-6d4530a56489 15010 127.0.0.1 15013 
Nov 27 16:19:20.005 HYPERVISOR: exec_cmd: vm slot_add_nio_binding SW2 1 3 udp-f12275cd-af25-4965-8802-6d4530a56489 
Nov 27 16:19:20.005 HYPERVISOR: exec_cmd: vm get_status SW2 
Nov 27 16:19:20.037 HYPERVISOR: exec_cmd: nio create_udp udp-4afd8405-7609-4e90-ba60-f742fa2d059a 15015 127.0.0.1 15014 
Nov 27 16:19:20.037 HYPERVISOR: exec_cmd: vm slot_add_nio_binding SW2 1 2 udp-4afd8405-7609-4e90-ba60-f742fa2d059a 
Nov 27 16:19:20.038 HYPERVISOR: exec_cmd: vm get_status SW2 
