Dec 04 11:20:04.160 HYPERVISOR: Release 0.2.17-amd64/Linux (tag 2017072410)
Dec 04 11:20:04.160 HYPERVISOR: Started on IP = 127.0.0.1, TCP port = 38069.
Dec 04 11:20:04.190 HYPERVISOR: exec_cmd: hypervisor version 
Dec 04 11:20:04.192 HYPERVISOR: exec_cmd: hypervisor working_dir /media/actionmystique/SAMSUNG5-VMs/Labs/GNS3/Data Center ASA - ASDM - AAA - VMs-linux-/project-files/dynamips 
Dec 04 11:20:04.192 GENERAL: working_dir=/media/actionmystique/SAMSUNG5-VMs/Labs/GNS3/Data Center ASA - ASDM - AAA - VMs-linux-/project-files/dynamips
Dec 04 11:20:04.198 HYPERVISOR: exec_cmd: vm create SW8 8 c3725 
Dec 04 11:20:04.198 VM: VM SW8 created.
Dec 04 11:20:04.208 HYPERVISOR: exec_cmd: vm set_con_tcp_port SW8 2015 
Dec 04 11:20:04.211 HYPERVISOR: exec_cmd: vm set_aux_tcp_port SW8 2515 
Dec 04 11:20:04.212 HYPERVISOR: exec_cmd: c3725 get_mac_addr SW8 
Dec 04 11:20:04.213 HYPERVISOR: exec_cmd: vm get_status SW8 
Dec 04 11:20:04.215 HYPERVISOR: exec_cmd: vm slot_add_binding SW8 1 0 NM-16ESW 
Dec 04 11:20:04.216 HYPERVISOR: exec_cmd: vm set_ios SW8 /media/actionmystique/SAMSUNG5-VMs/Images/GNS3/IOS/c3725-adventerprisek9-mz.124-15.T10.image 
Dec 04 11:20:04.222 HYPERVISOR: exec_cmd: vm set_exec_area SW8 16 
Dec 04 11:20:04.233 HYPERVISOR: exec_cmd: c3725 set_mac_addr SW8 c208.1264.0000 
Dec 04 11:20:04.235 HYPERVISOR: exec_cmd: vm get_status SW8 
Dec 04 11:20:04.237 HYPERVISOR: exec_cmd: vm set_idle_pc SW8 0x6148b5dc 
Dec 04 11:20:04.238 HYPERVISOR: exec_cmd: vm set_config SW8 configs/i8_startup-config.cfg 
Dec 04 11:20:05.674 HYPERVISOR: exec_cmd: nio create_udp udp-8679ea39-7643-4c23-99e9-b87ae411028f 15047 127.0.0.1 15046 
Dec 04 11:20:05.675 HYPERVISOR: exec_cmd: vm slot_add_nio_binding SW8 1 11 udp-8679ea39-7643-4c23-99e9-b87ae411028f 
Dec 04 11:20:05.675 HYPERVISOR: exec_cmd: vm get_status SW8 
Dec 04 11:20:05.700 HYPERVISOR: exec_cmd: nio create_udp udp-1d459047-bcaf-4b67-839f-0fd3d005f6a1 15049 127.0.0.1 15048 
Dec 04 11:20:05.701 HYPERVISOR: exec_cmd: vm slot_add_nio_binding SW8 1 2 udp-1d459047-bcaf-4b67-839f-0fd3d005f6a1 
Dec 04 11:20:05.701 HYPERVISOR: exec_cmd: vm get_status SW8 
Dec 04 11:20:05.716 HYPERVISOR: exec_cmd: nio create_udp udp-0f72760c-beee-48fb-84ea-d9360eca0739 15051 127.0.0.1 15050 
Dec 04 11:20:05.717 HYPERVISOR: exec_cmd: vm slot_add_nio_binding SW8 1 4 udp-0f72760c-beee-48fb-84ea-d9360eca0739 
Dec 04 11:20:05.717 HYPERVISOR: exec_cmd: vm get_status SW8 
Dec 04 11:20:05.767 HYPERVISOR: exec_cmd: nio create_udp udp-f11b452d-eb08-4283-bf3d-9fe5d609c14f 15055 127.0.0.1 15054 
Dec 04 11:20:05.768 HYPERVISOR: exec_cmd: vm slot_add_nio_binding SW8 1 3 udp-f11b452d-eb08-4283-bf3d-9fe5d609c14f 
Dec 04 11:20:05.768 HYPERVISOR: exec_cmd: vm get_status SW8 
Dec 04 11:20:05.837 HYPERVISOR: exec_cmd: nio create_udp udp-29242157-d68d-4bb8-9d37-db4e3ef4c9b3 15062 127.0.0.1 15063 
Dec 04 11:20:05.841 HYPERVISOR: exec_cmd: vm slot_add_nio_binding SW8 1 1 udp-29242157-d68d-4bb8-9d37-db4e3ef4c9b3 
Dec 04 11:20:05.842 HYPERVISOR: exec_cmd: vm get_status SW8 
Dec 04 11:20:55.990 HYPERVISOR: exec_cmd: vm get_status SW8 
Dec 04 11:20:55.994 HYPERVISOR: exec_cmd: vm extract_config SW8 
Dec 04 11:20:56.002 HYPERVISOR: exec_cmd: vm delete SW8 
Dec 04 11:20:56.002 VM: VM SW8 destroyed.
Dec 04 11:20:56.009 HYPERVISOR: exec_cmd: hypervisor stop 
Dec 04 11:20:56.242 HYPERVISOR: Stopped.
Dec 04 11:20:56.243 GENERAL: reset done.
