Dec 04 11:18:52.868 HYPERVISOR: Release 0.2.17-amd64/Linux (tag 2017072410)
Dec 04 11:18:52.868 HYPERVISOR: Started on IP = 127.0.0.1, TCP port = 57491.
Dec 04 11:18:52.877 HYPERVISOR: exec_cmd: hypervisor version 
Dec 04 11:18:52.878 HYPERVISOR: exec_cmd: hypervisor working_dir /media/actionmystique/SAMSUNG5-VMs/Labs/GNS3/git-Public-Labs-Collection/CCNP-Security/FIREWALL/Jean-Christophe_Manciot/1+/Data Center ASA - ASDM - AAA - VMs-linux/project-files/dynamips 
Dec 04 11:18:52.878 GENERAL: working_dir=/media/actionmystique/SAMSUNG5-VMs/Labs/GNS3/git-Public-Labs-Collection/CCNP-Security/FIREWALL/Jean-Christophe_Manciot/1+/Data Center ASA - ASDM - AAA - VMs-linux/project-files/dynamips
Dec 04 11:18:52.883 HYPERVISOR: exec_cmd: vm create SW2 2 c3725 
Dec 04 11:18:52.883 VM: VM SW2 created.
Dec 04 11:18:52.890 HYPERVISOR: exec_cmd: vm set_con_tcp_port SW2 2002 
Dec 04 11:18:52.894 HYPERVISOR: exec_cmd: vm set_aux_tcp_port SW2 2502 
Dec 04 11:18:52.895 HYPERVISOR: exec_cmd: c3725 get_mac_addr SW2 
Dec 04 11:18:52.898 HYPERVISOR: exec_cmd: vm get_status SW2 
Dec 04 11:18:52.903 HYPERVISOR: exec_cmd: vm slot_add_binding SW2 1 0 NM-16ESW 
Dec 04 11:18:52.915 HYPERVISOR: exec_cmd: vm set_ios SW2 /media/actionmystique/SAMSUNG5-VMs/Images/GNS3/IOS/c3725-adventerprisek9-mz.124-15.T10.image 
Dec 04 11:18:52.917 HYPERVISOR: exec_cmd: vm set_exec_area SW2 16 
Dec 04 11:18:52.919 HYPERVISOR: exec_cmd: c3725 set_mac_addr SW2 c202.1334.0000 
Dec 04 11:18:52.921 HYPERVISOR: exec_cmd: vm get_status SW2 
Dec 04 11:18:52.922 HYPERVISOR: exec_cmd: vm set_idle_pc SW2 0x6148b5dc 
Dec 04 11:18:52.923 HYPERVISOR: exec_cmd: vm set_config SW2 configs/i2_startup-config.cfg 
Dec 04 11:18:54.034 HYPERVISOR: exec_cmd: nio create_udp udp-56b8f434-b225-4495-ad81-1cf828ab6522 15006 127.0.0.1 15007 
Dec 04 11:18:54.035 HYPERVISOR: exec_cmd: vm slot_add_nio_binding SW2 1 0 udp-56b8f434-b225-4495-ad81-1cf828ab6522 
Dec 04 11:18:54.035 HYPERVISOR: exec_cmd: vm get_status SW2 
Dec 04 11:18:54.067 HYPERVISOR: exec_cmd: nio create_udp udp-3684eee0-4e4d-48c8-b5ff-88712d55de64 15009 127.0.0.1 15008 
Dec 04 11:18:54.068 HYPERVISOR: exec_cmd: vm slot_add_nio_binding SW2 1 4 udp-3684eee0-4e4d-48c8-b5ff-88712d55de64 
Dec 04 11:18:54.068 HYPERVISOR: exec_cmd: vm get_status SW2 
Dec 04 11:18:54.079 HYPERVISOR: exec_cmd: nio create_udp udp-963f7cfe-9217-409d-a0b5-5c7ffdde2bfc 15012 127.0.0.1 15010 
Dec 04 11:18:54.080 HYPERVISOR: exec_cmd: vm slot_add_nio_binding SW2 1 5 udp-963f7cfe-9217-409d-a0b5-5c7ffdde2bfc 
Dec 04 11:18:54.081 HYPERVISOR: exec_cmd: vm get_status SW2 
Dec 04 11:18:54.107 HYPERVISOR: exec_cmd: nio create_udp udp-24a1ddaa-c378-4a1c-88fa-619f89992489 15013 127.0.0.1 15011 
Dec 04 11:18:54.108 HYPERVISOR: exec_cmd: vm slot_add_nio_binding SW2 1 6 udp-24a1ddaa-c378-4a1c-88fa-619f89992489 
Dec 04 11:18:54.108 HYPERVISOR: exec_cmd: vm get_status SW2 
Dec 04 11:18:54.124 HYPERVISOR: exec_cmd: nio create_udp udp-42b938a7-1fa1-4dfc-b0b6-a7b6ca4100f7 15014 127.0.0.1 15015 
Dec 04 11:18:54.125 HYPERVISOR: exec_cmd: vm slot_add_nio_binding SW2 1 3 udp-42b938a7-1fa1-4dfc-b0b6-a7b6ca4100f7 
Dec 04 11:18:54.125 HYPERVISOR: exec_cmd: vm get_status SW2 
Dec 04 11:18:54.131 HYPERVISOR: exec_cmd: nio create_udp udp-b573446e-9441-4940-b197-406eaa08f0b5 15016 127.0.0.1 15017 
Dec 04 11:18:54.135 HYPERVISOR: exec_cmd: vm slot_add_nio_binding SW2 1 7 udp-b573446e-9441-4940-b197-406eaa08f0b5 
Dec 04 11:18:54.136 HYPERVISOR: exec_cmd: vm get_status SW2 
Dec 04 11:18:54.163 HYPERVISOR: exec_cmd: nio create_udp udp-f1381c20-f19d-4378-9705-16e8861f0411 15018 127.0.0.1 15019 
Dec 04 11:18:54.164 HYPERVISOR: exec_cmd: vm slot_add_nio_binding SW2 1 8 udp-f1381c20-f19d-4378-9705-16e8861f0411 
Dec 04 11:18:54.164 HYPERVISOR: exec_cmd: vm get_status SW2 
Dec 04 11:18:54.188 HYPERVISOR: exec_cmd: nio create_udp udp-73b327df-67ad-44c4-ab39-0e24f442e992 15020 127.0.0.1 15021 
Dec 04 11:18:54.192 HYPERVISOR: exec_cmd: vm slot_add_nio_binding SW2 1 9 udp-73b327df-67ad-44c4-ab39-0e24f442e992 
Dec 04 11:18:54.193 HYPERVISOR: exec_cmd: vm get_status SW2 
Dec 04 11:18:54.375 HYPERVISOR: exec_cmd: nio create_udp udp-5a47730e-d032-4e20-954e-ca5b3c388658 15038 127.0.0.1 15039 
Dec 04 11:18:54.375 HYPERVISOR: exec_cmd: vm slot_add_nio_binding SW2 1 1 udp-5a47730e-d032-4e20-954e-ca5b3c388658 
Dec 04 11:18:54.376 HYPERVISOR: exec_cmd: vm get_status SW2 
Dec 04 11:18:54.400 HYPERVISOR: exec_cmd: nio create_udp udp-401986a7-55b7-43a9-9396-4dbacf9642a0 15040 127.0.0.1 15041 
Dec 04 11:18:54.401 HYPERVISOR: exec_cmd: vm slot_add_nio_binding SW2 1 10 udp-401986a7-55b7-43a9-9396-4dbacf9642a0 
Dec 04 11:18:54.401 HYPERVISOR: exec_cmd: vm get_status SW2 
Dec 04 11:18:54.467 HYPERVISOR: exec_cmd: nio create_udp udp-bf5b4bd6-47b8-42d8-8f39-b7132238a293 15046 127.0.0.1 15047 
Dec 04 11:18:54.468 HYPERVISOR: exec_cmd: vm slot_add_nio_binding SW2 1 11 udp-bf5b4bd6-47b8-42d8-8f39-b7132238a293 
Dec 04 11:18:54.468 HYPERVISOR: exec_cmd: vm get_status SW2 
Dec 04 11:18:54.485 HYPERVISOR: exec_cmd: nio create_udp udp-9b850060-c4ff-4661-afe7-6305e1fd9dff 15048 127.0.0.1 15049 
Dec 04 11:18:54.488 HYPERVISOR: exec_cmd: vm slot_add_nio_binding SW2 1 2 udp-9b850060-c4ff-4661-afe7-6305e1fd9dff 
Dec 04 11:18:54.489 HYPERVISOR: exec_cmd: vm get_status SW2 
Dec 04 11:18:54.597 HYPERVISOR: exec_cmd: nio create_udp udp-ae20a9c7-63f5-480b-82bf-8e9ac88a6508 15059 127.0.0.1 15058 
Dec 04 11:18:54.598 HYPERVISOR: exec_cmd: vm slot_add_nio_binding SW2 1 12 udp-ae20a9c7-63f5-480b-82bf-8e9ac88a6508 
Dec 04 11:18:54.598 HYPERVISOR: exec_cmd: vm get_status SW2 
Dec 04 11:18:54.747 HYPERVISOR: exec_cmd: nio create_udp udp-cf6dfba6-51db-4e98-bff6-0adfb8944a53 15073 127.0.0.1 15071 
Dec 04 11:18:54.748 HYPERVISOR: exec_cmd: vm slot_add_nio_binding SW2 1 13 udp-cf6dfba6-51db-4e98-bff6-0adfb8944a53 
Dec 04 11:18:54.748 HYPERVISOR: exec_cmd: vm get_status SW2 
