Apr 10 15:30:18.923 HYPERVISOR: Release 0.2.14-amd64/Linux (tag 2014092320)
Apr 10 15:30:18.923 HYPERVISOR: Started on IP = 127.0.0.1, TCP port = 7202.
Apr 10 15:30:18.930 HYPERVISOR: exec_cmd: hypervisor version 
Apr 10 15:30:18.930 HYPERVISOR: exec_cmd: hypervisor uuid 
Apr 10 15:30:18.930 HYPERVISOR: exec_cmd: hypervisor working_dir /home/actionmystique/Google Drive/Missions/Certifications/Cisco/Labs/GNS3/CCNP-Security/FIREWALL/Jean-Christophe/1+/Data Center ASA - ASDM - AAA - VMs-linux/Data Center ASA - ASDM - AAA - VMs-linux-files/dynamips 
Apr 10 15:30:18.930 GENERAL: working_dir=/home/actionmystique/Google Drive/Missions/Certifications/Cisco/Labs/GNS3/CCNP-Security/FIREWALL/Jean-Christophe/1+/Data Center ASA - ASDM - AAA - VMs-linux/Data Center ASA - ASDM - AAA - VMs-linux-files/dynamips
Apr 10 15:30:18.930 HYPERVISOR: exec_cmd: vm create SW3 3 c3725 
Apr 10 15:30:18.930 VM: VM SW3 created.
Apr 10 15:30:18.930 HYPERVISOR: exec_cmd: vm set_con_tcp_port SW3 2003 
Apr 10 15:30:18.930 HYPERVISOR: exec_cmd: vm set_aux_tcp_port SW3 2503 
Apr 10 15:30:18.931 HYPERVISOR: exec_cmd: c3725 get_mac_addr SW3 
Apr 10 15:30:18.931 HYPERVISOR: exec_cmd: vm set_ios SW3 /media/actionmystique/SAMSUNG-Ext4/Images/GNS3/IOS/c3725-adventerprisek9-mz.124-15.T10.image 
Apr 10 15:30:18.931 HYPERVISOR: exec_cmd: vm set_sparse_mem SW3 1 
Apr 10 15:30:18.931 HYPERVISOR: exec_cmd: vm set_ram_mmap SW3 1 
Apr 10 15:30:18.931 HYPERVISOR: exec_cmd: c3725 set_mac_addr SW3 c203.1040.0000 
Apr 10 15:30:18.931 HYPERVISOR: exec_cmd: vm set_ghost_status SW3 2 
Apr 10 15:30:18.932 HYPERVISOR: exec_cmd: vm set_ghost_file SW3 c3725-adventerprisek9-mz.124-15.T10.image-128.ghost 
