Dec 04 11:18:52.901 HYPERVISOR: Release 0.2.17-amd64/Linux (tag 2017072410)
Dec 04 11:18:52.901 HYPERVISOR: Started on IP = 127.0.0.1, TCP port = 38735.
Dec 04 11:18:52.922 HYPERVISOR: exec_cmd: hypervisor version 
Dec 04 11:18:52.924 HYPERVISOR: exec_cmd: hypervisor working_dir /media/actionmystique/SAMSUNG5-VMs/Labs/GNS3/git-Public-Labs-Collection/CCNP-Security/FIREWALL/Jean-Christophe_Manciot/1+/Data Center ASA - ASDM - AAA - VMs-linux/project-files/dynamips 
Dec 04 11:18:52.924 GENERAL: working_dir=/media/actionmystique/SAMSUNG5-VMs/Labs/GNS3/git-Public-Labs-Collection/CCNP-Security/FIREWALL/Jean-Christophe_Manciot/1+/Data Center ASA - ASDM - AAA - VMs-linux/project-files/dynamips
Dec 04 11:18:52.929 HYPERVISOR: exec_cmd: vm create SW5 5 c3725 
Dec 04 11:18:52.929 VM: VM SW5 created.
Dec 04 11:18:52.944 HYPERVISOR: exec_cmd: vm set_con_tcp_port SW5 2005 
Dec 04 11:18:52.946 HYPERVISOR: exec_cmd: vm set_aux_tcp_port SW5 2505 
Dec 04 11:18:52.948 HYPERVISOR: exec_cmd: c3725 get_mac_addr SW5 
Dec 04 11:18:52.949 HYPERVISOR: exec_cmd: vm get_status SW5 
Dec 04 11:18:52.951 HYPERVISOR: exec_cmd: vm slot_add_binding SW5 1 0 NM-16ESW 
Dec 04 11:18:52.952 HYPERVISOR: exec_cmd: vm set_ios SW5 /media/actionmystique/SAMSUNG5-VMs/Images/GNS3/IOS/c3725-adventerprisek9-mz.124-15.T10.image 
Dec 04 11:18:52.954 HYPERVISOR: exec_cmd: vm set_exec_area SW5 16 
Dec 04 11:18:52.959 HYPERVISOR: exec_cmd: c3725 set_mac_addr SW5 c205.1354.0000 
Dec 04 11:18:52.970 HYPERVISOR: exec_cmd: vm get_status SW5 
Dec 04 11:18:52.972 HYPERVISOR: exec_cmd: vm set_idle_pc SW5 0x6148b5dc 
Dec 04 11:18:52.975 HYPERVISOR: exec_cmd: vm set_config SW5 configs/i5_startup-config.cfg 
Dec 04 11:18:53.561 HYPERVISOR: exec_cmd: nio create_udp udp-1ab78a9c-b613-4680-80b8-b15798d58443 20500 127.0.0.1 20000 
Dec 04 11:18:53.563 HYPERVISOR: exec_cmd: vm slot_add_nio_binding SW5 1 3 udp-1ab78a9c-b613-4680-80b8-b15798d58443 
Dec 04 11:18:53.564 HYPERVISOR: exec_cmd: vm get_status SW5 
Dec 04 11:18:53.572 HYPERVISOR: exec_cmd: nio create_udp udp-c706d897-1292-49a7-8df9-4fa21b80a9c2 20501 127.0.0.1 20001 
Dec 04 11:18:53.573 HYPERVISOR: exec_cmd: vm slot_add_nio_binding SW5 1 4 udp-c706d897-1292-49a7-8df9-4fa21b80a9c2 
Dec 04 11:18:53.574 HYPERVISOR: exec_cmd: vm get_status SW5 
Dec 04 11:18:53.580 HYPERVISOR: exec_cmd: nio create_udp udp-8f84d597-c9bf-42d2-aaf5-aaaf918c3882 20502 127.0.0.1 20002 
Dec 04 11:18:53.581 HYPERVISOR: exec_cmd: vm slot_add_nio_binding SW5 1 5 udp-8f84d597-c9bf-42d2-aaf5-aaaf918c3882 
Dec 04 11:18:53.581 HYPERVISOR: exec_cmd: vm get_status SW5 
Dec 04 11:18:53.587 HYPERVISOR: exec_cmd: nio create_udp udp-9640f56e-bf89-46cc-8b89-a87788797ed6 20503 127.0.0.1 20003 
Dec 04 11:18:53.588 HYPERVISOR: exec_cmd: vm slot_add_nio_binding SW5 1 6 udp-9640f56e-bf89-46cc-8b89-a87788797ed6 
Dec 04 11:18:53.588 HYPERVISOR: exec_cmd: vm get_status SW5 
Dec 04 11:18:54.429 HYPERVISOR: exec_cmd: nio create_udp udp-845de620-60b9-45b4-bbbc-503769620960 15043 127.0.0.1 15042 
Dec 04 11:18:54.433 HYPERVISOR: exec_cmd: vm slot_add_nio_binding SW5 1 2 udp-845de620-60b9-45b4-bbbc-503769620960 
Dec 04 11:18:54.434 HYPERVISOR: exec_cmd: vm get_status SW5 
Dec 04 11:18:54.452 HYPERVISOR: exec_cmd: nio create_udp udp-7598d7c4-b261-47c7-83e9-0c3c6e79d8bf 15045 127.0.0.1 15044 
Dec 04 11:18:54.452 HYPERVISOR: exec_cmd: vm slot_add_nio_binding SW5 1 1 udp-7598d7c4-b261-47c7-83e9-0c3c6e79d8bf 
Dec 04 11:18:54.453 HYPERVISOR: exec_cmd: vm get_status SW5 
