autostart = False
version = 0.8.2
[127.0.0.1:7200]
    workingdir = C:\Users\ActionMystique\Documents\Missions\GNS3\Temp
    udp = 10000
    [[3725]]
        image = C:\Users\ActionMystique\Documents\Missions\IOS\Binaries\c3725-adventerprisek9-mz.124-15.T5.image
        ram = 128
        idlepc = 0x62af9f1c
        sparsemem = True
        ghostios = True
    [[ROUTER R4]]
        model = 3725
        console = 2014
        aux = 2117
        cnfg = configs\R4.cfg
        wic0/0 = WIC-2T
        s0/0 = R3 s0/2
        x = -142.0
        y = 17.0
        z = 1.0
    [[ROUTER R1]]
        model = 3725
        console = 2011
        aux = 2118
        cnfg = configs\R1.cfg
        wic0/0 = WIC-2T
        s0/0 = R2 s0/0
        x = -615.0
        y = 13.0
        z = 1.0
    [[ROUTER R2]]
        model = 3725
        console = 2012
        aux = 2119
        cnfg = configs\R2.cfg
        wic0/0 = WIC-2T
        s0/0 = R1 s0/0
        s0/1 = R3 s0/1
        x = -609.0
        y = -344.0
        z = 1.0
    [[ROUTER R3]]
        model = 3725
        console = 2013
        aux = 2120
        cnfg = configs\R3.cfg
        wic0/0 = WIC-2T
        wic0/1 = WIC-2T
        s0/1 = R2 s0/1
        s0/2 = R4 s0/0
        x = -148.0
        y = -349.0
        z = 1.0
[GNS3-DATA]
    configs = configs
    width = 5000
    height = 2500
    [[NOTE 1]]
        text = FEC0:34::/64
        x = -93.0
        y = -164.5
    [[NOTE 2]]
        text = s0/1\nDCE\n.2\nEIGRP AS 1
        x = -530.0
        y = -363.5
    [[NOTE 3]]
        text = s0/0\n:?\nOSPFv3 Area 0
        x = -93.0
        y = -55.5
    [[NOTE 4]]
        text = s0/2\nDCE\n:?\nOSPFv3 Area 0
        x = -93.0
        y = -289.5
    [[NOTE 5]]
        text = 172.16.23.0/24
        x = -401.0
        y = -363.5
    [[NOTE 6]]
        text = Lo0: FEC0::3:1/112\nOSPFv3 Area 0
        x = -52.0
        y = -342.5
    [[NOTE 7]]
        text = s0/1\n.3\nEIGRP AS 1
        x = -245.0
        y = -360.5
    [[NOTE 8]]
        text = Lo0: FEC0::4:1/112\nOSPFv3 Area 0
        x = -181.0
        y = 99.5
    [[NOTE 9]]
        text = :1                FEC0::13:0/112             :3
        x = -450.0
        y = -54.5
        rotate = -40
    [[NOTE 10]]
        text = 172.16.12.0/24
        x = -714.0
        y = -164.5
    [[NOTE 11]]
        text = s0/0\n.2\nEIGRP AS 1
        x = -688.0
        y = -294.5
    [[NOTE 12]]
        text = Tunnel
        x = -379.0
        y = -149.5
        rotate = -40
    [[NOTE 13]]
        text = Lo0: FEC0::1:1/112\nOSPFv3 Area 0
        x = -657.0
        y = 90.5
    [[NOTE 14]]
        text = s0/0\nDCE\n.1\nEIGRP AS 1
        x = -682.0
        y = -80.5
    [[SHAPE 1]]
        type = ellipse
        x = -85.0
        y = -339.0
        width = 25.0
        height = 22.0
        border_style = 2
        z = -2.0
    [[SHAPE 2]]
        type = ellipse
        x = -597.0
        y = 53.0
        width = 25.0
        height = 22.0
        border_style = 2
        z = -2.0
    [[SHAPE 3]]
        type = rectangle
        x = -519.0
        y = 2.0
        width = 455.236999459
        height = 27.157377957
        rotate = -40
        z = -2.0
    [[SHAPE 4]]
        type = ellipse
        x = -124.0
        y = 58.0
        width = 25.0
        height = 22.0
        border_style = 2
        z = -2.0
