Nov 29 19:09:33.786 HYPERVISOR: Release 0.2.17-amd64/Linux (tag 2017072410)
Nov 29 19:09:33.786 HYPERVISOR: Started on IP = 127.0.0.1, TCP port = 53819.
Nov 29 19:09:33.801 HYPERVISOR: exec_cmd: hypervisor version 
Nov 29 19:09:33.801 HYPERVISOR: exec_cmd: hypervisor working_dir /media/actionmystique/SAMSUNG5-VMs/Labs/GNS3/git-Public-Labs-Collection/CCNP/TBSHOOT/L3-Technologies/IPv6/Routing-Protocols/MP-BGP/Jean-Christophe_Manciot/1+/TT 1-solutions-linux/project-files/dynamips 
Nov 29 19:09:33.801 GENERAL: working_dir=/media/actionmystique/SAMSUNG5-VMs/Labs/GNS3/git-Public-Labs-Collection/CCNP/TBSHOOT/L3-Technologies/IPv6/Routing-Protocols/MP-BGP/Jean-Christophe_Manciot/1+/TT 1-solutions-linux/project-files/dynamips
Nov 29 19:09:33.802 HYPERVISOR: exec_cmd: vm create ESW1 1 c3725 
Nov 29 19:09:33.802 VM: VM ESW1 created.
Nov 29 19:09:33.802 HYPERVISOR: exec_cmd: vm set_con_tcp_port ESW1 2004 
Nov 29 19:09:33.802 HYPERVISOR: exec_cmd: c3725 get_mac_addr ESW1 
Nov 29 19:09:33.803 HYPERVISOR: exec_cmd: vm set_disk0 ESW1 1 
Nov 29 19:09:33.803 HYPERVISOR: exec_cmd: vm get_status ESW1 
Nov 29 19:09:33.803 HYPERVISOR: exec_cmd: vm set_idle_pc ESW1 0x6026b804 
Nov 29 19:09:33.804 HYPERVISOR: exec_cmd: c3725 set_mac_addr ESW1 c201.62e1.0000 
Nov 29 19:09:33.804 HYPERVISOR: exec_cmd: vm set_nvram ESW1 256 
Nov 29 19:09:33.804 HYPERVISOR: exec_cmd: vm get_status ESW1 
Nov 29 19:09:33.805 HYPERVISOR: exec_cmd: vm slot_add_binding ESW1 1 0 NM-16ESW 
Nov 29 19:09:33.805 HYPERVISOR: exec_cmd: vm set_ios ESW1 /media/actionmystique/SAMSUNG5-VMs/Images/GNS3/IOS/c3725-adventerprisek9-mz.124-15.T10.image 
Nov 29 19:09:33.806 HYPERVISOR: exec_cmd: vm slot_add_binding ESW1 0 16 WIC-2T 
Nov 29 19:09:33.806 HYPERVISOR: exec_cmd: vm set_config ESW1 configs/i1_startup-config.cfg 
Nov 29 19:09:33.808 HYPERVISOR: exec_cmd: vm set_config ESW1 configs/i1_startup-config.cfg configs/i1_private-config.cfg 
Nov 29 19:09:33.918 HYPERVISOR: exec_cmd: nio create_udp udp-97088167-400d-4ae3-b227-35b207390a0e 15004 127.0.0.1 15005 
Nov 29 19:09:33.927 HYPERVISOR: exec_cmd: vm slot_add_nio_binding ESW1 1 0 udp-97088167-400d-4ae3-b227-35b207390a0e 
Nov 29 19:09:33.928 HYPERVISOR: exec_cmd: vm get_status ESW1 
