Nov 27 16:13:47.657 HYPERVISOR: Release 0.2.17-amd64/Linux (tag 2017072410)
Nov 27 16:13:47.657 HYPERVISOR: Started on IP = 127.0.0.1, TCP port = 41055.
Nov 27 16:13:47.677 HYPERVISOR: exec_cmd: hypervisor version 
Nov 27 16:13:47.677 HYPERVISOR: exec_cmd: hypervisor working_dir /media/actionmystique/SAMSUNG5-VMs/Labs/GNS3/TT 1-linux-/project-files/dynamips 
Nov 27 16:13:47.677 GENERAL: working_dir=/media/actionmystique/SAMSUNG5-VMs/Labs/GNS3/TT 1-linux-/project-files/dynamips
Nov 27 16:13:47.678 HYPERVISOR: exec_cmd: vm create SW1 1 c3725 
Nov 27 16:13:47.678 VM: VM SW1 created.
Nov 27 16:13:47.679 HYPERVISOR: exec_cmd: vm set_con_tcp_port SW1 2001 
Nov 27 16:13:47.680 HYPERVISOR: exec_cmd: c3725 get_mac_addr SW1 
Nov 27 16:13:47.681 HYPERVISOR: exec_cmd: vm set_nvram SW1 256 
Nov 27 16:13:47.682 HYPERVISOR: exec_cmd: vm get_status SW1 
Nov 27 16:13:47.683 HYPERVISOR: exec_cmd: vm set_idle_pc SW1 0x614ac2c4 
Nov 27 16:13:47.683 HYPERVISOR: exec_cmd: c3725 set_mac_addr SW1 aaaa.aaaa.aaaa 
Nov 27 16:13:47.684 HYPERVISOR: exec_cmd: vm set_exec_area SW1 16 
Nov 27 16:13:47.685 HYPERVISOR: exec_cmd: vm get_status SW1 
Nov 27 16:13:47.686 HYPERVISOR: exec_cmd: vm slot_add_binding SW1 1 0 NM-16ESW 
Nov 27 16:13:47.687 HYPERVISOR: exec_cmd: vm set_disk0 SW1 1 
Nov 27 16:13:47.688 HYPERVISOR: exec_cmd: vm set_ios SW1 /media/actionmystique/SAMSUNG5-VMs/Images/GNS3/IOS/c3725-adventerprisek9-mz.124-15.T10.image 
Nov 27 16:13:47.689 HYPERVISOR: exec_cmd: vm slot_add_binding SW1 0 16 WIC-2T 
Nov 27 16:13:47.691 HYPERVISOR: exec_cmd: vm set_config SW1 configs/i1_startup-config.cfg 
Nov 27 16:13:47.692 HYPERVISOR: exec_cmd: vm set_config SW1 configs/i1_startup-config.cfg configs/i1_private-config.cfg 
Nov 27 16:13:47.801 HYPERVISOR: exec_cmd: nio create_null null-f6895ef3-5489-46cc-b3d4-4fa8a9982122 
Nov 27 16:13:47.803 HYPERVISOR: exec_cmd: vm slot_add_nio_binding SW1 1 0 null-f6895ef3-5489-46cc-b3d4-4fa8a9982122 
Nov 27 16:13:47.803 HYPERVISOR: exec_cmd: vm get_status SW1 
Nov 27 16:13:47.897 HYPERVISOR: exec_cmd: nio create_udp udp-11308f4e-5752-497e-9f76-6f9b9842aced 15005 127.0.0.1 15004 
Nov 27 16:13:47.899 HYPERVISOR: exec_cmd: vm slot_add_nio_binding SW1 1 5 udp-11308f4e-5752-497e-9f76-6f9b9842aced 
Nov 27 16:13:47.902 HYPERVISOR: exec_cmd: vm get_status SW1 
Nov 27 16:13:47.933 HYPERVISOR: exec_cmd: nio create_udp udp-0f88d312-5d18-4cd0-8b37-9d2bc4d880e7 15006 127.0.0.1 15008 
Nov 27 16:13:47.933 HYPERVISOR: exec_cmd: vm slot_add_nio_binding SW1 1 6 udp-0f88d312-5d18-4cd0-8b37-9d2bc4d880e7 
Nov 27 16:13:47.933 HYPERVISOR: exec_cmd: vm get_status SW1 
Nov 27 16:13:47.948 HYPERVISOR: exec_cmd: nio create_udp udp-90818f61-d99e-4c08-a9be-0a6561c8c42e 15007 127.0.0.1 15009 
Nov 27 16:13:47.949 HYPERVISOR: exec_cmd: vm slot_add_nio_binding SW1 1 1 udp-90818f61-d99e-4c08-a9be-0a6561c8c42e 
Nov 27 16:13:47.949 HYPERVISOR: exec_cmd: vm get_status SW1 
Nov 27 16:14:00.100 HYPERVISOR: exec_cmd: vm get_status SW1 
Nov 27 16:14:00.101 HYPERVISOR: exec_cmd: vm extract_config SW1 
Nov 27 16:14:00.104 HYPERVISOR: exec_cmd: vm delete SW1 
Nov 27 16:14:00.104 VM: VM SW1 destroyed.
Nov 27 16:14:00.105 HYPERVISOR: exec_cmd: hypervisor stop 
Nov 27 16:14:00.187 HYPERVISOR: Stopped.
Nov 27 16:14:00.187 GENERAL: reset done.
