Nov 27 16:16:14.752 HYPERVISOR: Release 0.2.17-amd64/Linux (tag 2017072410)
Nov 27 16:16:14.752 HYPERVISOR: Started on IP = 127.0.0.1, TCP port = 41609.
Nov 27 16:16:14.777 HYPERVISOR: exec_cmd: hypervisor version 
Nov 27 16:16:14.778 HYPERVISOR: exec_cmd: hypervisor working_dir /media/actionmystique/SAMSUNG5-VMs/Labs/GNS3/git-Public-Labs-Collection/CCNP/TBSHOOT/L3-Technologies/BFD/Jean-Christophe_Manciot/1+/TT 1-linux/project-files/dynamips 
Nov 27 16:16:14.778 GENERAL: working_dir=/media/actionmystique/SAMSUNG5-VMs/Labs/GNS3/git-Public-Labs-Collection/CCNP/TBSHOOT/L3-Technologies/BFD/Jean-Christophe_Manciot/1+/TT 1-linux/project-files/dynamips
Nov 27 16:16:14.779 HYPERVISOR: exec_cmd: vm create ESW2 2 c3725 
Nov 27 16:16:14.779 VM: VM ESW2 created.
Nov 27 16:16:14.780 HYPERVISOR: exec_cmd: vm set_con_tcp_port ESW2 2005 
Nov 27 16:16:14.780 HYPERVISOR: exec_cmd: c3725 get_mac_addr ESW2 
Nov 27 16:16:14.781 HYPERVISOR: exec_cmd: vm set_nvram ESW2 256 
Nov 27 16:16:14.782 HYPERVISOR: exec_cmd: vm get_status ESW2 
Nov 27 16:16:14.782 HYPERVISOR: exec_cmd: vm set_idle_pc ESW2 0x60c06d20 
Nov 27 16:16:14.783 HYPERVISOR: exec_cmd: c3725 set_mac_addr ESW2 c202.1bd4.0000 
Nov 27 16:16:14.784 HYPERVISOR: exec_cmd: vm get_status ESW2 
Nov 27 16:16:14.784 HYPERVISOR: exec_cmd: vm slot_add_binding ESW2 1 0 NM-16ESW 
Nov 27 16:16:14.785 HYPERVISOR: exec_cmd: vm set_disk0 ESW2 1 
Nov 27 16:16:14.787 HYPERVISOR: exec_cmd: vm set_ios ESW2 /media/actionmystique/SAMSUNG5-VMs/Images/GNS3/IOS/c3725-adventerprisek9-mz.124-15.T10.image 
Nov 27 16:16:14.792 HYPERVISOR: exec_cmd: vm slot_add_binding ESW2 0 16 WIC-2T 
Nov 27 16:16:14.801 HYPERVISOR: exec_cmd: vm set_config ESW2 configs/ios_base_startup-config.txt 
Nov 27 16:16:14.803 HYPERVISOR: exec_cmd: vm set_config ESW2 configs/ios_base_startup-config.txt configs/ios_base_private-config.txt 
Nov 27 16:16:15.133 HYPERVISOR: exec_cmd: nio create_udp udp-386b8e6b-25e3-435d-aecb-ed4393597e5e 15009 127.0.0.1 15008 
Nov 27 16:16:15.133 HYPERVISOR: exec_cmd: vm slot_add_nio_binding ESW2 1 0 udp-386b8e6b-25e3-435d-aecb-ed4393597e5e 
Nov 27 16:16:15.134 HYPERVISOR: exec_cmd: vm get_status ESW2 
Nov 27 16:16:15.234 HYPERVISOR: exec_cmd: nio create_udp udp-0980cfa7-e264-4bc4-8554-b09dc9ebf4a6 15019 127.0.0.1 15018 
Nov 27 16:16:15.235 HYPERVISOR: exec_cmd: vm slot_add_nio_binding ESW2 1 1 udp-0980cfa7-e264-4bc4-8554-b09dc9ebf4a6 
Nov 27 16:16:15.235 HYPERVISOR: exec_cmd: vm get_status ESW2 
