Nov 27 16:17:05.084 HYPERVISOR: Release 0.2.17-amd64/Linux (tag 2017072410)
Nov 27 16:17:05.084 HYPERVISOR: Started on IP = 127.0.0.1, TCP port = 42453.
Nov 27 16:17:05.097 HYPERVISOR: exec_cmd: hypervisor version 
Nov 27 16:17:05.097 HYPERVISOR: exec_cmd: hypervisor working_dir /media/actionmystique/SAMSUNG5-VMs/Labs/GNS3/TT 1-linux-/project-files/dynamips 
Nov 27 16:17:05.097 GENERAL: working_dir=/media/actionmystique/SAMSUNG5-VMs/Labs/GNS3/TT 1-linux-/project-files/dynamips
Nov 27 16:17:05.098 HYPERVISOR: exec_cmd: vm create ESW2 2 c3725 
Nov 27 16:17:05.098 VM: VM ESW2 created.
Nov 27 16:17:05.098 HYPERVISOR: exec_cmd: vm set_con_tcp_port ESW2 2005 
Nov 27 16:17:05.098 HYPERVISOR: exec_cmd: c3725 get_mac_addr ESW2 
Nov 27 16:17:05.099 HYPERVISOR: exec_cmd: vm set_nvram ESW2 256 
Nov 27 16:17:05.099 HYPERVISOR: exec_cmd: vm get_status ESW2 
Nov 27 16:17:05.099 HYPERVISOR: exec_cmd: vm set_idle_pc ESW2 0x60c06d20 
Nov 27 16:17:05.100 HYPERVISOR: exec_cmd: c3725 set_mac_addr ESW2 c202.1bd4.0000 
Nov 27 16:17:05.100 HYPERVISOR: exec_cmd: vm get_status ESW2 
Nov 27 16:17:05.100 HYPERVISOR: exec_cmd: vm slot_add_binding ESW2 1 0 NM-16ESW 
Nov 27 16:17:05.101 HYPERVISOR: exec_cmd: vm set_disk0 ESW2 1 
Nov 27 16:17:05.101 HYPERVISOR: exec_cmd: vm set_ios ESW2 /media/actionmystique/SAMSUNG5-VMs/Images/GNS3/IOS/c3725-adventerprisek9-mz.124-15.T10.image 
Nov 27 16:17:05.102 HYPERVISOR: exec_cmd: vm slot_add_binding ESW2 0 16 WIC-2T 
Nov 27 16:17:05.102 HYPERVISOR: exec_cmd: vm set_config ESW2 configs/ios_base_startup-config.txt 
Nov 27 16:17:05.103 HYPERVISOR: exec_cmd: vm set_config ESW2 configs/ios_base_startup-config.txt configs/ios_base_private-config.txt 
Nov 27 16:17:05.513 HYPERVISOR: exec_cmd: nio create_udp udp-ed2ed6be-d94f-4596-8c3a-318c60b639f8 15005 127.0.0.1 15003 
Nov 27 16:17:05.513 HYPERVISOR: exec_cmd: vm slot_add_nio_binding ESW2 1 0 udp-ed2ed6be-d94f-4596-8c3a-318c60b639f8 
Nov 27 16:17:05.514 HYPERVISOR: exec_cmd: vm get_status ESW2 
Nov 27 16:17:05.597 HYPERVISOR: exec_cmd: nio create_udp udp-b6d117bd-f93a-4895-9f0a-e6668b5c2d8a 15013 127.0.0.1 15011 
Nov 27 16:17:05.597 HYPERVISOR: exec_cmd: vm slot_add_nio_binding ESW2 1 1 udp-b6d117bd-f93a-4895-9f0a-e6668b5c2d8a 
Nov 27 16:17:05.598 HYPERVISOR: exec_cmd: vm get_status ESW2 
Nov 27 16:17:23.667 HYPERVISOR: exec_cmd: vm get_status ESW2 
Nov 27 16:17:23.669 HYPERVISOR: exec_cmd: vm extract_config ESW2 
Nov 27 16:17:23.672 HYPERVISOR: exec_cmd: vm delete ESW2 
Nov 27 16:17:23.672 VM: VM ESW2 destroyed.
Nov 27 16:17:23.674 HYPERVISOR: exec_cmd: hypervisor stop 
Nov 27 16:17:24.116 HYPERVISOR: Stopped.
Nov 27 16:17:24.116 GENERAL: reset done.
