Nov 28 08:39:50.816 HYPERVISOR: Release 0.2.17-amd64/Linux (tag 2017072410)
Nov 28 08:39:50.816 HYPERVISOR: Started on IP = 127.0.0.1, TCP port = 51271.
Nov 28 08:39:50.830 HYPERVISOR: exec_cmd: hypervisor version 
Nov 28 08:39:50.839 HYPERVISOR: exec_cmd: hypervisor working_dir /media/actionmystique/SAMSUNG5-VMs/Labs/GNS3/git-Public-Labs-Collection/CCNP/TBSHOOT/L3-Technologies/IPv4/Routing-Protocols/OSPFv2/Jean-Christophe_Manciot/1+/TT 1-solutions-linux/project-files/dynamips 
Nov 28 08:39:50.839 GENERAL: working_dir=/media/actionmystique/SAMSUNG5-VMs/Labs/GNS3/git-Public-Labs-Collection/CCNP/TBSHOOT/L3-Technologies/IPv4/Routing-Protocols/OSPFv2/Jean-Christophe_Manciot/1+/TT 1-solutions-linux/project-files/dynamips
Nov 28 08:39:50.841 HYPERVISOR: exec_cmd: vm create ESW3 3 c3725 
Nov 28 08:39:50.841 VM: VM ESW3 created.
Nov 28 08:39:50.843 HYPERVISOR: exec_cmd: vm set_con_tcp_port ESW3 2006 
Nov 28 08:39:50.846 HYPERVISOR: exec_cmd: c3725 get_mac_addr ESW3 
Nov 28 08:39:50.847 HYPERVISOR: exec_cmd: vm set_disk0 ESW3 1 
Nov 28 08:39:50.848 HYPERVISOR: exec_cmd: vm get_status ESW3 
Nov 28 08:39:50.849 HYPERVISOR: exec_cmd: vm slot_add_binding ESW3 1 0 NM-16ESW 
Nov 28 08:39:50.850 HYPERVISOR: exec_cmd: vm set_ios ESW3 /media/actionmystique/SAMSUNG5-VMs/Images/GNS3/IOS/c3725-adventerprisek9-mz.124-15.T10.image 
Nov 28 08:39:50.851 HYPERVISOR: exec_cmd: c3725 set_mac_addr ESW3 c203.1bfb.0000 
Nov 28 08:39:50.851 HYPERVISOR: exec_cmd: vm slot_add_binding ESW3 0 16 WIC-2T 
Nov 28 08:39:50.852 HYPERVISOR: exec_cmd: vm get_status ESW3 
Nov 28 08:39:50.853 HYPERVISOR: exec_cmd: vm set_idle_pc ESW3 0x6026b804 
Nov 28 08:39:50.854 HYPERVISOR: exec_cmd: vm set_nvram ESW3 256 
Nov 28 08:39:50.855 HYPERVISOR: exec_cmd: vm set_config ESW3 configs/ios_base_startup-config.txt 
Nov 28 08:39:50.856 HYPERVISOR: exec_cmd: vm set_config ESW3 configs/ios_base_startup-config.txt configs/ios_base_private-config.txt 
Nov 28 08:39:51.052 HYPERVISOR: exec_cmd: nio create_udp udp-362c8172-3cfb-4f03-bf68-fa4f6a002b8d 15007 127.0.0.1 15009 
Nov 28 08:39:51.053 HYPERVISOR: exec_cmd: vm slot_add_nio_binding ESW3 1 0 udp-362c8172-3cfb-4f03-bf68-fa4f6a002b8d 
Nov 28 08:39:51.053 HYPERVISOR: exec_cmd: vm get_status ESW3 
Nov 28 08:40:00.637 HYPERVISOR: exec_cmd: nio create_tap tap-dfaeb9ad-841d-4c0c-ad89-f01d071e3cdb tap0 
Nov 28 08:40:00.637 HYPERVISOR: exec_cmd: vm slot_add_nio_binding ESW3 1 1 tap-dfaeb9ad-841d-4c0c-ad89-f01d071e3cdb 
Nov 28 08:40:00.638 HYPERVISOR: exec_cmd: vm get_status ESW3 
