Nov 27 15:44:58.886 HYPERVISOR: Release 0.2.17-amd64/Linux (tag 2017072410)
Nov 27 15:44:58.886 HYPERVISOR: Started on IP = 127.0.0.1, TCP port = 54517.
Nov 27 15:44:58.904 HYPERVISOR: exec_cmd: hypervisor version 
Nov 27 15:44:58.905 HYPERVISOR: exec_cmd: hypervisor working_dir /media/actionmystique/SAMSUNG5-VMs/Labs/GNS3/TT 1-linux-/project-files/dynamips 
Nov 27 15:44:58.905 GENERAL: working_dir=/media/actionmystique/SAMSUNG5-VMs/Labs/GNS3/TT 1-linux-/project-files/dynamips
Nov 27 15:44:58.906 HYPERVISOR: exec_cmd: vm create SW1 1 c3725 
Nov 27 15:44:58.906 VM: VM SW1 created.
Nov 27 15:44:58.907 HYPERVISOR: exec_cmd: vm set_con_tcp_port SW1 2001 
Nov 27 15:44:58.908 HYPERVISOR: exec_cmd: c3725 get_mac_addr SW1 
Nov 27 15:44:58.908 HYPERVISOR: exec_cmd: c3725 set_mac_addr SW1 aaaa.aaaa.aaaa 
Nov 27 15:44:58.909 HYPERVISOR: exec_cmd: vm get_status SW1 
Nov 27 15:44:58.910 HYPERVISOR: exec_cmd: vm slot_add_binding SW1 1 0 NM-16ESW 
Nov 27 15:44:58.911 HYPERVISOR: exec_cmd: vm get_status SW1 
Nov 27 15:44:58.912 HYPERVISOR: exec_cmd: vm set_idle_pc SW1 0x614ac2c4 
Nov 27 15:44:58.913 HYPERVISOR: exec_cmd: vm slot_add_binding SW1 0 16 WIC-2T 
Nov 27 15:44:58.914 HYPERVISOR: exec_cmd: vm set_ios SW1 /media/actionmystique/SAMSUNG5-VMs/Images/GNS3/IOS/c3725-adventerprisek9-mz.124-15.T10.image 
Nov 27 15:44:58.915 HYPERVISOR: exec_cmd: vm set_exec_area SW1 16 
Nov 27 15:44:58.916 HYPERVISOR: exec_cmd: vm set_disk0 SW1 1 
Nov 27 15:44:58.917 HYPERVISOR: exec_cmd: vm set_nvram SW1 256 
Nov 27 15:44:58.919 HYPERVISOR: exec_cmd: vm set_config SW1 configs/i1_startup-config.cfg 
Nov 27 15:44:58.920 HYPERVISOR: exec_cmd: vm set_config SW1 configs/i1_startup-config.cfg configs/i1_private-config.cfg 
Nov 27 15:44:59.015 HYPERVISOR: exec_cmd: nio create_null null-e430abf4-adf3-4507-81ef-ae78c4962dec 
Nov 27 15:44:59.017 HYPERVISOR: exec_cmd: vm slot_add_nio_binding SW1 1 0 null-e430abf4-adf3-4507-81ef-ae78c4962dec 
Nov 27 15:44:59.017 HYPERVISOR: exec_cmd: vm get_status SW1 
Nov 27 15:44:59.109 HYPERVISOR: exec_cmd: nio create_udp udp-c9871321-df0c-4b1d-a3a8-df36545fe6c7 15005 127.0.0.1 15004 
Nov 27 15:44:59.118 HYPERVISOR: exec_cmd: vm slot_add_nio_binding SW1 1 5 udp-c9871321-df0c-4b1d-a3a8-df36545fe6c7 
Nov 27 15:44:59.122 HYPERVISOR: exec_cmd: vm get_status SW1 
Nov 27 15:44:59.145 HYPERVISOR: exec_cmd: nio create_udp udp-6d15d6fc-0049-4acd-b122-9e45dfa8e240 15008 127.0.0.1 15007 
Nov 27 15:44:59.145 HYPERVISOR: exec_cmd: vm slot_add_nio_binding SW1 1 1 udp-6d15d6fc-0049-4acd-b122-9e45dfa8e240 
Nov 27 15:44:59.146 HYPERVISOR: exec_cmd: vm get_status SW1 
Nov 27 15:44:59.176 HYPERVISOR: exec_cmd: nio create_udp udp-bdfba19a-112e-4244-8c4a-f8d6e4c2aa63 15006 127.0.0.1 15009 
Nov 27 15:44:59.176 HYPERVISOR: exec_cmd: vm slot_add_nio_binding SW1 1 6 udp-bdfba19a-112e-4244-8c4a-f8d6e4c2aa63 
Nov 27 15:44:59.177 HYPERVISOR: exec_cmd: vm get_status SW1 
Nov 27 15:45:19.445 HYPERVISOR: exec_cmd: vm get_status SW1 
Nov 27 15:45:19.446 HYPERVISOR: exec_cmd: vm extract_config SW1 
Nov 27 15:45:19.448 HYPERVISOR: exec_cmd: vm delete SW1 
Nov 27 15:45:19.448 VM: VM SW1 destroyed.
Nov 27 15:45:19.457 HYPERVISOR: exec_cmd: hypervisor stop 
Nov 27 15:45:19.924 HYPERVISOR: Stopped.
Nov 27 15:45:19.924 GENERAL: reset done.
