Nov 29 15:26:37.462 HYPERVISOR: Release 0.2.17-amd64/Linux (tag 2017072410)
Nov 29 15:26:37.462 HYPERVISOR: Started on IP = 127.0.0.1, TCP port = 48783.
Nov 29 15:26:37.481 HYPERVISOR: exec_cmd: hypervisor version 
Nov 29 15:26:37.482 HYPERVISOR: exec_cmd: hypervisor working_dir /media/actionmystique/SAMSUNG5-VMs/Labs/GNS3/git-Public-Labs-Collection/CCNP/TBSHOOT/L3-Technologies/IPv4/Routing-Protocols/Redistribution/Jean-Christophe_Manciot/1+/TT 3-solutions-linux/project-files/dynamips 
Nov 29 15:26:37.482 GENERAL: working_dir=/media/actionmystique/SAMSUNG5-VMs/Labs/GNS3/git-Public-Labs-Collection/CCNP/TBSHOOT/L3-Technologies/IPv4/Routing-Protocols/Redistribution/Jean-Christophe_Manciot/1+/TT 3-solutions-linux/project-files/dynamips
Nov 29 15:26:37.482 HYPERVISOR: exec_cmd: vm create ESW3 3 c3725 
Nov 29 15:26:37.482 VM: VM ESW3 created.
Nov 29 15:26:37.483 HYPERVISOR: exec_cmd: vm set_con_tcp_port ESW3 2006 
Nov 29 15:26:37.484 HYPERVISOR: exec_cmd: c3725 get_mac_addr ESW3 
Nov 29 15:26:37.487 HYPERVISOR: exec_cmd: vm get_status ESW3 
Nov 29 15:26:37.488 HYPERVISOR: exec_cmd: vm set_idle_pc ESW3 0x60c05928 
Nov 29 15:26:37.489 HYPERVISOR: exec_cmd: vm get_status ESW3 
Nov 29 15:26:37.490 HYPERVISOR: exec_cmd: vm slot_add_binding ESW3 1 0 NM-16ESW 
Nov 29 15:26:37.491 HYPERVISOR: exec_cmd: vm set_disk0 ESW3 1 
Nov 29 15:26:37.491 HYPERVISOR: exec_cmd: vm set_nvram ESW3 256 
Nov 29 15:26:37.492 HYPERVISOR: exec_cmd: vm set_ios ESW3 /media/actionmystique/SAMSUNG5-VMs/Images/GNS3/IOS/c3725-adventerprisek9-mz.124-15.T10.image 
Nov 29 15:26:37.493 HYPERVISOR: exec_cmd: c3725 set_mac_addr ESW3 c203.1bfb.0000 
Nov 29 15:26:37.494 HYPERVISOR: exec_cmd: vm slot_add_binding ESW3 0 16 WIC-2T 
Nov 29 15:26:37.496 HYPERVISOR: exec_cmd: vm set_config ESW3 configs/ios_base_startup-config.txt 
Nov 29 15:26:37.497 HYPERVISOR: exec_cmd: vm set_config ESW3 configs/ios_base_startup-config.txt configs/ios_base_private-config.txt 
Nov 29 15:26:37.681 HYPERVISOR: exec_cmd: nio create_tap tap-ae5ace69-b45f-4a06-8e2f-0c1a8cf6be82 tap0 
Nov 29 15:26:37.682 HYPERVISOR: exec_cmd: vm slot_add_nio_binding ESW3 1 1 tap-ae5ace69-b45f-4a06-8e2f-0c1a8cf6be82 
Nov 29 15:26:37.682 HYPERVISOR: exec_cmd: vm get_status ESW3 
Nov 29 15:26:37.852 HYPERVISOR: exec_cmd: nio create_udp udp-63ee306e-c480-487d-acc1-aec515ebcf88 15019 127.0.0.1 15018 
Nov 29 15:26:37.852 HYPERVISOR: exec_cmd: vm slot_add_nio_binding ESW3 1 0 udp-63ee306e-c480-487d-acc1-aec515ebcf88 
Nov 29 15:26:37.853 HYPERVISOR: exec_cmd: vm get_status ESW3 
