Nov 26 20:48:29.725 HYPERVISOR: Release 0.2.17-amd64/Linux (tag 2017072410)
Nov 26 20:48:29.725 HYPERVISOR: Started on IP = 127.0.0.1, TCP port = 41859.
Nov 26 20:48:29.737 HYPERVISOR: exec_cmd: hypervisor version 
Nov 26 20:48:29.740 HYPERVISOR: exec_cmd: hypervisor working_dir /media/actionmystique/SAMSUNG5-VMs/Labs/GNS3/Multi-Areas/project-files/dynamips 
Nov 26 20:48:29.740 GENERAL: working_dir=/media/actionmystique/SAMSUNG5-VMs/Labs/GNS3/Multi-Areas/project-files/dynamips
Nov 26 20:48:29.742 HYPERVISOR: exec_cmd: vm create ABR1 2 c7200 
Nov 26 20:48:29.742 VM: VM ABR1 created.
Nov 26 20:48:29.744 HYPERVISOR: exec_cmd: vm set_con_tcp_port ABR1 2001 
Nov 26 20:48:29.746 HYPERVISOR: exec_cmd: vm set_aux_tcp_port ABR1 2110 
Nov 26 20:48:29.748 HYPERVISOR: exec_cmd: c7200 get_mac_addr ABR1 
Nov 26 20:48:29.750 HYPERVISOR: exec_cmd: vm get_status ABR1 
Nov 26 20:48:29.753 HYPERVISOR: exec_cmd: vm slot_add_binding ABR1 0 0 C7200-IO-FE 
Nov 26 20:48:29.755 HYPERVISOR: exec_cmd: vm get_status ABR1 
Nov 26 20:48:29.756 HYPERVISOR: exec_cmd: vm slot_remove_binding ABR1 0 0 
Nov 26 20:48:29.758 HYPERVISOR: exec_cmd: vm get_status ABR1 
Nov 26 20:48:29.759 HYPERVISOR: exec_cmd: vm slot_add_binding ABR1 0 0 C7200-IO-GE-E 
Nov 26 20:48:29.762 HYPERVISOR: exec_cmd: vm get_status ABR1 
Nov 26 20:48:29.764 HYPERVISOR: exec_cmd: vm slot_add_binding ABR1 2 0 PA-2FE-TX 
Nov 26 20:48:29.766 HYPERVISOR: exec_cmd: vm set_ram ABR1 512 
Nov 26 20:48:29.767 HYPERVISOR: exec_cmd: vm get_status ABR1 
Nov 26 20:48:29.771 HYPERVISOR: exec_cmd: vm set_idle_pc ABR1 0x60188e14 
Nov 26 20:48:29.773 HYPERVISOR: exec_cmd: vm get_status ABR1 
Nov 26 20:48:29.775 HYPERVISOR: exec_cmd: vm slot_add_binding ABR1 1 0 PA-8T 
Nov 26 20:48:29.778 HYPERVISOR: exec_cmd: vm get_status ABR1 
Nov 26 20:48:29.791 HYPERVISOR: exec_cmd: vm slot_add_binding ABR1 3 0 PA-2FE-TX 
Nov 26 20:48:29.793 HYPERVISOR: exec_cmd: vm set_con_tcp_port ABR1 2001 
Nov 26 20:48:29.795 HYPERVISOR: exec_cmd: vm set_ios ABR1 /media/actionmystique/SAMSUNG5-VMs/Images/GNS3/IOS/c7200-adventerprisek9-mz.152-4.M2.image 
Nov 26 20:48:29.800 HYPERVISOR: exec_cmd: vm set_config ABR1 configs/i2_startup-config.cfg 
Nov 26 20:48:30.824 HYPERVISOR: exec_cmd: vm extract_config ABR1 
Nov 26 20:48:30.868 HYPERVISOR: exec_cmd: nio create_udp udp-92b12a79-50c7-48ec-88fe-ffbfb42b7287 15002 127.0.0.1 15004 
Nov 26 20:48:30.869 HYPERVISOR: exec_cmd: vm slot_add_nio_binding ABR1 0 0 udp-92b12a79-50c7-48ec-88fe-ffbfb42b7287 
Nov 26 20:48:30.870 HYPERVISOR: exec_cmd: vm get_status ABR1 
Nov 26 20:48:30.913 HYPERVISOR: exec_cmd: nio create_udp udp-804bd028-665a-4141-afa4-f37d98bb0b7f 15007 127.0.0.1 15006 
Nov 26 20:48:30.913 HYPERVISOR: exec_cmd: vm slot_add_nio_binding ABR1 1 0 udp-804bd028-665a-4141-afa4-f37d98bb0b7f 
Nov 26 20:48:30.913 HYPERVISOR: exec_cmd: vm get_status ABR1 
Nov 26 20:48:30.988 HYPERVISOR: exec_cmd: nio create_udp udp-88504656-88ca-44b9-8706-dae22176deed 15016 127.0.0.1 15015 
Nov 26 20:48:30.989 HYPERVISOR: exec_cmd: vm slot_add_nio_binding ABR1 2 0 udp-88504656-88ca-44b9-8706-dae22176deed 
Nov 26 20:48:30.989 HYPERVISOR: exec_cmd: vm get_status ABR1 
Nov 26 20:48:30.995 HYPERVISOR: exec_cmd: nio create_udp udp-3dcebd10-6716-4b1b-bcce-0a8f366df231 15017 127.0.0.1 15014 
Nov 26 20:48:30.996 HYPERVISOR: exec_cmd: vm slot_add_nio_binding ABR1 3 0 udp-3dcebd10-6716-4b1b-bcce-0a8f366df231 
Nov 26 20:48:30.996 HYPERVISOR: exec_cmd: vm get_status ABR1 
Nov 26 20:48:31.101 HYPERVISOR: exec_cmd: nio create_udp udp-e15638ff-dbea-4a09-ac41-cacee89c2683 15022 127.0.0.1 15023 
Nov 26 20:48:31.102 HYPERVISOR: exec_cmd: vm slot_add_nio_binding ABR1 2 1 udp-e15638ff-dbea-4a09-ac41-cacee89c2683 
Nov 26 20:48:31.102 HYPERVISOR: exec_cmd: vm get_status ABR1 
Nov 26 20:48:38.515 HYPERVISOR: exec_cmd: vm extract_config ABR1 
Nov 26 20:49:00.823 HYPERVISOR: exec_cmd: vm get_status ABR1 
Nov 26 20:49:00.828 HYPERVISOR: exec_cmd: vm extract_config ABR1 
Nov 26 20:49:00.832 HYPERVISOR: exec_cmd: vm delete ABR1 
Nov 26 20:49:00.832 VM: VM ABR1 destroyed.
Nov 26 20:49:00.837 HYPERVISOR: exec_cmd: hypervisor stop 
Nov 26 20:49:01.259 HYPERVISOR: Stopped.
Nov 26 20:49:01.259 GENERAL: reset done.
