Nov 26 20:48:29.962 HYPERVISOR: Release 0.2.17-amd64/Linux (tag 2017072410)
Nov 26 20:48:29.962 HYPERVISOR: Started on IP = 127.0.0.1, TCP port = 59887.
Nov 26 20:48:29.987 HYPERVISOR: exec_cmd: hypervisor version 
Nov 26 20:48:29.989 HYPERVISOR: exec_cmd: hypervisor working_dir /media/actionmystique/SAMSUNG5-VMs/Labs/GNS3/Multi-Areas/project-files/dynamips 
Nov 26 20:48:29.989 GENERAL: working_dir=/media/actionmystique/SAMSUNG5-VMs/Labs/GNS3/Multi-Areas/project-files/dynamips
Nov 26 20:48:29.991 HYPERVISOR: exec_cmd: vm create ISP2 13 c7200 
Nov 26 20:48:29.991 VM: VM ISP2 created.
Nov 26 20:48:29.993 HYPERVISOR: exec_cmd: vm set_con_tcp_port ISP2 2013 
Nov 26 20:48:29.995 HYPERVISOR: exec_cmd: vm set_aux_tcp_port ISP2 2513 
Nov 26 20:48:29.996 HYPERVISOR: exec_cmd: c7200 get_mac_addr ISP2 
Nov 26 20:48:29.998 HYPERVISOR: exec_cmd: vm get_status ISP2 
Nov 26 20:48:29.999 HYPERVISOR: exec_cmd: vm slot_add_binding ISP2 0 0 C7200-IO-FE 
Nov 26 20:48:30.001 HYPERVISOR: exec_cmd: vm get_status ISP2 
Nov 26 20:48:30.004 HYPERVISOR: exec_cmd: vm slot_remove_binding ISP2 0 0 
Nov 26 20:48:30.006 HYPERVISOR: exec_cmd: vm get_status ISP2 
Nov 26 20:48:30.008 HYPERVISOR: exec_cmd: vm slot_add_binding ISP2 0 0 C7200-IO-GE-E 
Nov 26 20:48:30.009 HYPERVISOR: exec_cmd: vm get_status ISP2 
Nov 26 20:48:30.011 HYPERVISOR: exec_cmd: vm slot_add_binding ISP2 2 0 PA-POS-OC3 
Nov 26 20:48:30.012 HYPERVISOR: exec_cmd: vm set_ram ISP2 512 
Nov 26 20:48:30.014 HYPERVISOR: exec_cmd: vm get_status ISP2 
Nov 26 20:48:30.022 HYPERVISOR: exec_cmd: vm set_idle_pc ISP2 0x60188e14 
Nov 26 20:48:30.040 HYPERVISOR: exec_cmd: vm get_status ISP2 
Nov 26 20:48:30.050 HYPERVISOR: exec_cmd: vm slot_add_binding ISP2 1 0 PA-GE 
Nov 26 20:48:30.060 HYPERVISOR: exec_cmd: vm get_status ISP2 
Nov 26 20:48:30.073 HYPERVISOR: exec_cmd: vm slot_add_binding ISP2 3 0 PA-POS-OC3 
Nov 26 20:48:30.077 HYPERVISOR: exec_cmd: vm set_ios ISP2 /media/actionmystique/SAMSUNG5-VMs/Images/GNS3/IOS/c7200-adventerprisek9-mz.152-4.M2.image 
Nov 26 20:48:30.079 HYPERVISOR: exec_cmd: vm set_config ISP2 configs/i13_startup-config.cfg 
Nov 26 20:48:30.825 HYPERVISOR: exec_cmd: vm extract_config ISP2 
Nov 26 20:48:31.245 HYPERVISOR: exec_cmd: nio create_udp udp-b9d75df8-af45-4ac7-af43-4aa854ae0b2c 15037 127.0.0.1 15034 
Nov 26 20:48:31.246 HYPERVISOR: exec_cmd: vm slot_add_nio_binding ISP2 0 0 udp-b9d75df8-af45-4ac7-af43-4aa854ae0b2c 
Nov 26 20:48:31.247 HYPERVISOR: exec_cmd: vm get_status ISP2 
Nov 26 20:48:31.272 HYPERVISOR: exec_cmd: nio create_udp udp-d3d17fdf-3eb8-4ba3-a9d5-c6b7e2574ea2 15039 127.0.0.1 15038 
Nov 26 20:48:31.273 HYPERVISOR: exec_cmd: vm slot_add_nio_binding ISP2 1 0 udp-d3d17fdf-3eb8-4ba3-a9d5-c6b7e2574ea2 
Nov 26 20:48:31.273 HYPERVISOR: exec_cmd: vm get_status ISP2 
Nov 26 20:48:31.299 HYPERVISOR: exec_cmd: nio create_udp udp-f415c1ed-8b58-414c-9b1c-90c3a1af769e 15042 127.0.0.1 15043 
Nov 26 20:48:31.300 HYPERVISOR: exec_cmd: vm slot_add_nio_binding ISP2 3 0 udp-f415c1ed-8b58-414c-9b1c-90c3a1af769e 
Nov 26 20:48:31.300 HYPERVISOR: exec_cmd: vm get_status ISP2 
Nov 26 20:48:31.372 HYPERVISOR: exec_cmd: nio create_udp udp-5078f51a-53d0-40df-bcf9-f81cfa061e02 15049 127.0.0.1 15050 
Nov 26 20:48:31.373 HYPERVISOR: exec_cmd: vm slot_add_nio_binding ISP2 2 0 udp-5078f51a-53d0-40df-bcf9-f81cfa061e02 
Nov 26 20:48:31.377 HYPERVISOR: exec_cmd: vm get_status ISP2 
Nov 26 20:48:38.516 HYPERVISOR: exec_cmd: vm extract_config ISP2 
Nov 26 20:49:00.820 HYPERVISOR: exec_cmd: vm get_status ISP2 
Nov 26 20:49:00.826 HYPERVISOR: exec_cmd: vm extract_config ISP2 
Nov 26 20:49:00.830 HYPERVISOR: exec_cmd: vm delete ISP2 
Nov 26 20:49:00.830 VM: VM ISP2 destroyed.
Nov 26 20:49:00.835 HYPERVISOR: exec_cmd: hypervisor stop 
Nov 26 20:49:01.013 HYPERVISOR: Stopped.
Nov 26 20:49:01.013 GENERAL: reset done.
