Nov 26 20:48:29.831 HYPERVISOR: Release 0.2.17-amd64/Linux (tag 2017072410)
Nov 26 20:48:29.831 HYPERVISOR: Started on IP = 127.0.0.1, TCP port = 54443.
Nov 26 20:48:29.856 HYPERVISOR: exec_cmd: hypervisor version 
Nov 26 20:48:29.858 HYPERVISOR: exec_cmd: hypervisor working_dir /media/actionmystique/SAMSUNG5-VMs/Labs/GNS3/Multi-Areas/project-files/dynamips 
Nov 26 20:48:29.858 GENERAL: working_dir=/media/actionmystique/SAMSUNG5-VMs/Labs/GNS3/Multi-Areas/project-files/dynamips
Nov 26 20:48:29.860 HYPERVISOR: exec_cmd: vm create BR8 8 c7200 
Nov 26 20:48:29.860 VM: VM BR8 created.
Nov 26 20:48:29.862 HYPERVISOR: exec_cmd: vm set_con_tcp_port BR8 2011 
Nov 26 20:48:29.864 HYPERVISOR: exec_cmd: vm set_aux_tcp_port BR8 2511 
Nov 26 20:48:29.865 HYPERVISOR: exec_cmd: c7200 get_mac_addr BR8 
Nov 26 20:48:29.866 HYPERVISOR: exec_cmd: vm get_status BR8 
Nov 26 20:48:29.868 HYPERVISOR: exec_cmd: vm slot_add_binding BR8 0 0 C7200-IO-FE 
Nov 26 20:48:29.870 HYPERVISOR: exec_cmd: vm get_status BR8 
Nov 26 20:48:29.872 HYPERVISOR: exec_cmd: vm slot_remove_binding BR8 0 0 
Nov 26 20:48:29.874 HYPERVISOR: exec_cmd: vm get_status BR8 
Nov 26 20:48:29.879 HYPERVISOR: exec_cmd: vm slot_add_binding BR8 0 0 C7200-IO-GE-E 
Nov 26 20:48:29.892 HYPERVISOR: exec_cmd: vm get_status BR8 
Nov 26 20:48:29.893 HYPERVISOR: exec_cmd: vm slot_add_binding BR8 2 0 PA-2FE-TX 
Nov 26 20:48:29.895 HYPERVISOR: exec_cmd: vm set_ram BR8 512 
Nov 26 20:48:29.896 HYPERVISOR: exec_cmd: vm get_status BR8 
Nov 26 20:48:29.898 HYPERVISOR: exec_cmd: vm set_idle_pc BR8 0x60188e14 
Nov 26 20:48:29.900 HYPERVISOR: exec_cmd: vm get_status BR8 
Nov 26 20:48:29.910 HYPERVISOR: exec_cmd: vm slot_add_binding BR8 1 0 PA-2FE-TX 
Nov 26 20:48:29.926 HYPERVISOR: exec_cmd: vm set_ios BR8 /media/actionmystique/SAMSUNG5-VMs/Images/GNS3/IOS/c7200-adventerprisek9-mz.152-4.M2.image 
Nov 26 20:48:29.939 HYPERVISOR: exec_cmd: vm set_config BR8 configs/i8_startup-config.cfg 
Nov 26 20:48:30.823 HYPERVISOR: exec_cmd: vm extract_config BR8 
Nov 26 20:48:31.113 HYPERVISOR: exec_cmd: nio create_udp udp-dca50339-dc3c-4b35-9f9a-da9c06cab458 15023 127.0.0.1 15022 
Nov 26 20:48:31.116 HYPERVISOR: exec_cmd: vm slot_add_nio_binding BR8 1 0 udp-dca50339-dc3c-4b35-9f9a-da9c06cab458 
Nov 26 20:48:31.117 HYPERVISOR: exec_cmd: vm get_status BR8 
Nov 26 20:48:31.136 HYPERVISOR: exec_cmd: nio create_udp udp-baba076b-f2ac-4e8c-9207-cfab611337f3 15025 127.0.0.1 15026 
Nov 26 20:48:31.136 HYPERVISOR: exec_cmd: vm slot_add_nio_binding BR8 1 1 udp-baba076b-f2ac-4e8c-9207-cfab611337f3 
Nov 26 20:48:31.137 HYPERVISOR: exec_cmd: vm get_status BR8 
Nov 26 20:48:31.165 HYPERVISOR: exec_cmd: nio create_udp udp-cbd9c2ec-ddf6-4879-a749-0a96f1ea2109 15027 127.0.0.1 15024 
Nov 26 20:48:31.165 HYPERVISOR: exec_cmd: vm slot_add_nio_binding BR8 0 0 udp-cbd9c2ec-ddf6-4879-a749-0a96f1ea2109 
Nov 26 20:48:31.165 HYPERVISOR: exec_cmd: vm get_status BR8 
Nov 26 20:48:31.179 HYPERVISOR: exec_cmd: nio create_udp udp-44c4bdb4-94c0-49d7-84d0-3a8f2e415d32 15028 127.0.0.1 15031 
Nov 26 20:48:31.180 HYPERVISOR: exec_cmd: vm slot_add_nio_binding BR8 2 0 udp-44c4bdb4-94c0-49d7-84d0-3a8f2e415d32 
Nov 26 20:48:31.180 HYPERVISOR: exec_cmd: vm get_status BR8 
Nov 26 20:48:31.231 HYPERVISOR: exec_cmd: nio create_udp udp-960725d4-7a50-4e31-92e4-f90b3269eca5 15035 127.0.0.1 15036 
Nov 26 20:48:31.231 HYPERVISOR: exec_cmd: vm slot_add_nio_binding BR8 2 1 udp-960725d4-7a50-4e31-92e4-f90b3269eca5 
Nov 26 20:48:31.232 HYPERVISOR: exec_cmd: vm get_status BR8 
Nov 26 20:48:38.512 HYPERVISOR: exec_cmd: vm extract_config BR8 
Nov 26 20:49:00.822 HYPERVISOR: exec_cmd: vm get_status BR8 
Nov 26 20:49:00.827 HYPERVISOR: exec_cmd: vm extract_config BR8 
Nov 26 20:49:00.831 HYPERVISOR: exec_cmd: vm delete BR8 
Nov 26 20:49:00.831 VM: VM BR8 destroyed.
Nov 26 20:49:00.836 HYPERVISOR: exec_cmd: hypervisor stop 
Nov 26 20:49:00.881 HYPERVISOR: Stopped.
Nov 26 20:49:00.881 GENERAL: reset done.
