Nov 27 16:22:04.985 HYPERVISOR: Release 0.2.17-amd64/Linux (tag 2017072410)
Nov 27 16:22:04.985 HYPERVISOR: Started on IP = 127.0.0.1, TCP port = 42927.
Nov 27 16:22:04.994 HYPERVISOR: exec_cmd: hypervisor version 
Nov 27 16:22:04.996 HYPERVISOR: exec_cmd: hypervisor working_dir /media/actionmystique/SAMSUNG5-VMs/Labs/GNS3/git-Public-Labs-Collection/CCNP/TBSHOOT/L3-Technologies/IPv4/High-Availability/HSRP/Jean-Christophe_Manciot/1+/TT 3-linux/project-files/dynamips 
Nov 27 16:22:04.996 GENERAL: working_dir=/media/actionmystique/SAMSUNG5-VMs/Labs/GNS3/git-Public-Labs-Collection/CCNP/TBSHOOT/L3-Technologies/IPv4/High-Availability/HSRP/Jean-Christophe_Manciot/1+/TT 3-linux/project-files/dynamips
Nov 27 16:22:04.998 HYPERVISOR: exec_cmd: vm create SW1 1 c3725 
Nov 27 16:22:04.998 VM: VM SW1 created.
Nov 27 16:22:04.999 HYPERVISOR: exec_cmd: vm set_con_tcp_port SW1 2001 
Nov 27 16:22:04.999 HYPERVISOR: exec_cmd: c3725 get_mac_addr SW1 
Nov 27 16:22:05.000 HYPERVISOR: exec_cmd: vm set_nvram SW1 256 
Nov 27 16:22:05.001 HYPERVISOR: exec_cmd: vm get_status SW1 
Nov 27 16:22:05.001 HYPERVISOR: exec_cmd: vm set_idle_pc SW1 0x614ac21c 
Nov 27 16:22:05.002 HYPERVISOR: exec_cmd: c3725 set_mac_addr SW1 aaaa.aaaa.aaaa 
Nov 27 16:22:05.003 HYPERVISOR: exec_cmd: vm set_exec_area SW1 16 
Nov 27 16:22:05.003 HYPERVISOR: exec_cmd: vm get_status SW1 
Nov 27 16:22:05.004 HYPERVISOR: exec_cmd: vm slot_add_binding SW1 1 0 NM-16ESW 
Nov 27 16:22:05.005 HYPERVISOR: exec_cmd: vm set_ios SW1 /media/actionmystique/SAMSUNG5-VMs/Images/GNS3/IOS/c3725-adventerprisek9-mz.124-15.T10.image 
Nov 27 16:22:05.007 HYPERVISOR: exec_cmd: vm slot_add_binding SW1 0 16 WIC-2T 
Nov 27 16:22:05.008 HYPERVISOR: exec_cmd: vm set_disk0 SW1 1 
Nov 27 16:22:05.009 HYPERVISOR: exec_cmd: vm set_config SW1 configs/i1_startup-config.cfg 
Nov 27 16:22:05.012 HYPERVISOR: exec_cmd: vm set_config SW1 configs/i1_startup-config.cfg configs/i1_private-config.cfg 
Nov 27 16:22:05.193 HYPERVISOR: exec_cmd: nio create_udp udp-082af1f1-0029-4e12-9fb3-fa67c5441049 15001 127.0.0.1 15002 
Nov 27 16:22:05.193 HYPERVISOR: exec_cmd: vm slot_add_nio_binding SW1 1 6 udp-082af1f1-0029-4e12-9fb3-fa67c5441049 
Nov 27 16:22:05.194 HYPERVISOR: exec_cmd: vm get_status SW1 
Nov 27 16:22:05.211 HYPERVISOR: exec_cmd: nio create_udp udp-a886e7e8-ed69-4ba3-a266-1f50177cf79e 15004 127.0.0.1 15000 
Nov 27 16:22:05.218 HYPERVISOR: exec_cmd: vm slot_add_nio_binding SW1 1 5 udp-a886e7e8-ed69-4ba3-a266-1f50177cf79e 
Nov 27 16:22:05.219 HYPERVISOR: exec_cmd: vm get_status SW1 
Nov 27 16:22:05.261 HYPERVISOR: exec_cmd: nio create_udp udp-7f36401a-a4c8-4d3d-b48a-4befacd56251 15008 127.0.0.1 15007 
Nov 27 16:22:05.261 HYPERVISOR: exec_cmd: vm slot_add_nio_binding SW1 1 0 udp-7f36401a-a4c8-4d3d-b48a-4befacd56251 
Nov 27 16:22:05.262 HYPERVISOR: exec_cmd: vm get_status SW1 
Nov 27 16:22:05.316 HYPERVISOR: exec_cmd: nio create_udp udp-4bccf148-b9a6-488a-bef8-e8d0d31fa030 15010 127.0.0.1 15013 
Nov 27 16:22:05.317 HYPERVISOR: exec_cmd: vm slot_add_nio_binding SW1 1 1 udp-4bccf148-b9a6-488a-bef8-e8d0d31fa030 
Nov 27 16:22:05.317 HYPERVISOR: exec_cmd: vm get_status SW1 
