autostart = False
[127.0.0.1:7200]
    workingdir = /tmp
    udp = 10000
    [[3640]]
        image = /Data/GNS3/IOS/C3640-JK.BIN
        idlepc = 0x603e26f0
        ghostios = True
        chassis = 3640
    [[ROUTER Mirror]]
        model = 3640
        console = 2006
        slot0 = NM-1FE-TX
        f0/0 = Catch f0/0
        slot1 = NM-1FE-TX
        f1/0 = Flash f0/0
        cnfg = configs/Mirror.cfg
        x = -355.440692221
        y = -164.8355698
        hx = 5.29289321881
        hy = 38.6396103068
    [[ROUTER Catch]]
        model = 3640
        console = 2005
        slot0 = NM-1FE-TX
        f0/0 = Mirror f0/0
        cnfg = configs/Catch.cfg
        x = -544.945309579
        y = -302.01428535
    [[ROUTER Flash]]
        model = 3640
        console = 2007
        slot0 = NM-1FE-TX
        f0/0 = Mirror f1/0
        cnfg = configs/Flash.cfg
        x = -174.421356237
        y = -302.01428535
[GNS3-DATA]
    configs = configs
    m11 = 1.41421356237
    m22 = 1.41421356237
    [[NOTE 1]]
        text = .3
        x = -197.282791951
        y = -278.676190233
        color = "#0000ff"
    [[NOTE 2]]
        text = .2
        x = -312.541197284
        y = -185.13708499
        color = "#0000ff"
    [[NOTE 3]]
        text = .2
        x = -350.724963469
        y = -185.643181644
        color = "#0000ff"
    [[NOTE 4]]
        text = .1
        x = -479.418397644
        y = -279.487373415
        color = "#0000ff"
    [[NOTE 5]]
        text = 192.168.23.0 /24
        x = -212.839141137
        y = -219.383297014
        color = "#0000ff"
    [[NOTE 6]]
        text = 192.168.12.0 /24
        x = -568.513852074
        y = -223.424927575
        color = "#0000ff"
    [[NOTE 7]]
        text = f0/0
        x = 5.66191056566
        y = 40.8922289309
        interface = Flash f0/0
        color = "#323232"
    [[NOTE 8]]
        text = f1/0
        x = 66.702050465
        y = -1.13486961798
        interface = Mirror f1/0
        color = "#323232"
    [[NOTE 9]]
        text = f0/0
        x = -34.7569843562
        y = -4.28334946649
        interface = Mirror f0/0
        color = "#323232"
    [[NOTE 10]]
        text = f0/0
        x = 25.8036655504
        y = 43.3336019982
        interface = Catch f0/0
        color = "#323232"
